00001  IDENTIFICATION DIVISION.                                         04/06/81
00002                                                                   BSL101
00003  PROGRAM-ID.    'BSL101B'.                                           LV004
00004                                                                   BSL101
00005  AUTHOR.        TOM O'BRIEN.                                      BSL101
00006                                                                   BSL101
00007  DATE-WRITTEN.  AUGUST, 1980.                                     BSL101
00008                                                                   BSL101
00009  DATE-COMPILED.                                                   BSL101
00010                                                                   BSL101
00011 *REMARKS.                                                         BSL101
00012 *    PROGRAM BSL101 READS THE SORTED APPROPRIATION BUDGET MASTER  BSL101
00013 *    FILE AND PRODUCES THE APPROPRIATION CONTROL REPORT (BSL1015) BSL101
00014 *    AND APPROPRIATION CONTROL REPORT PRINT FILE.                 BSL101
00015 *    THE BUDGET TABLES FILE IS READ FOR REPORT CATEGORY TITLES    BSL101
00016  EJECT                                                            BSL101
00017  ENVIRONMENT DIVISION.                                            BSL101
00018                                                                   BSL101
00019  CONFIGURATION SECTION.                                           BSL101
00020                                                                   BSL101
00021  SOURCE-COMPUTER.    IBM-370.                                     BSL101
00022                                                                   BSL101
00023  OBJECT-COMPUTER.    IBM-370.                                     BSL101
00024                                                                   BSL101
00025  SPECIAL-NAMES.                                                   BSL101
00026                                                                   BSL101
00027      C01 IS NEXT-PAGE.                                            BSL101
00028                                                                   BSL101
00029  INPUT-OUTPUT SECTION.                                            BSL101
00030                                                                   BSL101
00031  FILE-CONTROL.                                                    BSL101
00032                                                                   BSL101
00033      SELECT APPROPRIATION-FILE                                    BSL101
00034             ASSIGN UT-S-APPROPI.                                  BSL101
00035                                                                   BSL101
00036      SELECT SYSTEM-CONTROL-FILE                                   BSL101
00037             ASSIGN UT-S-SYSCTLI.                                  BSL101
00038                                                                   BSL101
00039      SELECT BUDGET-TABLES-FILE                                    BSL101
00040             ASSIGN UT-S-TABLES.                                   BSL101
00041                                                                   BSL101
00042      SELECT APPROPRIATION-REPORT                                  BSL101
00043             ASSIGN UT-S-APPROPR.                                  BSL101
00044                                                                   BSL101
00045      SELECT APPROPRIATION-REPORT-FILE                             BSL101
00046             ASSIGN TO UT-S-APPROPF.                               BSL101
00047  EJECT                                                            BSL101
00048  DATA DIVISION.                                                   BSL101
00049                                                                   BSL101
00050  FILE SECTION.                                                    BSL101
00051                                                                   BSL101
00052                                                                   BSL101
00053  FD  APPROPRIATION-FILE                                           BSL101
00054      LABEL RECORDS ARE STANDARD                                   BSL101
00055      RECORDING MODE IS F                                          BSL101
00056      BLOCK CONTAINS 0 RECORDS                                     BSL101
00057      RECORD CONTAINS 175 CHARACTERS.                              BSL101
00058                                                                   BSL101
00059  01  APPROPRIATION-REC               PIC X(175).                  BSL101
00060                                                                   BSL101
00061                                                                   BSL101
00062  FD  SYSTEM-CONTROL-FILE                                          BSL101
00063      LABEL RECORDS ARE STANDARD                                   BSL101
00064      RECORDING MODE IS F                                          BSL101
00065      BLOCK CONTAINS 0 RECORDS                                     BSL101
00066      RECORD CONTAINS 80 CHARACTERS.                               BSL101
00067                                                                   BSL101
00068  01  SYSTEM-CONTROL-REC              PIC X(080).                  BSL101
00069                                                                   BSL101
00070                                                                   BSL101
00071  FD  APPROPRIATION-REPORT                                         BSL101
00072      LABEL RECORDS ARE STANDARD                                   BSL101
00073      RECORDING MODE IS F                                          BSL101
00074      BLOCK CONTAINS 0 RECORDS                                     BSL101
00075      RECORD CONTAINS 133 CHARACTERS.                              BSL101
00076                                                                   BSL101
00077  01  REPORT-LINE.                                                 BSL101
00078      05  RPT-CC                      PIC X(01).                   BSL101
00079      05  RPT-AREA                    PIC X(132).                  BSL101
00080                                                                   BSL101
00081                                                                   BSL101
00082  FD  BUDGET-TABLES-FILE                                           BSL101
00083      LABEL RECORDS ARE STANDARD                                   BSL101
00084      RECORDING MODE IS F                                          BSL101
00085      BLOCK CONTAINS 0 RECORDS                                     BSL101
00086      RECORD CONTAINS 80 CHARACTERS.                               BSL101
00087                                                                   BSL101
00088  01  BUDGET-TABLES-REC               PIC X(080).                  BSL101
00089                                                                   BSL101
00090                                                                   BSL101
00091  FD  APPROPRIATION-REPORT-FILE                                    BSL101
00092      LABEL RECORDS ARE STANDARD                                   BSL101
00093      RECORDING MODE IS F                                          BSL101
00094      BLOCK CONTAINS 0 RECORDS                                     BSL101
00095      RECORD CONTAINS 133 CHARACTERS.                              BSL101
00096                                                                   BSL101
00097  01  REPORT-RECORD                   PIC X(133).                  BSL101
00098                                                                   BSL101
00099                                                                   BSL101
00100  EJECT                                                            BSL101
00101  WORKING-STORAGE SECTION.                                         BSL101
00102                                                                   BSL101
00103  01  PROGRAM-START-WS.                                            BSL101
00104      05  PROG-NAME                PIC X(06) VALUE 'BSL101'.       BSL101
00105      05  PROGRAM-START-FIL           PIC X(27) VALUE              BSL101
00106          'WORKING-STORAGE STARTS HERE'.                           BSL101
00107      05  PROGRAM-TITLE.                                           BSL101
00108          10  APP-FL1                 PIC X(16) VALUE SPACES.      BSL101
00109          10  APP-TITLE               PIC X(55) VALUE              BSL101
00110      'A P P R O P R I A T I O N   C O N T R O L   R E P O R T'.   BSL101
00111                                                                   BSL101
00112                                                                   BSL101
00113                                                                   BSL101
00114                                                                   BSL101
00115  01  SYSTEM-CONTROL-RECORD.      COPY  BUDSCNTL.                  BSL101
00116                                                                   BSL101
00117                                                                   BSL101
00118                                                                   BSL101
00119                                                                   BSL101
00120  01  BUDGET-TABLES-RECORD.       COPY BUDTABLE.                   BSL101
00121  EJECT                                                            BSL101
00122                                                                   BSL101
00123  01  BUDGET-MASTER-RECORD            PIC  X(175).                 BSL101
00124                                  COPY  BUDMAST.                   BSL101
00125  EJECT                                                            BSL101
00126                                                                   BSL101
00127  01  APPROP-RECORD-MISC.                                          BSL101
00128      05  APPROPRIATION-STATUS-FLAG   PIC  X(02) VALUE 'AB'.       BSL101
00129          88  APPROPRIATION-BEGIN                VALUE 'AB'.       BSL101
00130          88  APPROPRIATION-READ                 VALUE 'AR'.       BSL101
00131          88  APPROPRIATION-EOF                  VALUE 'AE'.       BSL101
00132      05  CURR-MASTER-KEY.                                         BSL101
00133          10  CURR-LOCATION-CD        PIC  X(02) VALUE LOW-VALUES. BSL101
00134          10  CURR-SAU-CODE           PIC  X(01) VALUE LOW-VALUES. BSL101
00135          10  CURR-SUB-CAMPUS-ID      PIC  X(01) VALUE LOW-VALUES. BSL101
00136          10  CURR-FUNCTION-CD        PIC  X(02) VALUE LOW-VALUES. BSL101
00137      05  PREV-MASTER-KEY.                                         BSL101
00138          10  PREV-LOCATION-CD        PIC  X(02) VALUE LOW-VALUES. BSL101
00139          10  PREV-SAU-CODE           PIC  X(01) VALUE LOW-VALUES. BSL101
00140          10  PREV-SUB-CAMPUS-ID      PIC  X(01) VALUE LOW-VALUES. BSL101
00141          10  PREV-FUNCTION-CD        PIC  X(02) VALUE LOW-VALUES. BSL101
00142                                                                   BSL101
00143      05  FUNCTION-TITLE-WS           PIC  X(35).                  BSL101
00144      05  SUB-CAMPUS-TITLE-WS         PIC  X(35).                  BSL101
00145      05  SAU-TITLE-WS                PIC  X(35).                  BSL101
00146      05  LOCATION-TITLE-WS           PIC  X(35).                  BSL101
00147      05  ADJB-AMT-WS                 PIC S9(10)    COMP-3.        BSL101
00148      05  ADJB-FTE-WS                 PIC S9(05)V99 COMP-3.        BSL101
00149      05  NEWB-AMT-WS                 PIC S9(10)    COMP-3.        BSL101
00150      05  NEWB-FTE-WS                 PIC S9(05)V99 COMP-3.        BSL101
00151  EJECT                                                            BSL101
00152  01  BUDGET-TABLES.    COPY BUDTBLWS.                             BSL101
00153  EJECT                                                            BSL101
00154      05  MSG-ABORT-TABLE.                                         BSL101
00155          10  A1 PIC X(31) VALUE '01-SYSTEM CONTROL FILE EMPTY   '.BSL101
00156          10  A2 PIC X(31) VALUE '02-BUDGET TABLES EMPTY         '.BSL101
00157          10  A3 PIC X(31) VALUE '03-BUDGET MASTER FILE EMPTY    '.BSL101
00158          10  A4 PIC X(31) VALUE '04-BUDGET MASTER ALREADY EOF   '.BSL101
00159          10  A5 PIC X(31) VALUE '05-BUDGET MASTER OUT OF SEQ    '.BSL101
00160          10  A6 PIC X(31) VALUE '06-NO BUDGET TABLE INDEXES     '.BSL101
00161          10  A7 PIC X(31) VALUE '07-NO BUDGET TABLE MATCH       '.BSL101
00162          10  A8 PIC X(31) VALUE '08-NO ENTRIES IN TABLE FILE    '.BSL101
00163          10  A9 PIC X(31) VALUE '09-UNEQUAL CURR CYCLE NUMBERS  '.BSL101
00164          10  AA PIC X(31) VALUE '10-REPORT CONTROL FILE EMPTY   '.BSL101
00165          10  AB PIC X(31) VALUE '11-TRANS TYPE TABLE EXCEEDED   '.BSL101
00166                                                                   BSL101
00167      05  MSG-ABORT           REDEFINES                            BSL101
00168          MSG-ABORT-TABLE     OCCURS 11                            BSL101
00169                              INDEXED BY MSG-ABORT-INDEX.          BSL101
00170          10  MSG-ABORT-CODE  PIC X(02).                           BSL101
00171          10  ABORT-MSG       PIC X(29).                           BSL101
00172                                                                   BSL101
00173      05  ABORT-CODE          PIC X(02).                           BSL101
00174      05  PROGRAM-ABORT-FLAG  PIC X(01)  VALUE 'N'.                BSL101
00175          88  ABORTING-PROGRAM           VALUE 'Y'.                BSL101
00176  EJECT                                                            BSL101
00177  01  REPORT-TOTALS.                                               BSL101
00178      05  APPROP-TRANS-TYPE-TABLE     OCCURS 100                   BSL101
00179                                      INDEXED BY TRN-INDX          BSL101
00180                                                 TRN-LIMIT.        BSL101
00181          10  APP-TRANS-TYPE          PIC X(02).                   BSL101
00182          10  APP-TRANS-FLAG          PIC X(01).                   BSL101
00183          10  APP-TRANS-ADJTD-AMT     PIC S9(10)    COMP-3.        BSL101
00184          10  APP-TRANS-ADJTD-FTE     PIC S9(05)V99 COMP-3.        BSL101
00185          10  APP-TRANS-INCTD-AMT     PIC S9(10)    COMP-3.        BSL101
00186          10  APP-TRANS-INCTD-FTE     PIC S9(05)V99 COMP-3.        BSL101
00187          10  APP-TRANS-ADJLT-AMT     PIC S9(10)    COMP-3.        BSL101
00188          10  APP-TRANS-ADJLT-FTE     PIC S9(05)V99 COMP-3.        BSL101
00189          10  APP-TRANS-INCLT-AMT     PIC S9(10)    COMP-3.        BSL101
00190          10  APP-TRANS-INCLT-FTE     PIC S9(05)V99 COMP-3.        BSL101
00191      05  APPROP-FUNCTION-TOTALS.                                  BSL101
00192          10  APP-FUNC-INIT-AMT      PIC S9(10)    COMP-3 VALUE +0.BSL101
00193          10  APP-FUNC-INIT-FTE      PIC S9(05)V99 COMP-3 VALUE +0.BSL101
00194          10  APP-FUNC-ADJTD-AMT     PIC S9(10)    COMP-3 VALUE +0.BSL101
00195          10  APP-FUNC-ADJTD-FTE     PIC S9(05)V99 COMP-3 VALUE +0.BSL101
00196          10  APP-FUNC-INCTD-AMT     PIC S9(10)    COMP-3 VALUE +0.BSL101
00197          10  APP-FUNC-INCTD-FTE     PIC S9(05)V99 COMP-3 VALUE +0.BSL101
00198          10  APP-FUNC-ADJLT-AMT     PIC S9(10)    COMP-3 VALUE +0.BSL101
00199          10  APP-FUNC-ADJLT-FTE     PIC S9(05)V99 COMP-3 VALUE +0.BSL101
00200          10  APP-FUNC-INCLT-AMT     PIC S9(10)    COMP-3 VALUE +0.BSL101
00201          10  APP-FUNC-INCLT-FTE     PIC S9(05)V99 COMP-3 VALUE +0.BSL101
00202      05  APPROP-SUBC-TOTALS.                                      BSL101
00203          10  APP-SUBC-INIT-AMT      PIC S9(10)    COMP-3 VALUE +0.BSL101
00204          10  APP-SUBC-INIT-FTE      PIC S9(05)V99 COMP-3 VALUE +0.BSL101
00205          10  APP-SUBC-ADJTD-AMT     PIC S9(10)    COMP-3 VALUE +0.BSL101
00206          10  APP-SUBC-ADJTD-FTE     PIC S9(05)V99 COMP-3 VALUE +0.BSL101
00207          10  APP-SUBC-INCTD-AMT     PIC S9(10)    COMP-3 VALUE +0.BSL101
00208          10  APP-SUBC-INCTD-FTE     PIC S9(05)V99 COMP-3 VALUE +0.BSL101
00209          10  APP-SUBC-ADJLT-AMT     PIC S9(10)    COMP-3 VALUE +0.BSL101
00210          10  APP-SUBC-ADJLT-FTE     PIC S9(05)V99 COMP-3 VALUE +0.BSL101
00211          10  APP-SUBC-INCLT-AMT     PIC S9(10)    COMP-3 VALUE +0.BSL101
00212          10  APP-SUBC-INCLT-FTE     PIC S9(05)V99 COMP-3 VALUE +0.BSL101
00213      05  APPROP-SAU-TOTALS.                                       BSL101
00214          10  APP-SAU-INIT-AMT       PIC S9(10)    COMP-3 VALUE +0.BSL101
00215          10  APP-SAU-INIT-FTE       PIC S9(05)V99 COMP-3 VALUE +0.BSL101
00216          10  APP-SAU-ADJTD-AMT      PIC S9(10)    COMP-3 VALUE +0.BSL101
00217          10  APP-SAU-ADJTD-FTE      PIC S9(05)V99 COMP-3 VALUE +0.BSL101
00218          10  APP-SAU-INCTD-AMT      PIC S9(10)    COMP-3 VALUE +0.BSL101
00219          10  APP-SAU-INCTD-FTE      PIC S9(05)V99 COMP-3 VALUE +0.BSL101
00220          10  APP-SAU-ADJLT-AMT      PIC S9(10)    COMP-3 VALUE +0.BSL101
00221          10  APP-SAU-ADJLT-FTE      PIC S9(05)V99 COMP-3 VALUE +0.BSL101
00222          10  APP-SAU-INCLT-AMT      PIC S9(10)    COMP-3 VALUE +0.BSL101
00223          10  APP-SAU-INCLT-FTE      PIC S9(05)V99 COMP-3 VALUE +0.BSL101
00224      05  APPROP-LOCATION-TOTALS.                                  BSL101
00225          10  APP-LOC-INIT-AMT       PIC S9(10)    COMP-3 VALUE +0.BSL101
00226          10  APP-LOC-INIT-FTE       PIC S9(05)V99 COMP-3 VALUE +0.BSL101
00227          10  APP-LOC-ADJTD-AMT      PIC S9(10)    COMP-3 VALUE +0.BSL101
00228          10  APP-LOC-ADJTD-FTE      PIC S9(05)V99 COMP-3 VALUE +0.BSL101
00229          10  APP-LOC-INCTD-AMT      PIC S9(10)    COMP-3 VALUE +0.BSL101
00230          10  APP-LOC-INCTD-FTE      PIC S9(05)V99 COMP-3 VALUE +0.BSL101
00231          10  APP-LOC-ADJLT-AMT      PIC S9(10)    COMP-3 VALUE +0.BSL101
00232          10  APP-LOC-ADJLT-FTE      PIC S9(05)V99 COMP-3 VALUE +0.BSL101
00233          10  APP-LOC-INCLT-AMT      PIC S9(10)    COMP-3 VALUE +0.BSL101
00234          10  APP-LOC-INCLT-FTE      PIC S9(05)V99 COMP-3 VALUE +0.BSL101
00235  EJECT                                                            BSL101
00236  01  REPORT-HEADINGS.                COPY RPTMISC.                BSL101
00237                                                                   BSL101
00238  01  RPT-HEAD-LINE-4.                                             BSL101
00239      05  RPT-H4-CC         PIC X(01) VALUE '0'.                   BSL101
00240      05  RPT-H4-FL1        PIC X(20) VALUE ' FUNCTION           '.BSL101
00241      05  RPT-H4-FL2        PIC X(20) VALUE '                  IN'.BSL101
00242      05  RPT-H4-FL3        PIC X(20) VALUE 'ITIAL   ADJUSTMENTS '.BSL101
00243      05  RPT-H4-FL4        PIC X(20) VALUE '     ADJUSTED    INC'.BSL101
00244      05  RPT-H4-FL5        PIC X(20) VALUE 'REMENTS          NEW'.BSL101
00245      05  RPT-H4-FL6        PIC X(20) VALUE '       ADJUSTMENTS /'.BSL101
00246      05  RPT-H4-FL7        PIC X(12) VALUE ' INCREMENTS '.        BSL101
00247                                                                   BSL101
00248  01  RPT-HEAD-LINE-5.                                             BSL101
00249      05  RPT-H5-CC         PIC X(01) VALUE ' '.                   BSL101
00250      05  RPT-H5-FL1        PIC X(20) VALUE '   TRANSACTION TYPE '.BSL101
00251      05  RPT-H5-FL2        PIC X(20) VALUE '                  BU'.BSL101
00252      05  RPT-H5-FL3        PIC X(20) VALUE 'DGET      TO DATE   '.BSL101
00253      05  RPT-H5-FL4        PIC X(20) VALUE '      BUDGET      TO'.BSL101
00254      05  RPT-H5-FL5        PIC X(20) VALUE ' DATE          BUDGE'.BSL101
00255      05  RPT-H5-FL6        PIC X(20) VALUE 'T       SINCE LAST C'.BSL101
00256      05  RPT-H5-FL7        PIC X(12) VALUE 'ONTROL XMTL.'.        BSL101
00257                                                                   BSL101
00258  01  REPORT-MISC.                                                 BSL101
00259      05  RPT-TOTAL-TITLE.                                         BSL101
00260          10  RPT-TOT-NM          PIC X(08) VALUE 'TOTAL - '.      BSL101
00261          10  RPT-TOT-TTL         PIC X(29).                       BSL101
00262                                                                   BSL101
00263  01  RPT-TRANSACTION-LINE.                                        BSL101
00264      05  RPT-TRAN-CC                 PIC X(02).                   BSL101
00265      05  RPT-TRAN-CODE               PIC X(03).                   BSL101
00266      05  RPT-TRAN-TITLE              PIC X(28).                   BSL101
00267      05  RPT-TRAN-INIT-AMT           PIC ZZZZZ,ZZZ,ZZZ.           BSL101
00268      05  RPT-TRAN-INIT-AMT-CR        PIC X(02).                   BSL101
00269      05  RPT-TRAN-ADJTD-AMT          PIC ZZZZ,ZZZ,ZZZ.            BSL101
00270      05  RPT-TRAN-ADJTD-AMT-CR       PIC X(02).                   BSL101
00271      05  RPT-TRAN-ADJBD-AMT          PIC ZZZZ,ZZZ,ZZZ.            BSL101
00272      05  RPT-TRAN-ADJBD-AMT-CR       PIC X(02).                   BSL101
00273      05  RPT-TRAN-INCTD-AMT          PIC ZZZZ,ZZZ,ZZZ.            BSL101
00274      05  RPT-TRAN-INCTD-AMT-CR       PIC X(02).                   BSL101
00275      05  RPT-TRAN-NEWB-AMT           PIC ZZZZ,ZZZ,ZZZ.            BSL101
00276      05  RPT-TRAN-NEWB-AMT-CR        PIC X(02).                   BSL101
00277      05  RPT-TRAN-ADJLT-AMT          PIC ZZZZ,ZZZ,ZZZ.            BSL101
00278      05  RPT-TRAN-ADJLT-AMT-CR       PIC X(02).                   BSL101
00279      05  RPT-TRAN-INCLT-AMT          PIC ZZZZ,ZZZ,ZZZ.            BSL101
00280      05  RPT-TRAN-INCLT-AMT-CR       PIC X(02).                   BSL101
00281                                                                   BSL101
00282  01  RPT-TRANSACTION-LINE-2.                                      BSL101
00283      05  RPT-TRAN-FL1                PIC X(37).                   BSL101
00284      05  RPT-TRAN-INIT-FTE           PIC ZZ,ZZZ.ZZ.               BSL101
00285      05  RPT-TRAN-INIT-FTE-CR        PIC X(02).                   BSL101
00286      05  RPT-TRAN-F1                 PIC X(03).                   BSL101
00287      05  RPT-TRAN-ADJTD-FTE          PIC ZZ,ZZZ.ZZ.               BSL101
00288      05  RPT-TRAN-ADJTD-FTE-CR       PIC X(02).                   BSL101
00289      05  RPT-TRAN-F2                 PIC X(03).                   BSL101
00290      05  RPT-TRAN-ADJBD-FTE          PIC ZZ,ZZZ.ZZ.               BSL101
00291      05  RPT-TRAN-ADJBD-FTE-CR       PIC X(02).                   BSL101
00292      05  RPT-TRAN-F3                 PIC X(03).                   BSL101
00293      05  RPT-TRAN-INCTD-FTE          PIC ZZ,ZZZ.ZZ.               BSL101
00294      05  RPT-TRAN-INCTD-FTE-CR       PIC X(02).                   BSL101
00295      05  RPT-TRAN-F4                 PIC X(03).                   BSL101
00296      05  RPT-TRAN-NEWB-FTE           PIC ZZ,ZZZ.ZZ.               BSL101
00297      05  RPT-TRAN-NEWB-FTE-CR        PIC X(02).                   BSL101
00298      05  RPT-TRAN-F5                 PIC X(03).                   BSL101
00299      05  RPT-TRAN-ADJLT-FTE          PIC ZZ,ZZZ.ZZ.               BSL101
00300      05  RPT-TRAN-ADJLT-FTE-CR       PIC X(02).                   BSL101
00301      05  RPT-TRAN-F6                 PIC X(03).                   BSL101
00302      05  RPT-TRAN-INCLT-FTE          PIC ZZ,ZZZ.ZZ.               BSL101
00303      05  RPT-TRAN-INCLT-FTE-CR       PIC X(02).                   BSL101
00304                                                                   BSL101
00305  01  RPT-FUNCTION-LINE.                                           BSL101
00306      05  RPT-FUNC-CC                 PIC X(01).                   BSL101
00307      05  RPT-FUNC-CODE               PIC X(03).                   BSL101
00308      05  RPT-FUNC-TITLE              PIC X(29).                   BSL101
00309      05  RPT-FUNC-INIT-AMT           PIC ZZZZZ,ZZZ,ZZZ.           BSL101
00310      05  RPT-FUNC-INIT-AMT-CR        PIC X(02).                   BSL101
00311      05  RPT-FUNC-ADJTD-AMT          PIC ZZZZ,ZZZ,ZZZ.            BSL101
00312      05  RPT-FUNC-ADJTD-AMT-CR       PIC X(02).                   BSL101
00313      05  RPT-FUNC-ADJBD-AMT          PIC ZZZZ,ZZZ,ZZZ.            BSL101
00314      05  RPT-FUNC-ADJBD-AMT-CR       PIC X(02).                   BSL101
00315      05  RPT-FUNC-INCTD-AMT          PIC ZZZZ,ZZZ,ZZZ.            BSL101
00316      05  RPT-FUNC-INCTD-AMT-CR       PIC X(02).                   BSL101
00317      05  RPT-FUNC-NEWB-AMT           PIC ZZZZ,ZZZ,ZZZ.            BSL101
00318      05  RPT-FUNC-NEWB-AMT-CR        PIC X(02).                   BSL101
00319      05  RPT-FUNC-ADJLT-AMT          PIC ZZZZ,ZZZ,ZZZ.            BSL101
00320      05  RPT-FUNC-ADJLT-AMT-CR       PIC X(02).                   BSL101
00321      05  RPT-FUNC-INCLT-AMT          PIC ZZZZ,ZZZ,ZZZ.            BSL101
00322      05  RPT-FUNC-INCLT-AMT-CR       PIC X(02).                   BSL101
00323                                                                   BSL101
00324  01  RPT-FUNCTION-LINE-2.                                         BSL101
00325      05  RPT-FUNC-FL1                PIC X(37).                   BSL101
00326      05  RPT-FUNC-INIT-FTE           PIC ZZ,ZZZ.ZZ.               BSL101
00327      05  RPT-FUNC-INIT-FTE-CR        PIC X(02).                   BSL101
00328      05  RPT-FUNC-F1                 PIC X(03).                   BSL101
00329      05  RPT-FUNC-ADJTD-FTE          PIC ZZ,ZZZ.ZZ.               BSL101
00330      05  RPT-FUNC-ADJTD-FTE-CR       PIC X(02).                   BSL101
00331      05  RPT-FUNC-F2                 PIC X(03).                   BSL101
00332      05  RPT-FUNC-ADJBD-FTE          PIC ZZ,ZZZ.ZZ.               BSL101
00333      05  RPT-FUNC-ADJBD-FTE-CR       PIC X(02).                   BSL101
00334      05  RPT-FUNC-F3                 PIC X(03).                   BSL101
00335      05  RPT-FUNC-INCTD-FTE          PIC ZZ,ZZZ.ZZ.               BSL101
00336      05  RPT-FUNC-INCTD-FTE-CR       PIC X(02).                   BSL101
00337      05  RPT-FUNC-F4                 PIC X(03).                   BSL101
00338      05  RPT-FUNC-NEWB-FTE           PIC ZZ,ZZZ.ZZ.               BSL101
00339      05  RPT-FUNC-NEWB-FTE-CR        PIC X(02).                   BSL101
00340      05  RPT-FUNC-F5                 PIC X(03).                   BSL101
00341      05  RPT-FUNC-ADJLT-FTE          PIC ZZ,ZZZ.ZZ.               BSL101
00342      05  RPT-FUNC-ADJLT-FTE-CR       PIC X(02).                   BSL101
00343      05  RPT-FUNC-F6                 PIC X(03).                   BSL101
00344      05  RPT-FUNC-INCLT-FTE          PIC ZZ,ZZZ.ZZ.               BSL101
00345      05  RPT-FUNC-INCLT-FTE-CR       PIC X(02).                   BSL101
00346                                                                   BSL101
00347  01  RPT-TOTAL-LINE.                                              BSL101
00348      05  RPT-TOT-CC                  PIC X(03).                   BSL101
00349      05  RPT-TOT-CODE                PIC X(03).                   BSL101
00350      05  RPT-TOT-NAME                PIC X(08).                   BSL101
00351      05  RPT-TOT-TITLE               PIC X(19).                   BSL101
00352      05  RPT-TOT-INIT-AMT            PIC ZZZZZ,ZZZ,ZZZ.           BSL101
00353      05  RPT-TOT-INIT-AMT-CR         PIC X(02).                   BSL101
00354      05  RPT-TOT-ADJTD-AMT           PIC ZZZZ,ZZZ,ZZZ.            BSL101
00355      05  RPT-TOT-ADJTD-AMT-CR        PIC X(02).                   BSL101
00356      05  RPT-TOT-ADJBD-AMT           PIC ZZZZ,ZZZ,ZZZ.            BSL101
00357      05  RPT-TOT-ADJBD-AMT-CR        PIC X(02).                   BSL101
00358      05  RPT-TOT-INCTD-AMT           PIC ZZZZ,ZZZ,ZZZ.            BSL101
00359      05  RPT-TOT-INCTD-AMT-CR        PIC X(02).                   BSL101
00360      05  RPT-TOT-NEWB-AMT            PIC ZZZZ,ZZZ,ZZZ.            BSL101
00361      05  RPT-TOT-NEWB-AMT-CR         PIC X(02).                   BSL101
00362      05  RPT-TOT-ADJLT-AMT           PIC ZZZZ,ZZZ,ZZZ.            BSL101
00363      05  RPT-TOT-ADJLT-AMT-CR        PIC X(02).                   BSL101
00364      05  RPT-TOT-INCLT-AMT           PIC ZZZZ,ZZZ,ZZZ.            BSL101
00365      05  RPT-TOT-INCLT-AMT-CR        PIC X(02).                   BSL101
00366                                                                   BSL101
00367  01  RPT-TOTAL-LINE-2.                                            BSL101
00368      05  RPT-TOT-FL1                 PIC X(37) VALUE SPACES.      BSL101
00369      05  RPT-TOT-INIT-FTE            PIC ZZ,ZZZ.ZZ.               BSL101
00370      05  RPT-TOT-INIT-FTE-CR         PIC X(02).                   BSL101
00371      05  RPT-TOT-F1                  PIC X(03).                   BSL101
00372      05  RPT-TOT-ADJTD-FTE           PIC ZZ,ZZZ.ZZ.               BSL101
00373      05  RPT-TOT-ADJTD-FTE-CR        PIC X(02).                   BSL101
00374      05  RPT-TOT-F2                  PIC X(03).                   BSL101
00375      05  RPT-TOT-ADJBD-FTE           PIC ZZ,ZZZ.ZZ.               BSL101
00376      05  RPT-TOT-ADJBD-FTE-CR        PIC X(02).                   BSL101
00377      05  RPT-TOT-F3                  PIC X(03).                   BSL101
00378      05  RPT-TOT-INCTD-FTE           PIC ZZ,ZZZ.ZZ.               BSL101
00379      05  RPT-TOT-INCTD-FTE-CR        PIC X(02).                   BSL101
00380      05  RPT-TOT-F4                  PIC X(03).                   BSL101
00381      05  RPT-TOT-NEWB-FTE            PIC ZZ,ZZZ.ZZ.               BSL101
00382      05  RPT-TOT-NEWB-FTE-CR         PIC X(02).                   BSL101
00383      05  RPT-TOT-F5                  PIC X(03).                   BSL101
00384      05  RPT-TOT-ADJLT-FTE           PIC ZZ,ZZZ.ZZ.               BSL101
00385      05  RPT-TOT-ADJLT-FTE-CR        PIC X(02).                   BSL101
00386      05  RPT-TOT-F6                  PIC X(03).                   BSL101
00387      05  RPT-TOT-INCLT-FTE           PIC ZZ,ZZZ.ZZ.               BSL101
00388      05  RPT-TOT-INCLT-FTE-CR        PIC X(02).                   BSL101
00389  EJECT                                                            BSL101
00390  01  APPROPRIATION-HASH-AREA.   COPY HSHTOTWS.                    BSL101
00391  EJECT                                                            BSL101
00392  PROCEDURE DIVISION.                                              BSL101
00393                                                                   BSL101
00394  0000-MAINLINE.                                                   BSL101
00395      DISPLAY 'BSL101 HAS BEGUN'.                                  BSL101
00396                                                                   BSL101
00397      PERFORM 1000-INITIALIZATION.                                 BSL101
00398                                                                   BSL101
00399      PERFORM 2000-PROCESS-APPROP-FILE                             BSL101
00400          UNTIL APPROPRIATION-EOF.                                 BSL101
00401                                                                   BSL101
00402      PERFORM 9900-EOJ-PROCESSING.                                 BSL101
00403  EJECT                                                            BSL101
00404  1000-INITIALIZATION.                                             BSL101
00405                                                                   BSL101
00406                                                                   BSL101
00407      OPEN INPUT APPROPRIATION-FILE                                BSL101
00408                 SYSTEM-CONTROL-FILE                               BSL101
00409                 BUDGET-TABLES-FILE.                               BSL101
00410                                                                   BSL101
00411      OPEN OUTPUT APPROPRIATION-REPORT                             BSL101
00412                  APPROPRIATION-REPORT-FILE.                       BSL101
00413                                                                   BSL101
00414      PERFORM 8000-READ-SYSTEM-CONTROL-FILE.                       BSL101
00415      DISPLAY 'SYSCTLI - ' SYSTEM-CONTROL-RECORD.                  BSL101
00416                                                                   BSL101
00417 *      ** STANDARD INITIALIZIATION FOR STANDARD REPORT HEADING    BSL101
00418 *      **  REQUIRES PROGRAM TO HAVE READ SYSTEM CONTROL RECORD    BSL101
00419                                                                   BSL101
00420      MOVE  SYS-CURR-PROC-YEAR  TO  RPT-HEAD2-REPORT-YEAR.         BSL101
00421      MOVE  SYS-CURR-PROC-MONTH TO  RPT-HEAD2-REPORT-MONTH.        BSL101
00422      MOVE  SYS-CURR-PROC-DAY   TO  RPT-HEAD2-REPORT-DAY.          BSL101
00423                                                                   BSL101
00424      ACCEPT  RPT-RUN-DATE  FROM  DATE.                            BSL101
00425      MOVE  RPT-RUN-YEAR  TO  RPT-HEAD3-RUN-YEAR.                  BSL101
00426      MOVE  RPT-RUN-MONTH TO  RPT-HEAD3-RUN-MONTH.                 BSL101
00427      MOVE  RPT-RUN-DAY   TO  RPT-HEAD3-RUN-DAY.                   BSL101
00428                                                                   BSL101
00429      MOVE PROGRAM-TITLE TO RPT-HEAD1-TITLE.                       BSL101
00430      MOVE '1015'        TO RPT-HEAD1-ID.                          BSL101
00431                                                                   BSL101
00432      SET TRN-LIMIT TO +1.                                         BSL101
00433      PERFORM 1200-INITIALIZE-TRAN-TABLE                           BSL101
00434          UNTIL TRN-LIMIT = +100.                                  BSL101
00435      SET TRN-LIMIT TO +1.                                         BSL101
00436                                                                   BSL101
00437      PERFORM 1100-PROC-BUDGET-TABLES-LOAD.                        BSL101
00438  EJECT                                                            BSL101
00439  1100-PROC-BUDGET-TABLES-LOAD.                                    BSL101
00440                                                                   BSL101
00441 *** LOAD SAU TABLE                                                BSL101
00442      MOVE '002' TO TABLE-NO-ARG.                                  BSL101
00443      PERFORM 9200-LOAD-BUDGET-TABLE.                              BSL101
00444                                                                   BSL101
00445      IF  TABLE-LOAD-ERROR                                         BSL101
00446          MOVE 08 TO ABORT-CODE                                    BSL101
00447          PERFORM 9800-ABORT-PROGRAM.                              BSL101
00448                                                                   BSL101
00449      SET TAB-INDX TO TAB-END-INDX.                                BSL101
00450 *** LOAD TRANSACTION TYPE TABLE                                   BSL101
00451      MOVE '003' TO TABLE-NO-ARG.                                  BSL101
00452      PERFORM 9200-LOAD-BUDGET-TABLE.                              BSL101
00453                                                                   BSL101
00454      IF  TABLE-LOAD-ERROR                                         BSL101
00455          MOVE 08 TO ABORT-CODE                                    BSL101
00456          PERFORM 9800-ABORT-PROGRAM.                              BSL101
00457                                                                   BSL101
00458      SET TAB-INDX TO TAB-END-INDX.                                BSL101
00459 *** LOAD FUNCTION CODE TABLE                                      BSL101
00460      MOVE '009' TO TABLE-NO-ARG.                                  BSL101
00461      PERFORM 9200-LOAD-BUDGET-TABLE.                              BSL101
00462                                                                   BSL101
00463      IF  TABLE-LOAD-ERROR                                         BSL101
00464          MOVE 08 TO ABORT-CODE                                    BSL101
00465          PERFORM 9800-ABORT-PROGRAM.                              BSL101
00466                                                                   BSL101
00467      SET TAB-INDX TO TAB-END-INDX.                                BSL101
00468 *** LOAD SUB-CAMPUS CODE TABLE                                    BSL101
00469      MOVE '011' TO TABLE-NO-ARG.                                  BSL101
00470      PERFORM 9200-LOAD-BUDGET-TABLE.                              BSL101
00471                                                                   BSL101
00472      IF  TABLE-LOAD-ERROR                                         BSL101
00473          MOVE 08 TO ABORT-CODE                                    BSL101
00474          PERFORM 9800-ABORT-PROGRAM.                              BSL101
00475                                                                   BSL101
00476      SET TAB-INDX TO TAB-END-INDX.                                BSL101
00477 *** LOAD LOCATION CODE TABLE                                      BSL101
00478      MOVE '012' TO TABLE-NO-ARG.                                  BSL101
00479      PERFORM 9200-LOAD-BUDGET-TABLE.                              BSL101
00480                                                                   BSL101
00481      IF TABLE-LOAD-ERROR                                          BSL101
00482          MOVE '08' TO ABORT-CODE                                  BSL101
00483          PERFORM 9800-ABORT-PROGRAM.                              BSL101
00484                                                                   BSL101
00485  EJECT                                                            BSL101
00486  1200-INITIALIZE-TRAN-TABLE.                                      BSL101
00487                                                                   BSL101
00488      MOVE LOW-VALUES         TO APP-TRANS-TYPE (TRN-LIMIT).       BSL101
00489      MOVE 'N'                TO APP-TRANS-FLAG (TRN-LIMIT).       BSL101
00490      MOVE ZEROS              TO APP-TRANS-ADJTD-AMT (TRN-LIMIT)   BSL101
00491                                 APP-TRANS-ADJTD-FTE (TRN-LIMIT)   BSL101
00492                                 APP-TRANS-INCTD-AMT (TRN-LIMIT)   BSL101
00493                                 APP-TRANS-INCTD-FTE (TRN-LIMIT)   BSL101
00494                                 APP-TRANS-ADJLT-AMT (TRN-LIMIT)   BSL101
00495                                 APP-TRANS-ADJLT-FTE (TRN-LIMIT)   BSL101
00496                                 APP-TRANS-INCLT-AMT (TRN-LIMIT)   BSL101
00497                                 APP-TRANS-INCLT-FTE (TRN-LIMIT).  BSL101
00498      SET TRN-LIMIT UP BY +1.                                      BSL101
00499  EJECT                                                            BSL101
00500  2000-PROCESS-APPROP-FILE.                                        BSL101
00501                                                                   BSL101
00502      PERFORM 8200-READ-APPROPRIATION-FILE.                        BSL101
00503                                                                   BSL101
00504      IF  CURR-MASTER-KEY NOT = PREV-MASTER-KEY                    BSL101
00505          PERFORM 3000-PROCESS-CONTROL-BREAK.                      BSL101
00506                                                                   BSL101
00507      PERFORM 4000-PROCESS-APPROP-RECORD.                          BSL101
00508  SKIP3                                                            BSL101
00509  3000-PROCESS-CONTROL-BREAK.                                      BSL101
00510                                                                   BSL101
00511      IF  PREV-MASTER-KEY NOT = LOW-VALUES                         BSL101
00512      IF  CURR-LOCATION-CD NOT = PREV-LOCATION-CD                  BSL101
00513          PERFORM 3100-PROCESS-TRANSACTION-BREAK                   BSL101
00514          PERFORM 3200-PROCESS-FUNCTION-BREAK                      BSL101
00515          PERFORM 3300-PROCESS-SUB-CAMPUS-BREAK                    BSL101
00516          PERFORM 3400-PROCESS-SAU-BREAK                           BSL101
00517          PERFORM 3500-PROCESS-LOCATION-BREAK                      BSL101
00518      ELSE                                                         BSL101
00519      IF  CURR-SAU-CODE NOT = PREV-SAU-CODE                        BSL101
00520          PERFORM 3100-PROCESS-TRANSACTION-BREAK                   BSL101
00521          PERFORM 3200-PROCESS-FUNCTION-BREAK                      BSL101
00522          PERFORM 3300-PROCESS-SUB-CAMPUS-BREAK                    BSL101
00523          PERFORM 3400-PROCESS-SAU-BREAK                           BSL101
00524      ELSE                                                         BSL101
00525      IF  CURR-SUB-CAMPUS-ID NOT = PREV-SUB-CAMPUS-ID              BSL101
00526          PERFORM 3100-PROCESS-TRANSACTION-BREAK                   BSL101
00527          PERFORM 3200-PROCESS-FUNCTION-BREAK                      BSL101
00528          PERFORM 3300-PROCESS-SUB-CAMPUS-BREAK                    BSL101
00529      ELSE                                                         BSL101
00530      IF  CURR-FUNCTION-CD NOT = PREV-FUNCTION-CD                  BSL101
00531          PERFORM 3100-PROCESS-TRANSACTION-BREAK                   BSL101
00532          PERFORM 3200-PROCESS-FUNCTION-BREAK.                     BSL101
00533                                                                   BSL101
00534                                                                   BSL101
00535      IF  CURR-MASTER-KEY NOT = HIGH-VALUES                        BSL101
00536      IF  CURR-LOCATION-CD NOT = PREV-LOCATION-CD                  BSL101
00537          PERFORM 3550-FETCH-LOCATION-TITLE                        BSL101
00538          PERFORM 3450-FETCH-SAU-TITLE                             BSL101
00539          PERFORM 3350-FETCH-SUB-CAMPUS-TITLE                      BSL101
00540          PERFORM 3250-PRINT-FUNCTION-TITLE                        BSL101
00541      ELSE                                                         BSL101
00542      IF  CURR-SAU-CODE NOT = PREV-SAU-CODE                        BSL101
00543          PERFORM 3450-FETCH-SAU-TITLE                             BSL101
00544          PERFORM 3350-FETCH-SUB-CAMPUS-TITLE                      BSL101
00545          PERFORM 3250-PRINT-FUNCTION-TITLE                        BSL101
00546      ELSE                                                         BSL101
00547      IF  CURR-SUB-CAMPUS-ID NOT = PREV-SUB-CAMPUS-ID              BSL101
00548          PERFORM 3350-FETCH-SUB-CAMPUS-TITLE                      BSL101
00549          PERFORM 3250-PRINT-FUNCTION-TITLE                        BSL101
00550      ELSE                                                         BSL101
00551      IF  CURR-FUNCTION-CD NOT = PREV-FUNCTION-CD                  BSL101
00552          PERFORM 3250-PRINT-FUNCTION-TITLE.                       BSL101
00553  EJECT                                                            BSL101
00554  3100-PROCESS-TRANSACTION-BREAK.                                  BSL101
00555                                                                   BSL101
00556      SET TRN-INDX TO +1.                                          BSL101
00557      PERFORM 3110-PRINT-TRANS-TYPE-LINE                           BSL101
00558          UNTIL TRN-INDX = TRN-LIMIT.                              BSL101
00559                                                                   BSL101
00560                                                                   BSL101
00561  3110-PRINT-TRANS-TYPE-LINE.                                      BSL101
00562                                                                   BSL101
00563      IF  APP-TRANS-FLAG (TRN-INDX) = 'Y'                          BSL101
00564          PERFORM 3120-PRINT-TRANSACTION-LINE.                     BSL101
00565      SET TRN-INDX UP BY +1.                                       BSL101
00566                                                                   BSL101
00567                                                                   BSL101
00568  3120-PRINT-TRANSACTION-LINE.                                     BSL101
00569                                                                   BSL101
00570      PERFORM 3130-FETCH-TRANS-TYPE-TITLE.                         BSL101
00571                                                                   BSL101
00572      MOVE APP-TRANS-ADJTD-AMT (TRN-INDX) TO RPT-TRAN-ADJTD-AMT.   BSL101
00573      MOVE APP-TRANS-ADJTD-FTE (TRN-INDX) TO RPT-TRAN-ADJTD-FTE.   BSL101
00574      MOVE APP-TRANS-INCTD-AMT (TRN-INDX) TO RPT-TRAN-INCTD-AMT.   BSL101
00575      MOVE APP-TRANS-INCTD-FTE (TRN-INDX) TO RPT-TRAN-INCTD-FTE.   BSL101
00576      MOVE APP-TRANS-ADJLT-AMT (TRN-INDX) TO RPT-TRAN-ADJLT-AMT.   BSL101
00577      MOVE APP-TRANS-ADJLT-FTE (TRN-INDX) TO RPT-TRAN-ADJLT-FTE.   BSL101
00578      MOVE APP-TRANS-INCLT-AMT (TRN-INDX) TO RPT-TRAN-INCLT-AMT.   BSL101
00579      MOVE APP-TRANS-INCLT-FTE (TRN-INDX) TO RPT-TRAN-INCLT-FTE.   BSL101
00580                                                                   BSL101
00581      IF  APP-TRANS-ADJTD-AMT (TRN-INDX) GREATER THAN ZERO         BSL101
00582          MOVE 'CR'                       TO RPT-TRAN-ADJTD-AMT-CR.BSL101
00583      IF  APP-TRANS-ADJTD-FTE (TRN-INDX) GREATER THAN ZERO         BSL101
00584          MOVE 'CR'                       TO RPT-TRAN-ADJTD-FTE-CR.BSL101
00585      IF  APP-TRANS-INCTD-AMT (TRN-INDX) GREATER THAN ZERO         BSL101
00586          MOVE 'CR'                       TO RPT-TRAN-INCTD-AMT-CR.BSL101
00587      IF  APP-TRANS-INCTD-FTE (TRN-INDX) GREATER THAN ZERO         BSL101
00588          MOVE 'CR'                       TO RPT-TRAN-INCTD-FTE-CR.BSL101
00589      IF  APP-TRANS-ADJLT-AMT (TRN-INDX) GREATER THAN ZERO         BSL101
00590          MOVE 'CR'                       TO RPT-TRAN-ADJLT-AMT-CR.BSL101
00591      IF  APP-TRANS-ADJLT-FTE (TRN-INDX) GREATER THAN ZERO         BSL101
00592          MOVE 'CR'                       TO RPT-TRAN-ADJLT-FTE-CR.BSL101
00593      IF  APP-TRANS-INCLT-AMT (TRN-INDX) GREATER THAN ZERO         BSL101
00594          MOVE 'CR'                       TO RPT-TRAN-INCLT-AMT-CR.BSL101
00595      IF  APP-TRANS-INCLT-FTE (TRN-INDX) GREATER THAN ZERO         BSL101
00596          MOVE 'CR'                       TO RPT-TRAN-INCLT-FTE-CR.BSL101
00597                                                                   BSL101
00598      MOVE RPT-TRANSACTION-LINE           TO REPORT-LINE.          BSL101
00599      PERFORM 8900-PRINT-REPORT.                                   BSL101
00600      MOVE RPT-TRANSACTION-LINE-2         TO REPORT-LINE.          BSL101
00601      PERFORM 8900-PRINT-REPORT.                                   BSL101
00602                                                                   BSL101
00603      MOVE SPACES                        TO RPT-TRANSACTION-LINE.  BSL101
00604      MOVE SPACES                        TO RPT-TRANSACTION-LINE-2.BSL101
00605                                                                   BSL101
00606      ADD APP-TRANS-ADJTD-AMT (TRN-INDX)  TO APP-FUNC-ADJTD-AMT.   BSL101
00607      ADD APP-TRANS-ADJTD-FTE (TRN-INDX)  TO APP-FUNC-ADJTD-FTE.   BSL101
00608      ADD APP-TRANS-INCTD-AMT (TRN-INDX)  TO APP-FUNC-INCTD-AMT.   BSL101
00609      ADD APP-TRANS-INCTD-FTE (TRN-INDX)  TO APP-FUNC-INCTD-FTE.   BSL101
00610      ADD APP-TRANS-ADJLT-AMT (TRN-INDX)  TO APP-FUNC-ADJLT-AMT.   BSL101
00611      ADD APP-TRANS-ADJLT-FTE (TRN-INDX)  TO APP-FUNC-ADJLT-FTE.   BSL101
00612      ADD APP-TRANS-INCLT-AMT (TRN-INDX)  TO APP-FUNC-INCLT-AMT.   BSL101
00613      ADD APP-TRANS-INCLT-FTE (TRN-INDX)  TO APP-FUNC-INCLT-FTE.   BSL101
00614                                                                   BSL101
00615      MOVE ZEROS                TO APP-TRANS-ADJTD-AMT (TRN-INDX)  BSL101
00616                                   APP-TRANS-ADJTD-FTE (TRN-INDX)  BSL101
00617                                   APP-TRANS-INCTD-AMT (TRN-INDX)  BSL101
00618                                   APP-TRANS-INCTD-FTE (TRN-INDX)  BSL101
00619                                   APP-TRANS-ADJLT-AMT (TRN-INDX)  BSL101
00620                                   APP-TRANS-ADJLT-FTE (TRN-INDX)  BSL101
00621                                   APP-TRANS-INCLT-AMT (TRN-INDX)  BSL101
00622                                   APP-TRANS-INCLT-FTE (TRN-INDX). BSL101
00623      MOVE 'N'                  TO APP-TRANS-FLAG (TRN-INDX).      BSL101
00624                                                                   BSL101
00625                                                                   BSL101
00626  3130-FETCH-TRANS-TYPE-TITLE.                                     BSL101
00627                                                                   BSL101
00628      MOVE '003'                TO TABLE-NO-ARG.                   BSL101
00629      MOVE 'MATCH'              TO TABLE-SEARCH-TYPE-ARG.          BSL101
00630      MOVE APP-TRANS-TYPE (TRN-INDX)                               BSL101
00631                                TO TABLE-ENTRY-ARG                 BSL101
00632                                   RPT-TRAN-CODE.                  BSL101
00633                                                                   BSL101
00634      PERFORM 9250-SEARCH-TABLE.                                   BSL101
00635                                                                   BSL101
00636      IF  TABLE-ENTRY-NOT-FOUND                                    BSL101
00637          MOVE 'TRANS TYPE TITLE NOT IN TABLE'                     BSL101
00638                                TO RPT-TRAN-TITLE                  BSL101
00639      ELSE                                                         BSL101
00640          MOVE TABLE-CLASS-TITLE (TAB-INDX)                        BSL101
00641                                TO RPT-TRAN-TITLE.                 BSL101
00642  EJECT                                                            BSL101
00643  3200-PROCESS-FUNCTION-BREAK.                                     BSL101
00644                                                                   BSL101
00645      MOVE '0'                  TO RPT-FUNC-CC.                    BSL101
00646      MOVE FUNCTION-TITLE-WS    TO RPT-TOT-TTL.                    BSL101
00647      MOVE RPT-TOTAL-TITLE      TO RPT-FUNC-TITLE.                 BSL101
00648      MOVE PREV-FUNCTION-CD     TO RPT-FUNC-CODE.                  BSL101
00649      MOVE APP-FUNC-INIT-AMT    TO RPT-FUNC-INIT-AMT.              BSL101
00650      MOVE APP-FUNC-INIT-FTE    TO RPT-FUNC-INIT-FTE.              BSL101
00651      MOVE APP-FUNC-ADJTD-AMT   TO RPT-FUNC-ADJTD-AMT.             BSL101
00652      MOVE APP-FUNC-ADJTD-FTE   TO RPT-FUNC-ADJTD-FTE.             BSL101
00653                                                                   BSL101
00654      COMPUTE ADJB-AMT-WS = APP-FUNC-INIT-AMT + APP-FUNC-ADJTD-AMT.BSL101
00655      COMPUTE ADJB-FTE-WS = APP-FUNC-INIT-FTE + APP-FUNC-ADJTD-FTE.BSL101
00656                                                                   BSL101
00657      MOVE ADJB-AMT-WS          TO RPT-FUNC-ADJBD-AMT.             BSL101
00658      MOVE ADJB-FTE-WS          TO RPT-FUNC-ADJBD-FTE.             BSL101
00659      MOVE APP-FUNC-INCTD-AMT   TO RPT-FUNC-INCTD-AMT.             BSL101
00660      MOVE APP-FUNC-INCTD-FTE   TO RPT-FUNC-INCTD-FTE.             BSL101
00661                                                                   BSL101
00662      COMPUTE NEWB-AMT-WS = ADJB-AMT-WS + APP-FUNC-INCTD-AMT.      BSL101
00663      COMPUTE NEWB-FTE-WS = ADJB-FTE-WS + APP-FUNC-INCTD-FTE.      BSL101
00664                                                                   BSL101
00665      MOVE NEWB-AMT-WS          TO RPT-FUNC-NEWB-AMT.              BSL101
00666      MOVE NEWB-FTE-WS          TO RPT-FUNC-NEWB-FTE.              BSL101
00667      MOVE APP-FUNC-ADJLT-AMT   TO RPT-FUNC-ADJLT-AMT.             BSL101
00668      MOVE APP-FUNC-ADJLT-FTE   TO RPT-FUNC-ADJLT-FTE.             BSL101
00669      MOVE APP-FUNC-INCLT-AMT   TO RPT-FUNC-INCLT-AMT.             BSL101
00670      MOVE APP-FUNC-INCLT-FTE   TO RPT-FUNC-INCLT-FTE.             BSL101
00671                                                                   BSL101
00672      IF  APP-FUNC-INIT-AMT GREATER THAN ZERO                      BSL101
00673          MOVE 'CR'             TO RPT-FUNC-INIT-AMT-CR.           BSL101
00674      IF  APP-FUNC-INIT-FTE GREATER THAN ZERO                      BSL101
00675          MOVE 'CR'             TO RPT-FUNC-INIT-FTE-CR.           BSL101
00676      IF  APP-FUNC-ADJTD-AMT GREATER THAN ZERO                     BSL101
00677          MOVE 'CR'             TO RPT-FUNC-ADJTD-AMT-CR.          BSL101
00678      IF  APP-FUNC-ADJTD-FTE GREATER THAN ZERO                     BSL101
00679          MOVE 'CR'             TO RPT-FUNC-ADJTD-FTE-CR.          BSL101
00680      IF  ADJB-AMT-WS GREATER THAN ZERO                            BSL101
00681          MOVE 'CR'             TO RPT-FUNC-ADJBD-AMT-CR.          BSL101
00682      IF  ADJB-FTE-WS GREATER THAN ZERO                            BSL101
00683          MOVE 'CR'             TO RPT-FUNC-ADJBD-FTE-CR.          BSL101
00684      IF  APP-FUNC-INCTD-AMT GREATER THAN ZERO                     BSL101
00685          MOVE 'CR'             TO RPT-FUNC-INCTD-AMT-CR.          BSL101
00686      IF  APP-FUNC-INCTD-FTE GREATER THAN ZERO                     BSL101
00687          MOVE 'CR'             TO RPT-FUNC-INCTD-FTE-CR.          BSL101
00688      IF  NEWB-AMT-WS GREATER THAN ZERO                            BSL101
00689          MOVE 'CR'             TO RPT-FUNC-NEWB-AMT-CR.           BSL101
00690      IF  NEWB-FTE-WS GREATER THAN ZERO                            BSL101
00691          MOVE 'CR'             TO RPT-FUNC-NEWB-FTE-CR.           BSL101
00692      IF  APP-FUNC-ADJLT-AMT GREATER THAN ZERO                     BSL101
00693          MOVE 'CR'             TO RPT-FUNC-ADJLT-AMT-CR.          BSL101
00694      IF  APP-FUNC-ADJLT-FTE GREATER THAN ZERO                     BSL101
00695          MOVE 'CR'             TO RPT-FUNC-ADJLT-FTE-CR.          BSL101
00696      IF  APP-FUNC-INCLT-AMT GREATER THAN ZERO                     BSL101
00697          MOVE 'CR'             TO RPT-FUNC-INCLT-AMT-CR.          BSL101
00698      IF  APP-FUNC-INCLT-FTE GREATER THAN ZERO                     BSL101
00699          MOVE 'CR'             TO RPT-FUNC-INCLT-FTE-CR.          BSL101
00700                                                                   BSL101
00701      MOVE RPT-FUNCTION-LINE    TO REPORT-LINE.                    BSL101
00702      PERFORM 8900-PRINT-REPORT.                                   BSL101
00703                                                                   BSL101
00704      MOVE RPT-FUNCTION-LINE-2  TO REPORT-LINE.                    BSL101
00705      PERFORM 8900-PRINT-REPORT.                                   BSL101
00706                                                                   BSL101
00707      ADD APP-FUNC-INIT-AMT     TO APP-SUBC-INIT-AMT.              BSL101
00708      ADD APP-FUNC-INIT-FTE     TO APP-SUBC-INIT-FTE.              BSL101
00709      ADD APP-FUNC-ADJTD-AMT    TO APP-SUBC-ADJTD-AMT.             BSL101
00710      ADD APP-FUNC-ADJTD-FTE    TO APP-SUBC-ADJTD-FTE.             BSL101
00711      ADD APP-FUNC-INCTD-AMT    TO APP-SUBC-INCTD-AMT.             BSL101
00712      ADD APP-FUNC-INCTD-FTE    TO APP-SUBC-INCTD-FTE.             BSL101
00713      ADD APP-FUNC-ADJLT-AMT    TO APP-SUBC-ADJLT-AMT.             BSL101
00714      ADD APP-FUNC-ADJLT-FTE    TO APP-SUBC-ADJLT-FTE.             BSL101
00715      ADD APP-FUNC-INCLT-AMT    TO APP-SUBC-INCLT-AMT.             BSL101
00716      ADD APP-FUNC-INCLT-FTE    TO APP-SUBC-INCLT-FTE.             BSL101
00717                                                                   BSL101
00718      MOVE ZEROS                TO APP-FUNC-INIT-AMT               BSL101
00719                                   APP-FUNC-INIT-FTE               BSL101
00720                                   APP-FUNC-ADJTD-AMT              BSL101
00721                                   APP-FUNC-ADJTD-FTE              BSL101
00722                                   APP-FUNC-INCTD-AMT              BSL101
00723                                   APP-FUNC-INCTD-FTE              BSL101
00724                                   APP-FUNC-ADJLT-AMT              BSL101
00725                                   APP-FUNC-ADJLT-FTE              BSL101
00726                                   APP-FUNC-INCLT-AMT              BSL101
00727                                   APP-FUNC-INCLT-FTE.             BSL101
00728                                                                   BSL101
00729                                                                   BSL101
00730  3250-PRINT-FUNCTION-TITLE.                                       BSL101
00731                                                                   BSL101
00732      MOVE SPACES                   TO RPT-FUNCTION-LINE           BSL101
00733                                       RPT-FUNCTION-LINE-2.        BSL101
00734      MOVE '0'                      TO RPT-FUNC-CC.                BSL101
00735      MOVE CURR-FUNCTION-CD         TO RPT-FUNC-CODE               BSL101
00736                                       TABLE-ENTRY-ARG.            BSL101
00737      MOVE '009'                    TO TABLE-NO-ARG.               BSL101
00738      MOVE 'MATCH'                  TO TABLE-SEARCH-TYPE-ARG.      BSL101
00739      PERFORM 9250-SEARCH-TABLE.                                   BSL101
00740                                                                   BSL101
00741      IF TABLE-ENTRY-NOT-FOUND                                     BSL101
00742          MOVE 'FUNCTION CODE TITLE NOT IN TABLE'                  BSL101
00743                                    TO RPT-FUNC-TITLE              BSL101
00744                                       FUNCTION-TITLE-WS           BSL101
00745      ELSE                                                         BSL101
00746          MOVE TABLE-CLASS-TITLE (TAB-INDX)                        BSL101
00747                                    TO RPT-FUNC-TITLE              BSL101
00748                                       FUNCTION-TITLE-WS.          BSL101
00749                                                                   BSL101
00750      MOVE RPT-FUNCTION-LINE        TO REPORT-LINE.                BSL101
00751      PERFORM 8900-PRINT-REPORT.                                   BSL101
00752      MOVE SPACES                   TO RPT-TRANSACTION-LINE        BSL101
00753                                       RPT-TRANSACTION-LINE-2.     BSL101
00754      MOVE '0'                      TO RPT-TRAN-CC.                BSL101
00755  EJECT                                                            BSL101
00756  3300-PROCESS-SUB-CAMPUS-BREAK.                                   BSL101
00757                                                                   BSL101
00758      MOVE SPACES               TO RPT-TOTAL-LINE.                 BSL101
00759      MOVE SPACES               TO RPT-TOTAL-LINE-2.               BSL101
00760      MOVE '-'                  TO RPT-TOT-CC.                     BSL101
00761      MOVE PREV-SUB-CAMPUS-ID   TO RPT-TOT-CODE.                   BSL101
00762      MOVE 'TOTAL -'            TO RPT-TOT-NAME.                   BSL101
00763      MOVE SUB-CAMPUS-TITLE-WS  TO RPT-TOT-TITLE.                  BSL101
00764      MOVE APP-SUBC-INIT-AMT    TO RPT-TOT-INIT-AMT.               BSL101
00765      MOVE APP-SUBC-INIT-FTE    TO RPT-TOT-INIT-FTE.               BSL101
00766      MOVE APP-SUBC-ADJTD-AMT   TO RPT-TOT-ADJTD-AMT.              BSL101
00767      MOVE APP-SUBC-ADJTD-FTE   TO RPT-TOT-ADJTD-FTE.              BSL101
00768                                                                   BSL101
00769      COMPUTE ADJB-AMT-WS = APP-SUBC-INIT-AMT + APP-SUBC-ADJTD-AMT.BSL101
00770      COMPUTE ADJB-FTE-WS = APP-SUBC-INIT-FTE + APP-SUBC-ADJTD-FTE.BSL101
00771                                                                   BSL101
00772      MOVE ADJB-AMT-WS          TO RPT-TOT-ADJBD-AMT.              BSL101
00773      MOVE ADJB-FTE-WS          TO RPT-TOT-ADJBD-FTE.              BSL101
00774      MOVE APP-SUBC-INCTD-AMT   TO RPT-TOT-INCTD-AMT.              BSL101
00775      MOVE APP-SUBC-INCTD-FTE   TO RPT-TOT-INCTD-FTE.              BSL101
00776                                                                   BSL101
00777      COMPUTE NEWB-AMT-WS = ADJB-AMT-WS + APP-SUBC-INCTD-AMT.      BSL101
00778      COMPUTE NEWB-FTE-WS = ADJB-FTE-WS + APP-SUBC-INCTD-FTE.      BSL101
00779                                                                   BSL101
00780      MOVE NEWB-AMT-WS          TO RPT-TOT-NEWB-AMT.               BSL101
00781      MOVE NEWB-FTE-WS          TO RPT-TOT-NEWB-FTE.               BSL101
00782      MOVE APP-SUBC-ADJLT-AMT   TO RPT-TOT-ADJLT-AMT.              BSL101
00783      MOVE APP-SUBC-ADJLT-FTE   TO RPT-TOT-ADJLT-FTE.              BSL101
00784      MOVE APP-SUBC-INCLT-AMT   TO RPT-TOT-INCLT-AMT.              BSL101
00785      MOVE APP-SUBC-INCLT-FTE   TO RPT-TOT-INCLT-FTE.              BSL101
00786                                                                   BSL101
00787      IF  APP-SUBC-INIT-AMT GREATER THAN ZERO                      BSL101
00788          MOVE 'CR'             TO RPT-TOT-INIT-AMT-CR.            BSL101
00789      IF  APP-SUBC-INIT-FTE GREATER THAN ZERO                      BSL101
00790          MOVE 'CR'             TO RPT-TOT-INIT-FTE-CR.            BSL101
00791      IF  APP-SUBC-ADJTD-AMT GREATER THAN ZERO                     BSL101
00792          MOVE 'CR'             TO RPT-TOT-ADJTD-AMT-CR.           BSL101
00793      IF  APP-SUBC-ADJTD-FTE GREATER THAN ZERO                     BSL101
00794          MOVE 'CR'             TO RPT-TOT-ADJTD-FTE-CR.           BSL101
00795      IF  ADJB-AMT-WS GREATER THAN ZERO                            BSL101
00796          MOVE 'CR'             TO RPT-TOT-ADJBD-AMT-CR.           BSL101
00797      IF  ADJB-FTE-WS GREATER THAN ZERO                            BSL101
00798          MOVE 'CR'             TO RPT-TOT-ADJBD-FTE-CR.           BSL101
00799      IF  APP-SUBC-INCTD-AMT GREATER THAN ZERO                     BSL101
00800          MOVE 'CR'             TO RPT-TOT-INCTD-AMT-CR.           BSL101
00801      IF  APP-SUBC-INCTD-FTE GREATER THAN ZERO                     BSL101
00802          MOVE 'CR'             TO RPT-TOT-INCTD-FTE-CR.           BSL101
00803      IF  NEWB-AMT-WS GREATER THAN ZERO                            BSL101
00804          MOVE 'CR'             TO RPT-TOT-NEWB-AMT-CR.            BSL101
00805      IF  NEWB-FTE-WS GREATER THAN ZERO                            BSL101
00806          MOVE 'CR'             TO RPT-TOT-NEWB-FTE-CR.            BSL101
00807      IF  APP-SUBC-ADJLT-AMT GREATER THAN ZERO                     BSL101
00808          MOVE 'CR'             TO RPT-TOT-ADJLT-AMT-CR.           BSL101
00809      IF  APP-SUBC-ADJLT-FTE GREATER THAN ZERO                     BSL101
00810          MOVE 'CR'             TO RPT-TOT-ADJLT-FTE-CR.           BSL101
00811      IF  APP-SUBC-INCLT-AMT GREATER THAN ZERO                     BSL101
00812          MOVE 'CR'             TO RPT-TOT-INCLT-AMT-CR.           BSL101
00813      IF  APP-SUBC-INCLT-FTE GREATER THAN ZERO                     BSL101
00814          MOVE 'CR'             TO RPT-TOT-INCLT-FTE-CR.           BSL101
00815                                                                   BSL101
00816      MOVE RPT-TOTAL-LINE       TO REPORT-LINE.                    BSL101
00817      PERFORM 8900-PRINT-REPORT.                                   BSL101
00818                                                                   BSL101
00819      MOVE RPT-TOTAL-LINE-2      TO REPORT-LINE.                   BSL101
00820      PERFORM 8900-PRINT-REPORT.                                   BSL101
00821                                                                   BSL101
00822      ADD APP-SUBC-INIT-AMT     TO APP-SAU-INIT-AMT.               BSL101
00823      ADD APP-SUBC-INIT-FTE     TO APP-SAU-INIT-FTE.               BSL101
00824      ADD APP-SUBC-ADJTD-AMT    TO APP-SAU-ADJTD-AMT.              BSL101
00825      ADD APP-SUBC-ADJTD-FTE    TO APP-SAU-ADJTD-FTE.              BSL101
00826      ADD APP-SUBC-INCTD-AMT    TO APP-SAU-INCTD-AMT.              BSL101
00827      ADD APP-SUBC-INCTD-FTE    TO APP-SAU-INCTD-FTE.              BSL101
00828      ADD APP-SUBC-ADJLT-AMT    TO APP-SAU-ADJLT-AMT.              BSL101
00829      ADD APP-SUBC-ADJLT-FTE    TO APP-SAU-ADJLT-FTE.              BSL101
00830      ADD APP-SUBC-INCLT-AMT    TO APP-SAU-INCLT-AMT.              BSL101
00831      ADD APP-SUBC-INCLT-FTE    TO APP-SAU-INCLT-FTE.              BSL101
00832                                                                   BSL101
00833      MOVE ZEROS                TO APP-SUBC-INIT-AMT               BSL101
00834                                   APP-SUBC-INIT-FTE               BSL101
00835                                   APP-SUBC-ADJTD-AMT              BSL101
00836                                   APP-SUBC-ADJTD-FTE              BSL101
00837                                   APP-SUBC-INCTD-AMT              BSL101
00838                                   APP-SUBC-INCTD-FTE              BSL101
00839                                   APP-SUBC-ADJLT-AMT              BSL101
00840                                   APP-SUBC-ADJLT-FTE              BSL101
00841                                   APP-SUBC-INCLT-AMT              BSL101
00842                                   APP-SUBC-INCLT-FTE.             BSL101
00843                                                                   BSL101
00844                                                                   BSL101
00845  3350-FETCH-SUB-CAMPUS-TITLE.                                     BSL101
00846                                                                   BSL101
00847      MOVE CURR-SUB-CAMPUS-ID   TO TABLE-ENTRY-ARG.                BSL101
00848      MOVE +90                  TO RPT-LINE-CNT.                   BSL101
00849      MOVE '011'                TO TABLE-NO-ARG.                   BSL101
00850      MOVE 'MATCH'              TO TABLE-SEARCH-TYPE-ARG.          BSL101
00851      PERFORM 9250-SEARCH-TABLE.                                   BSL101
00852      IF  TABLE-ENTRY-NOT-FOUND                                    BSL101
00853          MOVE 'SUB-CAMPUS TITLE NOT IN TABLE'                     BSL101
00854                                TO SUB-CAMPUS-TITLE-WS             BSL101
00855      ELSE                                                         BSL101
00856          MOVE TABLE-CLASS-TITLE (TAB-INDX)                        BSL101
00857                                TO SUB-CAMPUS-TITLE-WS.            BSL101
00858  EJECT                                                            BSL101
00859  3400-PROCESS-SAU-BREAK.                                          BSL101
00860                                                                   BSL101
00861      MOVE SPACES               TO RPT-TOTAL-LINE.                 BSL101
00862      MOVE SPACES               TO RPT-TOTAL-LINE-2.               BSL101
00863      MOVE '-'                  TO RPT-TOT-CC.                     BSL101
00864      MOVE PREV-SAU-CODE        TO RPT-TOT-CODE.                   BSL101
00865      MOVE 'TOTAL -'            TO RPT-TOT-NAME.                   BSL101
00866      MOVE SAU-TITLE-WS         TO RPT-TOT-TITLE.                  BSL101
00867      MOVE APP-SAU-INIT-AMT    TO RPT-TOT-INIT-AMT.                BSL101
00868      MOVE APP-SAU-INIT-FTE    TO RPT-TOT-INIT-FTE.                BSL101
00869      MOVE APP-SAU-ADJTD-AMT   TO RPT-TOT-ADJTD-AMT.               BSL101
00870      MOVE APP-SAU-ADJTD-FTE   TO RPT-TOT-ADJTD-FTE.               BSL101
00871                                                                   BSL101
00872      COMPUTE ADJB-AMT-WS = APP-SAU-INIT-AMT + APP-SAU-ADJTD-AMT.  BSL101
00873      COMPUTE ADJB-FTE-WS = APP-SAU-INIT-FTE + APP-SAU-ADJTD-FTE.  BSL101
00874                                                                   BSL101
00875      MOVE ADJB-AMT-WS          TO RPT-TOT-ADJBD-AMT.              BSL101
00876      MOVE ADJB-FTE-WS          TO RPT-TOT-ADJBD-FTE.              BSL101
00877      MOVE APP-SAU-INCTD-AMT   TO RPT-TOT-INCTD-AMT.               BSL101
00878      MOVE APP-SAU-INCTD-FTE   TO RPT-TOT-INCTD-FTE.               BSL101
00879                                                                   BSL101
00880      COMPUTE NEWB-AMT-WS = ADJB-AMT-WS + APP-SAU-INCTD-AMT.       BSL101
00881      COMPUTE NEWB-FTE-WS = ADJB-FTE-WS + APP-SAU-INCTD-FTE.       BSL101
00882                                                                   BSL101
00883      MOVE NEWB-AMT-WS          TO RPT-TOT-NEWB-AMT.               BSL101
00884      MOVE NEWB-FTE-WS          TO RPT-TOT-NEWB-FTE.               BSL101
00885      MOVE APP-SAU-ADJLT-AMT   TO RPT-TOT-ADJLT-AMT.               BSL101
00886      MOVE APP-SAU-ADJLT-FTE   TO RPT-TOT-ADJLT-FTE.               BSL101
00887      MOVE APP-SAU-INCLT-AMT   TO RPT-TOT-INCLT-AMT.               BSL101
00888      MOVE APP-SAU-INCLT-FTE   TO RPT-TOT-INCLT-FTE.               BSL101
00889                                                                   BSL101
00890      IF  APP-SAU-INIT-AMT GREATER THAN ZERO                       BSL101
00891          MOVE 'CR'             TO RPT-TOT-INIT-AMT-CR.            BSL101
00892      IF  APP-SAU-INIT-FTE GREATER THAN ZERO                       BSL101
00893          MOVE 'CR'             TO RPT-TOT-INIT-FTE-CR.            BSL101
00894      IF  APP-SAU-ADJTD-AMT GREATER THAN ZERO                      BSL101
00895          MOVE 'CR'             TO RPT-TOT-ADJTD-AMT-CR.           BSL101
00896      IF  APP-SAU-ADJTD-FTE GREATER THAN ZERO                      BSL101
00897          MOVE 'CR'             TO RPT-TOT-ADJTD-FTE-CR.           BSL101
00898      IF  ADJB-AMT-WS GREATER THAN ZERO                            BSL101
00899          MOVE 'CR'             TO RPT-TOT-ADJBD-AMT-CR.           BSL101
00900      IF  ADJB-FTE-WS GREATER THAN ZERO                            BSL101
00901          MOVE 'CR'             TO RPT-TOT-ADJBD-FTE-CR.           BSL101
00902      IF  APP-SAU-INCTD-AMT GREATER THAN ZERO                      BSL101
00903          MOVE 'CR'             TO RPT-TOT-INCTD-AMT-CR.           BSL101
00904      IF  APP-SAU-INCTD-FTE GREATER THAN ZERO                      BSL101
00905          MOVE 'CR'             TO RPT-TOT-INCTD-FTE-CR.           BSL101
00906      IF  NEWB-AMT-WS GREATER THAN ZERO                            BSL101
00907          MOVE 'CR'             TO RPT-TOT-NEWB-AMT-CR.            BSL101
00908      IF  NEWB-FTE-WS GREATER THAN ZERO                            BSL101
00909          MOVE 'CR'             TO RPT-TOT-NEWB-FTE-CR.            BSL101
00910      IF  APP-SAU-ADJLT-AMT GREATER THAN ZERO                      BSL101
00911          MOVE 'CR'             TO RPT-TOT-ADJLT-AMT-CR.           BSL101
00912      IF  APP-SAU-ADJLT-FTE GREATER THAN ZERO                      BSL101
00913          MOVE 'CR'             TO RPT-TOT-ADJLT-FTE-CR.           BSL101
00914      IF  APP-SAU-INCLT-AMT GREATER THAN ZERO                      BSL101
00915          MOVE 'CR'             TO RPT-TOT-INCLT-AMT-CR.           BSL101
00916      IF  APP-SAU-INCLT-FTE GREATER THAN ZERO                      BSL101
00917          MOVE 'CR'             TO RPT-TOT-INCLT-FTE-CR.           BSL101
00918                                                                   BSL101
00919      MOVE RPT-TOTAL-LINE       TO REPORT-LINE.                    BSL101
00920      PERFORM 8900-PRINT-REPORT.                                   BSL101
00921                                                                   BSL101
00922      MOVE RPT-TOTAL-LINE-2      TO REPORT-LINE.                   BSL101
00923      PERFORM 8900-PRINT-REPORT.                                   BSL101
00924                                                                   BSL101
00925      ADD APP-SAU-INIT-AMT     TO APP-LOC-INIT-AMT.                BSL101
00926      ADD APP-SAU-INIT-FTE     TO APP-LOC-INIT-FTE.                BSL101
00927      ADD APP-SAU-ADJTD-AMT    TO APP-LOC-ADJTD-AMT.               BSL101
00928      ADD APP-SAU-ADJTD-FTE    TO APP-LOC-ADJTD-FTE.               BSL101
00929      ADD APP-SAU-INCTD-AMT    TO APP-LOC-INCTD-AMT.               BSL101
00930      ADD APP-SAU-INCTD-FTE    TO APP-LOC-INCTD-FTE.               BSL101
00931      ADD APP-SAU-ADJLT-AMT    TO APP-LOC-ADJLT-AMT.               BSL101
00932      ADD APP-SAU-ADJLT-FTE    TO APP-LOC-ADJLT-FTE.               BSL101
00933      ADD APP-SAU-INCLT-AMT    TO APP-LOC-INCLT-AMT.               BSL101
00934      ADD APP-SAU-INCLT-FTE    TO APP-LOC-INCLT-FTE.               BSL101
00935                                                                   BSL101
00936      MOVE ZEROS                TO APP-SAU-INIT-AMT                BSL101
00937                                   APP-SAU-INIT-FTE                BSL101
00938                                   APP-SAU-ADJTD-AMT               BSL101
00939                                   APP-SAU-ADJTD-FTE               BSL101
00940                                   APP-SAU-INCTD-AMT               BSL101
00941                                   APP-SAU-INCTD-FTE               BSL101
00942                                   APP-SAU-ADJLT-AMT               BSL101
00943                                   APP-SAU-ADJLT-FTE               BSL101
00944                                   APP-SAU-INCLT-AMT               BSL101
00945                                   APP-SAU-INCLT-FTE.              BSL101
00946                                                                   BSL101
00947                                                                   BSL101
00948  3450-FETCH-SAU-TITLE.                                            BSL101
00949                                                                   BSL101
00950      MOVE +90                  TO RPT-LINE-CNT.                   BSL101
00951      MOVE SPACES               TO RPT-HEAD3-SUBCAMPUS.            BSL101
00952      MOVE CURR-SAU-CODE        TO RPT-HEAD3-SUBCAMPUS-CODE        BSL101
00953                                   TABLE-ENTRY-ARG.                BSL101
00954      MOVE '002'                TO TABLE-NO-ARG.                   BSL101
00955      MOVE 'MATCH'              TO TABLE-SEARCH-TYPE-ARG.          BSL101
00956      PERFORM 9250-SEARCH-TABLE.                                   BSL101
00957      IF  TABLE-ENTRY-NOT-FOUND                                    BSL101
00958          MOVE 'SAU TITLE NOT IN TABLE'                            BSL101
00959                                TO RPT-HEAD3-SUBCAMPUS-TITLE       BSL101
00960                                   SAU-TITLE-WS                    BSL101
00961          ELSE                                                     BSL101
00962          MOVE TABLE-CLASS-TITLE (TAB-INDX)                        BSL101
00963                                TO RPT-HEAD3-SUBCAMPUS-TITLE       BSL101
00964                                   SAU-TITLE-WS.                   BSL101
00965  EJECT                                                            BSL101
00966  3500-PROCESS-LOCATION-BREAK.                                     BSL101
00967                                                                   BSL101
00968      MOVE SPACES               TO RPT-TOTAL-LINE.                 BSL101
00969      MOVE SPACES               TO RPT-TOTAL-LINE-2.               BSL101
00970      MOVE '-'                  TO RPT-TOT-CC.                     BSL101
00971      MOVE PREV-LOCATION-CD     TO RPT-TOT-CODE.                   BSL101
00972      MOVE 'TOTAL -'            TO RPT-TOT-NAME.                   BSL101
00973      MOVE LOCATION-TITLE-WS    TO RPT-TOT-TITLE.                  BSL101
00974      MOVE APP-LOC-INIT-AMT    TO RPT-TOT-INIT-AMT.                BSL101
00975      MOVE APP-LOC-INIT-FTE    TO RPT-TOT-INIT-FTE.                BSL101
00976      MOVE APP-LOC-ADJTD-AMT   TO RPT-TOT-ADJTD-AMT.               BSL101
00977      MOVE APP-LOC-ADJTD-FTE   TO RPT-TOT-ADJTD-FTE.               BSL101
00978                                                                   BSL101
00979      COMPUTE ADJB-AMT-WS = APP-LOC-INIT-AMT + APP-LOC-ADJTD-AMT.  BSL101
00980      COMPUTE ADJB-FTE-WS = APP-LOC-INIT-FTE + APP-LOC-ADJTD-FTE.  BSL101
00981                                                                   BSL101
00982      MOVE ADJB-AMT-WS          TO RPT-TOT-ADJBD-AMT.              BSL101
00983      MOVE ADJB-FTE-WS          TO RPT-TOT-ADJBD-FTE.              BSL101
00984      MOVE APP-LOC-INCTD-AMT   TO RPT-TOT-INCTD-AMT.               BSL101
00985      MOVE APP-LOC-INCTD-FTE   TO RPT-TOT-INCTD-FTE.               BSL101
00986                                                                   BSL101
00987      COMPUTE NEWB-AMT-WS = ADJB-AMT-WS + APP-LOC-INCTD-AMT.       BSL101
00988      COMPUTE NEWB-FTE-WS = ADJB-FTE-WS + APP-LOC-INCTD-FTE.       BSL101
00989                                                                   BSL101
00990      MOVE NEWB-AMT-WS          TO RPT-TOT-NEWB-AMT.               BSL101
00991      MOVE NEWB-FTE-WS          TO RPT-TOT-NEWB-FTE.               BSL101
00992      MOVE APP-LOC-ADJLT-AMT   TO RPT-TOT-ADJLT-AMT.               BSL101
00993      MOVE APP-LOC-ADJLT-FTE   TO RPT-TOT-ADJLT-FTE.               BSL101
00994      MOVE APP-LOC-INCLT-AMT   TO RPT-TOT-INCLT-AMT.               BSL101
00995      MOVE APP-LOC-INCLT-FTE   TO RPT-TOT-INCLT-FTE.               BSL101
00996                                                                   BSL101
00997      IF  APP-LOC-INIT-AMT GREATER THAN ZERO                       BSL101
00998          MOVE 'CR'             TO RPT-TOT-INIT-AMT-CR.            BSL101
00999      IF  APP-LOC-INIT-FTE GREATER THAN ZERO                       BSL101
01000          MOVE 'CR'             TO RPT-TOT-INIT-FTE-CR.            BSL101
01001      IF  APP-LOC-ADJTD-AMT GREATER THAN ZERO                      BSL101
01002          MOVE 'CR'             TO RPT-TOT-ADJTD-AMT-CR.           BSL101
01003      IF  APP-LOC-ADJTD-FTE GREATER THAN ZERO                      BSL101
01004          MOVE 'CR'             TO RPT-TOT-ADJTD-FTE-CR.           BSL101
01005      IF  ADJB-AMT-WS GREATER THAN ZERO                            BSL101
01006          MOVE 'CR'             TO RPT-TOT-ADJBD-AMT-CR.           BSL101
01007      IF  ADJB-FTE-WS GREATER THAN ZERO                            BSL101
01008          MOVE 'CR'             TO RPT-TOT-ADJBD-FTE-CR.           BSL101
01009      IF  APP-LOC-INCTD-AMT GREATER THAN ZERO                      BSL101
01010          MOVE 'CR'             TO RPT-TOT-INCTD-AMT-CR.           BSL101
01011      IF  APP-LOC-INCTD-FTE GREATER THAN ZERO                      BSL101
01012          MOVE 'CR'             TO RPT-TOT-INCTD-FTE-CR.           BSL101
01013      IF  NEWB-AMT-WS GREATER THAN ZERO                            BSL101
01014          MOVE 'CR'             TO RPT-TOT-NEWB-AMT-CR.            BSL101
01015      IF  NEWB-FTE-WS GREATER THAN ZERO                            BSL101
01016          MOVE 'CR'             TO RPT-TOT-NEWB-FTE-CR.            BSL101
01017      IF  APP-LOC-ADJLT-AMT GREATER THAN ZERO                      BSL101
01018          MOVE 'CR'             TO RPT-TOT-ADJLT-AMT-CR.           BSL101
01019      IF  APP-LOC-ADJLT-FTE GREATER THAN ZERO                      BSL101
01020          MOVE 'CR'             TO RPT-TOT-ADJLT-FTE-CR.           BSL101
01021      IF  APP-LOC-INCLT-AMT GREATER THAN ZERO                      BSL101
01022          MOVE 'CR'             TO RPT-TOT-INCLT-AMT-CR.           BSL101
01023      IF  APP-LOC-INCLT-FTE GREATER THAN ZERO                      BSL101
01024          MOVE 'CR'             TO RPT-TOT-INCLT-FTE-CR.           BSL101
01025                                                                   BSL101
01026      MOVE RPT-TOTAL-LINE       TO REPORT-LINE.                    BSL101
01027      PERFORM 8900-PRINT-REPORT.                                   BSL101
01028                                                                   BSL101
01029      MOVE RPT-TOTAL-LINE-2      TO REPORT-LINE.                   BSL101
01030      PERFORM 8900-PRINT-REPORT.                                   BSL101
01031                                                                   BSL101
01032  3550-FETCH-LOCATION-TITLE.                                       BSL101
01033                                                                   BSL101
01034      MOVE '012'                TO TABLE-NO-ARG.                   BSL101
01035      MOVE 'MATCH'              TO TABLE-SEARCH-TYPE-ARG.          BSL101
01036      MOVE CURR-LOCATION-CD     TO TABLE-ENTRY-ARG.                BSL101
01037      PERFORM 9250-SEARCH-TABLE.                                   BSL101
01038      IF  TABLE-ENTRY-NOT-FOUND                                    BSL101
01039          MOVE 'LOC TITLE NOT IN TABLE'                            BSL101
01040                                TO RPT-HEAD2-LOCATION-TITLE        BSL101
01041                                   LOCATION-TITLE-WS               BSL101
01042          ELSE                                                     BSL101
01043          MOVE TABLE-CLASS-TITLE (TAB-INDX)                        BSL101
01044                                TO RPT-HEAD2-LOCATION-TITLE        BSL101
01045                                   LOCATION-TITLE-WS.              BSL101
01046  EJECT                                                            BSL101
01047  4000-PROCESS-APPROP-RECORD.                                      BSL101
01048                                                                   BSL101
01049      IF  MST-INITIAL-REC                                          BSL101
01050          PERFORM 4100-PROCESS-INITIAL-RECORD                      BSL101
01051      ELSE                                                         BSL101
01052      IF  MST-TRANS-REC                                            BSL101
01053          PERFORM 4200-PROCESS-TRANS-RECORD.                       BSL101
01054                                                                   BSL101
01055                                                                   BSL101
01056                                                                   BSL101
01057  4100-PROCESS-INITIAL-RECORD.                                     BSL101
01058                                                                   BSL101
01059      ADD MST-INIT-AMT              TO APP-FUNC-INIT-AMT.          BSL101
01060      ADD MST-INIT-FTE              TO APP-FUNC-INIT-FTE.          BSL101
01061                                                                   BSL101
01062                                                                   BSL101
01063  4200-PROCESS-TRANS-RECORD.                                       BSL101
01064                                                                   BSL101
01065      PERFORM 4210-SEARCH-TRANS-TYPE-TABLE.                        BSL101
01066                                                                   BSL101
01067      IF  MST-ADJUSTMENT                                           BSL101
01068          ADD MST-TRANS-AMT   TO APP-TRANS-ADJTD-AMT (TRN-INDX)    BSL101
01069          ADD MST-TRANS-FTE   TO APP-TRANS-ADJTD-FTE (TRN-INDX)    BSL101
01070          IF  MST-TRANS-NEW-TRANSMIT-FLAG = '2'                    BSL101
01071              ADD MST-TRANS-AMT TO APP-TRANS-ADJLT-AMT (TRN-INDX)  BSL101
01072              ADD MST-TRANS-FTE TO APP-TRANS-ADJLT-FTE (TRN-INDX)  BSL101
01073          ELSE                                                     BSL101
01074              NEXT SENTENCE                                        BSL101
01075      ELSE                                                         BSL101
01076      IF  MST-INCREMENT                                            BSL101
01077          ADD MST-TRANS-AMT     TO APP-TRANS-INCTD-AMT (TRN-INDX)  BSL101
01078          ADD MST-TRANS-FTE     TO APP-TRANS-INCTD-FTE (TRN-INDX)  BSL101
01079          IF  MST-TRANS-NEW-TRANSMIT-FLAG = '2'                    BSL101
01080              ADD MST-TRANS-AMT TO APP-TRANS-INCLT-AMT (TRN-INDX)  BSL101
01081              ADD MST-TRANS-FTE TO APP-TRANS-INCLT-FTE (TRN-INDX). BSL101
01082                                                                   BSL101
01083                                                                   BSL101
01084  4210-SEARCH-TRANS-TYPE-TABLE.                                    BSL101
01085                                                                   BSL101
01086      SET TRN-INDX TO +1.                                          BSL101
01087                                                                   BSL101
01088      SEARCH APPROP-TRANS-TYPE-TABLE                               BSL101
01089          AT END MOVE 'AB' TO ABORT-CODE                           BSL101
01090                 PERFORM 9800-ABORT-PROGRAM                        BSL101
01091          WHEN MST-TRANS-TYPE = APP-TRANS-TYPE (TRN-INDX)          BSL101
01092               MOVE 'Y' TO APP-TRANS-FLAG (TRN-INDX)               BSL101
01093          WHEN TRN-INDX = TRN-LIMIT                                BSL101
01094               SET TRN-LIMIT UP BY +1                              BSL101
01095               MOVE MST-TRANS-TYPE TO APP-TRANS-TYPE (TRN-INDX)    BSL101
01096               MOVE 'Y' TO APP-TRANS-FLAG (TRN-INDX).              BSL101
01097  EJECT                                                            BSL101
01098  8000-READ-SYSTEM-CONTROL-FILE.                                   BSL101
01099                                                                   BSL101
01100      READ SYSTEM-CONTROL-FILE INTO SYSTEM-CONTROL-RECORD          BSL101
01101           AT END MOVE 01 TO ABORT-CODE                            BSL101
01102                  PERFORM 9800-ABORT-PROGRAM.                      BSL101
01103                                                                   BSL101
01104                                                                   BSL101
01105  8200-READ-APPROPRIATION-FILE.                                    BSL101
01106                                                                   BSL101
01107      IF  APPROPRIATION-BEGIN                                      BSL101
01108          MOVE 'AR' TO APPROPRIATION-STATUS-FLAG                   BSL101
01109          READ APPROPRIATION-FILE                                  BSL101
01110               AT END MOVE 03         TO ABORT-CODE                BSL101
01111                      PERFORM 9800-ABORT-PROGRAM                   BSL101
01112      ELSE                                                         BSL101
01113      IF  APPROPRIATION-READ                                       BSL101
01114          READ APPROPRIATION-FILE                                  BSL101
01115               AT END MOVE HIGH-VALUES TO APPROPRIATION-REC        BSL101
01116                      MOVE 'AE' TO APPROPRIATION-STATUS-FLAG       BSL101
01117      ELSE                                                         BSL101
01118          MOVE 04                     TO ABORT-CODE                BSL101
01119          PERFORM 9800-ABORT-PROGRAM.                              BSL101
01120                                                                   BSL101
01121      MOVE APPROPRIATION-REC          TO BUDGET-MASTER-RECORD.     BSL101
01122                                                                   BSL101
01123      PERFORM 9000-SEQ-CHK-APPROPRIATION.                          BSL101
01124                                                                   BSL101
01125      PERFORM 9300-SUM-MASTER-IN-HASH-TOTALS.                      BSL101
01126                                                                   BSL101
01127                                                                   BSL101
01128  8400-READ-BUDGET-TABLES-FILE.                                    BSL101
01129                                                                   BSL101
01130      IF  BUDGET-TABLES-BEGIN                                      BSL101
01131          MOVE 'R' TO BUDGET-TABLES-FILE-STATUS-FLAG               BSL101
01132          READ BUDGET-TABLES-FILE INTO BUDGET-TABLES-RECORD        BSL101
01133              AT END MOVE 02 TO ABORT-CODE                         BSL101
01134                     PERFORM 9800-ABORT-PROGRAM                    BSL101
01135      ELSE                                                         BSL101
01136          READ BUDGET-TABLES-FILE INTO BUDGET-TABLES-RECORD        BSL101
01137              AT END MOVE 'E' TO BUDGET-TABLES-FILE-STATUS-FLAG.   BSL101
01138                                                                   BSL101
01139      IF  TAB-TABLE-NO = '003'                                     BSL101
01140          MOVE TAB-RANGE-FROM TO APP-TRANS-TYPE (TRN-LIMIT)        BSL101
01141          SET TRN-LIMIT UP BY +1.                                  BSL101
01142  EJECT                                                            BSL101
01143  8900-PRINT-REPORT.                                               BSL101
01144                                                                   BSL101
01145      COPY RPTPRINT.                                               BSL101
01146                                                                   BSL101
01147  8910-ADVANCE-RPT-PAGE.                                           BSL101
01148                                                                   BSL101
01149      COPY RPTADVPG.                                               BSL101
01150                                                                   BSL101
01151  8920-SPECIAL-HEADING-PROCESS.                                    BSL101
01152                                                                   BSL101
01153      MOVE RPT-HEAD-LINE-4          TO REPORT-LINE.                BSL101
01154      PERFORM 8930-WRITE-REPORT-LINE.                              BSL101
01155      MOVE RPT-HEAD-LINE-5          TO REPORT-LINE.                BSL101
01156      PERFORM 8930-WRITE-REPORT-LINE.                              BSL101
01157                                                                   BSL101
01158                                                                   BSL101
01159                                                                   BSL101
01160  8930-WRITE-REPORT-LINE.                                          BSL101
01161                                                                   BSL101
01162 *                                                                 BSL101
01163 *      **  8930-WRITE-REPORT-LINE                                 BSL101
01164 *                                                                 BSL101
01165      MOVE REPORT-LINE TO REPORT-RECORD.                           BSL101
01166      WRITE REPORT-RECORD.                                         BSL101
01167                                                                   BSL101
01168      IF (RPT-CC = '1')                                            BSL101
01169          WRITE REPORT-LINE AFTER ADVANCING NEXT-PAGE              BSL101
01170          MOVE  ZERO  TO  RPT-LINE-CNT                             BSL101
01171      ELSE IF (RPT-CC = SPACE)                                     BSL101
01172               WRITE REPORT-LINE AFTER ADVANCING 1 LINES           BSL101
01173               ADD  +1  TO  RPT-LINE-CNT                           BSL101
01174      ELSE IF (RPT-CC = '0')                                       BSL101
01175               WRITE REPORT-LINE AFTER ADVANCING 2 LINES           BSL101
01176               ADD  +2  TO  RPT-LINE-CNT                           BSL101
01177      ELSE IF (RPT-CC = '-')                                       BSL101
01178               WRITE REPORT-LINE AFTER ADVANCING 3 LINES           BSL101
01179               ADD  +3  TO  RPT-LINE-CNT.                          BSL101
01180  EJECT                                                            BSL101
01181  9000-SEQ-CHK-APPROPRIATION.                                      BSL101
01182                                                                   BSL101
01183      MOVE CURR-MASTER-KEY            TO PREV-MASTER-KEY.          BSL101
01184      MOVE MST-LOCATION               TO CURR-LOCATION-CD.         BSL101
01185      MOVE MST-SAU                    TO CURR-SAU-CODE.            BSL101
01186      MOVE MST-SUB-CAMPUS-ID          TO CURR-SUB-CAMPUS-ID.       BSL101
01187      MOVE MST-FUNCTION-CD            TO CURR-FUNCTION-CD.         BSL101
01188                                                                   BSL101
01189      IF  CURR-MASTER-KEY LESS THAN PREV-MASTER-KEY                BSL101
01190          MOVE 05                     TO ABORT-CODE                BSL101
01191          DISPLAY 'CURR-KEY - ' CURR-MASTER-KEY                    BSL101
01192          DISPLAY 'PREV-KEY - ' PREV-MASTER-KEY                    BSL101
01193          PERFORM 9800-ABORT-PROGRAM.                              BSL101
01194  EJECT                                                            BSL101
01195  9200-LOAD-BUDGET-TABLE.   COPY BUDTBLLD.                         BSL101
01196  EJECT                                                            BSL101
01197  9250-SEARCH-TABLE.    COPY BUDTBLSR.                             BSL101
01198  EJECT                                                            BSL101
01199  9300-SUM-MASTER-IN-HASH-TOTALS.    COPY HSHTOTPR.                BSL101
01200  EJECT                                                            BSL101
01201  9800-ABORT-PROGRAM.                                              BSL101
01202                                                                   BSL101
01203      PERFORM 9850-STANDARD-ABORT-PROCESSING.                      BSL101
01204      MOVE 'Y' TO PROGRAM-ABORT-FLAG.                              BSL101
01205      GO TO 9900-EOJ-PROCESSING.                                   BSL101
01206                                                                   BSL101
01207                                                                   BSL101
01208                                                                   BSL101
01209  9850-STANDARD-ABORT-PROCESSING.    COPY ABORTPRG.                BSL101
01210  EJECT                                                            BSL101
01211  9900-EOJ-PROCESSING.                                             BSL101
01212                                                                   BSL101
01213      IF NOT ABORTING-PROGRAM                                      BSL101
01214          DISPLAY 'BSL101 SUCCESSFULLY COMPLETED'                  BSL101
01215          PERFORM 9350-PRINT-MASTER-IN-HASH-TOTS 2 TIMES.          BSL101
01216                                                                   BSL101
01217      CLOSE APPROPRIATION-FILE                                     BSL101
01218            SYSTEM-CONTROL-FILE                                    BSL101
01219            APPROPRIATION-REPORT-FILE                              BSL101
01220            BUDGET-TABLES-FILE                                     BSL101
01221            APPROPRIATION-REPORT.                                  BSL101
01222                                                                   BSL101
01223      STOP RUN.                                                    BSL101
