000100 IDENTIFICATION DIVISION.                                         00010027
000200                                                                  00020027
000300 PROGRAM-ID.    BSL211B.                                          00030027
000400                                                                  00040027
000500 AUTHOR.        TOM O'BRIEN.                                      00050027
000600                                                                  00060027
000700 DATE-WRITTEN.  JULY, 1980.                                       00070027
000800                                                                  00080027
000900 DATE-COMPILED.                                                   00090027
001000                                                                  00100027
001100*REMARKS.                                                         00110027
001200*    PROGRAM BSL211 PRODUCES THE DETAIL BUDGET WORKSHEET (BSL2115)00120027
001300*    BY READING THE BUDGET MASTER FILE AND PROCESSING INITIAL AND 00130027
001400*    SUMMARY RECORDS.  THE DETAIL BUDGET WORKSHEET IS A WORKSHEET 00140027
001500*    DOCUMENT FOR TURNAROUND ENTRY SHOWING THE CURRENT STATUS OF  00150027
001600*    BUDGET INCOME BY FUND TYPE, REVENUE ACCOUNT/FUND GROUP.  EACH00160027
001700*    RECORD GROUP  IS SUMMARIZED ON A LINE DISPLAYING INITIAL     00170027
001800*    AMOUNT, ADJUSTED AMOUNT, AND INCREMENTS AMOUNT ALONG WITH    00180027
001900*    ACCOUNT AND FUND NUMBERS AND ACCOUNT TITLE. COLUMNS IDENTIFY-00190027
002000*    ING TRANSACTION CLASS AND TYPE AND DOCUMENT NUMBER ARE PRINT-00200027
002100*    ED TO ALLOW FOR THE IMPUTTING OF THIS INFORMATION ALONG WITH 00210027
002200*    TRANACTION AMOUNT.  LOCATION AND SAU ARE DISPLAYED AS PART OF00220027
002300*    THE HEADING INFORMATION.  THE SYSTEM CONTROL FILE IS READ    00230027
002400*    FOR REPORT PROCESSING DATE AND CYCLE NUMBER, WHICH IS MATCH- 00240027
002500*    ED AGAINST THAT OF THE BUDGET MASTER HEADER RECORD.  THE     00250027
002600*    BUDGET TABLES FILE IS READ RETRIEVE FUND TITLE.              00260027
002700                                                                  00270027
002800 EJECT                                                            00280027
002900 ENVIRONMENT DIVISION.                                            00290027
003000                                                                  00300027
003100 CONFIGURATION SECTION.                                           00310027
003200                                                                  00320027
003300 SOURCE-COMPUTER.    IBM-370.                                     00330027
003400                                                                  00340027
003500 OBJECT-COMPUTER.    IBM-370.                                     00350027
003600                                                                  00360027
003700 SPECIAL-NAMES.                                                   00370027
003800                                                                  00380027
003900     C01 IS NEXT-PAGE.                                            00390027
004000                                                                  00400027
004100 INPUT-OUTPUT SECTION.                                            00410027
004200                                                                  00420027
004300 FILE-CONTROL.                                                    00430027
004400                                                                  00440027
004500     SELECT BUDGET-MASTER-FILE                                    00450027
004600            ASSIGN UT-S-BUDMAS.                                   00460027
004700                                                                  00470027
004800     SELECT SYSTEM-CONTROL-FILE                                   00480027
004900            ASSIGN UT-S-SYSCTLI.                                  00490027
005000                                                                  00500027
005100     SELECT BUDGET-TABLES-FILE                                    00510027
005200            ASSIGN UT-S-TABLES.                                   00520027
005300                                                                  00530027
005400     SELECT REPORT-FILE                                           00540027
005500            ASSIGN UT-S-REPORT.                                   00550027
005600 EJECT                                                            00560027
005700 DATA DIVISION.                                                   00570027
005800                                                                  00580027
005900 FILE SECTION.                                                    00590027
006000                                                                  00600027
006100                                                                  00610027
006200 FD  BUDGET-MASTER-FILE                                           00620027
006300     LABEL RECORDS ARE STANDARD                                   00630027
006400     RECORDING MODE IS F                                          00640027
006500     BLOCK CONTAINS 0 RECORDS                                     00650027
006600     RECORD CONTAINS 466 CHARACTERS.                              00660027
006700                                                                  00670027
006800 01  BUDGET-MASTER-REC               PIC X(466).                  00680027
006900                                                                  00690027
007000                                                                  00700027
007100 FD  SYSTEM-CONTROL-FILE                                          00710027
007200     LABEL RECORDS ARE STANDARD                                   00720027
007300     RECORDING MODE IS F                                          00730027
007400     BLOCK CONTAINS 0 RECORDS                                     00740027
007500     RECORD CONTAINS 80 CHARACTERS.                               00750027
007600                                                                  00760027
007700 01  SYSTEM-CONTROL-REC              PIC X(080).                  00770027
007800                                                                  00780027
007900                                                                  00790027
008000 FD  BUDGET-TABLES-FILE                                           00800027
008100     LABEL RECORDS ARE STANDARD                                   00810027
008200     RECORDING MODE IS F                                          00820027
008300     BLOCK CONTAINS 0 RECORDS                                     00830027
008400     RECORD CONTAINS 80 CHARACTERS.                               00840027
008500                                                                  00850027
008600 01  BUDGET-TABLES-REC               PIC X(080).                  00860027
008700                                                                  00870027
008800                                                                  00880027
008900 FD  REPORT-FILE                                                  00890027
009000     LABEL RECORDS ARE STANDARD                                   00900027
009100     RECORD CONTAINS 133 CHARACTERS                               00910027
009200     RECORDING MODE IS F                                          00920027
009300     BLOCK CONTAINS 0 RECORDS.                                    00930027
009400                                                                  00940027
009500 01  REPORT-LINE.                                                 00950027
009600     05  RPT-CC          PIC  X(001).                             00960027
009700     05  RPT-AREA        PIC  X(132).                             00970027
009800 EJECT                                                            00980027
009900 WORKING-STORAGE SECTION.                                         00990027
010000                                                                  01000027
010100 01  PROGRAM-START-WS.                                            01010027
010200     05  PROG-NAME                PIC X(06) VALUE 'BSL211'.       01020027
010300     05  PROGRAM-START-FIL           PIC X(27) VALUE              01030027
010400         'WORKING-STORAGE STARTS HERE'.                           01040027
010500     05  PROGRAM-TITLE               PIC X(58) VALUE              01050027
010600     '             D E T A I L   B U D G E T   W O R K S H E E T'.01060027
010700                                                                  01070027
010800                                                                  01080027
010900                                                                  01090027
011000                                                                  01100027
011100 01  SYSTEM-CONTROL-RECORD.      COPY  BUDSCNTL.                  01110027
011200                                                                  01120027
011300                                                                  01130027
011400                                                                  01140027
011500                                                                  01150027
011600 01  BUDGET-TABLES-RECORD.       COPY BUDTABLE.                   01160027
011700 EJECT                                                            01170027
011800                                                                  01180027
011900 01  BUDGET-MASTER-RECORD        PIC  X(466).                     01190027
012000                                 COPY  BUDMAST.                   01200027
012100 EJECT                                                            01210027
012200 01  BUDGET-MASTER-MISC.                                          01220027
012300     05  BUDGET-MASTER-STATUS-FLAG   PIC  X(01) VALUE 'B'.        01230027
012400         88  BUDGET-MASTER-BEGIN                VALUE 'B'.        01240027
012500         88  BUDGET-MASTER-READ                 VALUE 'R'.        01250027
012600         88  BUDGET-MASTER-EOF                  VALUE 'E'.        01260027
012700                                                                  01270027
012800     05  CURR-MASTER-KEY.                                         01280027
012900         10  CURR-LOCATION           PIC  X(02) VALUE LOW-VALUES. 01290027
013000         10  CURR-SAU                PIC  X(01) VALUE LOW-VALUES. 01300027
013100         10  CURR-TYPE               PIC  X(01) VALUE LOW-VALUES. 01310027
013200         10  CURR-FUND-TYPE          PIC  X(01) VALUE LOW-VALUES. 01320027
013300         10  CURR-REV-ACCT-TYPE      PIC  X(03) VALUE LOW-VALUES. 01330027
013400         10  CURR-ACCOUNT-NO         PIC  X(07) VALUE LOW-VALUES. 01340027
013500         10  CURR-FUND-NO            PIC  X(06) VALUE LOW-VALUES. 01350027
013600                                                                  01360027
013700     05  PREV-MASTER-KEY.                                         01370027
013800         10  PREV-LOCATION           PIC  X(02) VALUE LOW-VALUES. 01380027
013900         10  PREV-SAU                PIC  X(01) VALUE LOW-VALUES. 01390027
014000         10  PREV-TYPE               PIC  X(01) VALUE LOW-VALUES. 01400027
014100         10  PREV-FUND-TYPE          PIC  X(01) VALUE LOW-VALUES. 01410027
014200         10  PREV-REV-ACCT-TYPE      PIC  X(03) VALUE LOW-VALUES. 01420027
014300         10  PREV-ACCOUNT-NO         PIC  X(07) VALUE LOW-VALUES. 01430027
014400         10  PREV-FUND-NO            PIC  X(06) VALUE LOW-VALUES. 01440027
014500                                                                  01450027
014600     05  ACCOUNT-TITLE-WS            PIC  X(32).                  01460027
014700     05  FUND-TITLE-WS               PIC  X(32).                  01470027
014800     05  REV-ACCT-FUND-TITLE-WS      PIC  X(35).                  01480027
014900     05  FUND-TYPE-TITLE-WS          PIC  X(35).                  01490027
015000 EJECT                                                            01500027
015100 01  BUDGET-TABLES.              COPY BUDTBLWS.                   01510027
015200 EJECT                                                            01520027
015300     05  MSG-ABORT-TABLE.                                         01530027
015400         10  A1 PIC X(31) VALUE '01-SYSTEM CONTROL FILE EMPTY   '.01540027
015500         10  A2 PIC X(31) VALUE '02-BUDGET TABLES EMPTY         '.01550027
015600         10  A3 PIC X(31) VALUE '03-BUDGET MASTER FILE EMPTY    '.01560027
015700         10  A4 PIC X(31) VALUE '04-BUDGET MASTER ALREADY EOF   '.01570027
015800         10  A5 PIC X(31) VALUE '05-BUDGET MASTER OUT OF SEQ    '.01580027
015900         10  A6 PIC X(31) VALUE '06-NO BUDGET TABLE INDEXES     '.01590027
016000         10  A7 PIC X(31) VALUE '07-NO BUDGET TABLE MATCH       '.01600027
016100         10  A8 PIC X(31) VALUE '08-NO ENTRIES IN TABLE FILE    '.01610027
016200         10  A9 PIC X(31) VALUE '09-UNEQUAL CURR CYCLE NUMBERS  '.01620027
016300                                                                  01630027
016400     05  MSG-ABORT           REDEFINES                            01640027
016500         MSG-ABORT-TABLE     OCCURS 09                            01650027
016600                             INDEXED BY MSG-ABORT-INDEX.          01660027
016700         10  MSG-ABORT-CODE  PIC X(02).                           01670027
016800         10  ABORT-MSG       PIC X(29).                           01680027
016900                                                                  01690027
017000     05  ABORT-CODE          PIC X(02).                           01700027
017100     05  PROGRAM-ABORT-FLAG  PIC X(01)  VALUE 'N'.                01710027
017200         88  ABORTING-PROGRAM           VALUE 'Y'.                01720027
017300 EJECT                                                            01730027
017400 01  REPORT-TOTALS.                                               01740027
017500     05  RPT-ACCT-INIT-AMT-TOT   PIC S9(10)    COMP-3 VALUE +0.   01750027
017600     05  RPT-ACCT-ADJ-AMT-TOT    PIC S9(10)    COMP-3 VALUE +0.   01760027
017700     05  RPT-ACCT-INCTD-AMT-TOT  PIC S9(10)    COMP-3 VALUE +0.   01770027
017800     05  RPT-FUND-INIT-AMT-TOT   PIC S9(09)    COMP-3 VALUE +0.   01780027
017900     05  RPT-FUND-ADJ-AMT-TOT    PIC S9(09)    COMP-3 VALUE +0.   01790027
018000     05  RPT-FUND-INCTD-AMT-TOT  PIC S9(09)    COMP-3 VALUE +0.   01800027
018100                                                                  01810027
018200 01  REPORT-HEADINGS.            COPY RPTMISC.                    01820027
018300                                                                  01830027
018400 01  RPT-HEAD-LINE-4.                                             01840027
018500     05  RPT-H4-CC       PIC X(01) VALUE '0'.                     01850027
018600     05  FILLER          PIC X(20) VALUE 'TRAN  S ACCOUNT FUND'.  01860027
018700     05  FILLER          PIC X(20) VALUE '  TRAN DATE ACCOUNT '.  01870027
018800     05  FILLER          PIC X(20) VALUE 'TITLE/ FUND TITLE   '.  01880027
018900     05  FILLER          PIC X(20) VALUE '    DOCUMENT        '.  01890027
019000     05  FILLER          PIC X(15)BB VALUE ' INITIAL BUDGET'.     01900027
019100     05  FILLER          PIC X(15)BB VALUE 'ADJUSTED BUDGET'.     01910027
019200     05  FILLER          PIC X(15) VALUE '  INCREMENTS   '.       01920027
019300                                                                  01930027
019400 01  RPT-HEAD-LINE-5.                                             01940027
019500     05  RPT-H5-CC       PIC X(01) VALUE ' '.                     01950027
019600     05  FILLER          PIC X(20) VALUE 'CL TP C             '.  01960027
019700     05  FILLER          PIC X(20) VALUE '                    '.  01970027
019800     05  FILLER          PIC X(20) VALUE '                    '.  01980027
019900     05  FILLER          PIC X(20) VALUE '      NO.           '.  01990027
020000     05  FILLER          PIC X(15)BB VALUE '    AMOUNT     '.     02000027
020100     05  FILLER          PIC X(15)BB VALUE '    AMOUNT     '.     02010027
020200     05  FILLER          PIC X(15) VALUE '    AMOUNT     '.       02020027
020300                                                                  02030027
020400 01  RPT-HEAD-LINE-4-B.                                           02040027
020500     05  RPT-H4-CC-B     PIC X(01) VALUE '0'.                     02050027
020600     05  FILLER          PIC X(05)B VALUE 'TRAN '.                02060027
020700     05  FILLER          PIC X(01)B VALUE 'S'.                    02070027
020800     05  FILLER          PIC X(07)B VALUE 'INDEX'.                02080027
020900     05  FILLER          PIC X(06)B VALUE 'FUND'.                 02090027
020910     05  FILLER          PIC X(06)B VALUE 'ORG'.                  02091027
020920     05  FILLER          PIC X(06)B VALUE 'ACCT'.                 02092027
020930     05  FILLER          PIC X(06)B VALUE 'PROG'.                 02093027
020940     05  FILLER          PIC X(06)B VALUE 'ACTVY'.                02094027
020950     05  FILLER          PIC X(06)B VALUE 'LCTN'.                 02095027
020960     05  FILLER          PIC X(21)B VALUE 'ACCOUNT TITLE'.        02096027
020970     05  FILLER          PIC X(15)BB VALUE ' INITIAL BUDGET'.     02097027
020980     05  FILLER          PIC X(15)BB VALUE 'ADJUSTED BUDGET'.     02098027
020990     05  FILLER          PIC X(15) VALUE '  INCREMENTS   '.       02099027
021000                                                                  02100027
021100 01  RPT-HEAD-LINE-5-B.                                           02110027
021200     05  RPT-H5-CC-B     PIC X(01) VALUE ' '.                     02120027
021300     05  FILLER          PIC X(20) VALUE 'CL TP C             '.  02130027
021400     05  FILLER          PIC X(20) VALUE '                    '.  02140027
021500     05  FILLER          PIC X(20) VALUE '                    '.  02150027
021600     05  FILLER          PIC X(20) VALUE '                    '.  02160027
021700     05  FILLER          PIC X(15)BB VALUE '    AMOUNT     '.     02170027
021800     05  FILLER          PIC X(15)BB VALUE '    AMOUNT     '.     02180027
021900     05  FILLER          PIC X(15) VALUE '    AMOUNT     '.       02190027
022000                                                                  02200027
022100 01  RPT-ASTERISK-LINE.                                           02210027
022200     05  RPT-AST-CC      PIC X(01) VALUE '0'.                     02220027
022300     05  FILLER          PIC X(20) VALUE '********************'.  02230027
022400     05  FILLER          PIC X(20) VALUE '********************'.  02240027
022500     05  FILLER          PIC X(20) VALUE '********************'.  02250027
022600     05  FILLER          PIC X(20) VALUE '********************'.  02260027
022700     05  FILLER          PIC X(18) VALUE '******************'.    02270027
022800     05  FILLER          PIC X(18) VALUE '******************'.    02280027
022900     05  FILLER          PIC X(15) VALUE '***************'.       02290027
023000                                                                  02300027
023100 EJECT                                                            02310027
023200 01  RPT-DETAIL-LINE-1.                                           02320027
023300     05  RPT-DET-CC-1            PIC X(01) VALUE SPACE.           02330027
023400     05  FILLER                  PIC X(06) VALUE SPACES.          02340027
023500     05  RPT-DET-SUB-CAMPUS-ID   PIC X(02).                       02350027
023600     05  RPT-DET-ACCOUNT-NO      PIC X(07).                       02360027
023700     05  FILLER                  PIC X(01) VALUE SPACES.          02370027
023800     05  RPT-DET-FUND-NO         PIC X(06).                       02380027
023900     05  FILLER                  PIC X(10) VALUE SPACES.          02390027
024000     05  RPT-DET-ACCT-TITLE      PIC X(40).                       02400027
024100     05  RPT-DET-FUND-TITLE      PIC X(35).                       02410027
024200                                                                  02420027
024300 01  RPT-DETAIL-LINE-1-B.                                         02430027
024400     05  RPT-DET-CC-1-B          PIC X(01) VALUE SPACE.           02440027
024500     05  FILLER                  PIC X(06) VALUE SPACES.          02450027
024600     05  RPT-DET-SUB-CAMPUS-ID-B PIC X(02).                       02460027
024700     05  RPT-DET-IFIS-INDEX      PIC X(07)B.                      02470027
024800     05  RPT-DET-IFIS-FUND       PIC X(06)B.                      02480027
024900     05  RPT-DET-IFIS-ORG        PIC X(06)B.                      02490027
025000     05  RPT-DET-IFIS-ACCOUNT    PIC X(06)B.                      02500027
025100     05  RPT-DET-IFIS-PROGRAM    PIC X(06)B.                      02510027
025200     05  RPT-DET-IFIS-ACTIVITY   PIC X(06)B.                      02520027
025300     05  RPT-DET-IFIS-LOCATION   PIC X(06)B.                      02530027
025400     05  RPT-DET-IFIS-ACCOUNT-TITLE PIC X(21)B.                   02540027
025500                                                                  02550027
025600 01  RPT-DETAIL-LINE-2.                                           02560027
025700     05  FILLER                  PIC X(81) VALUE SPACES.          02570027
025800     05  RPT-DET-INIT-AMT        PIC Z,ZZZ,ZZZ,ZZZ.               02580027
025900     05  RPT-DET-INIT-AMT-CR     PIC X(02)BB.                     02590027
026000     05  RPT-DET-ADJ-AMT         PIC Z,ZZZ,ZZZ,ZZZ.               02600027
026100     05  RPT-DET-ADJ-AMT-CR      PIC X(02)BB.                     02610027
026200     05  RPT-DET-INCTD-AMT       PIC Z,ZZZ,ZZZ,ZZZ.               02620027
026300     05  RPT-DET-INCTD-AMT-CR    PIC X(02).                       02630027
026400                                                                  02640027
026500 01  RPT-ACCT-FUND-TOT-LINE.                                      02650027
026600     05  RPT-ACF-CC              PIC X(01) VALUE ' '.             02660027
026700     05  FILLER                  PIC X(04) VALUE SPACES.          02670027
026800     05  RPT-ACF-REV-ACCT-NO     PIC X(03).                       02680027
026900     05  FILLER                  PIC X(09) VALUE ' TOTAL - '.     02690027
027000     05  RPT-ACF-ACCT-TITLE      PIC X(40).                       02700027
027100     05  FILLER                  PIC X(25) VALUE SPACES.          02710027
027200     05  RPT-ACF-INIT-AMT        PIC Z,ZZZ,ZZZ,ZZZ.               02720027
027300     05  RPT-ACF-INIT-AMT-CR     PIC X(02)BB.                     02730027
027400     05  RPT-ACF-ADJ-AMT         PIC Z,ZZZ,ZZZ,ZZZ.               02740027
027500     05  RPT-ACF-ADJ-AMT-CR      PIC X(02)BB.                     02750027
027600     05  RPT-ACF-INCTD-AMT       PIC Z,ZZZ,ZZZ,ZZZ.               02760027
027700     05  RPT-ACF-INCTD-AMT-CR    PIC X(02).                       02770027
027800                                                                  02780027
027900 01  RPT-FUND-TOT-LINE.                                           02790027
028000     05  RPT-FUND-TOT-CC         PIC X(01) VALUE '0'.             02800027
028100     05  FILLER                  PIC X(08) VALUE '--------'.      02810027
028200     05  FILLER                  PIC X(19) VALUE                  02820027
028300         'TOTAL - FUND TYPE: '.                                   02830027
028400     05  RPT-FUND-TYPE-CODE      PIC X(03).                       02840027
028500     05  FILLER                  PIC X(07) VALUE 'TITLE: '.       02850027
028600     05  RPT-FUND-TYPE-TITLE     PIC X(39)BBBBB.                  02860027
028700     05  RPT-FUND-INIT-AMT       PIC Z,ZZZ,ZZZ,ZZZ.               02870027
028800     05  RPT-FUND-INIT-AMT-CR    PIC X(02)BB.                     02880027
028900     05  RPT-FUND-ADJ-AMT        PIC Z,ZZZ,ZZZ,ZZZ.               02890027
029000     05  RPT-FUND-ADJ-AMT-CR     PIC X(02)BB.                     02900027
029100     05  RPT-FUND-INCTD-AMT      PIC Z,ZZZ,ZZZ,ZZZ.               02910027
029200     05  RPT-FUND-INCTD-AMT-CR   PIC X(02).                       02920027
029300                                                                  02930027
029400 01  RPT-FUND-TITLE-LINE.                                         02940027
029500     05  RPT-FUNT-CC             PIC X(08) VALUE '--------'.      02950027
029600     05  RPT-FUNT-NAME           PIC X(11) VALUE 'FUND TYPE: '.   02960027
029700     05  RPT-FUNT-CODE           PIC X(03).                       02970027
029800     05  FILLER                  PIC X(07) VALUE 'TITLE: '.       02980027
029900     05  RPT-FUNT-TITLE          PIC X(35).                       02990027
030000 EJECT                                                            03000027
030100 01  BUDGET-MASTER-HASH-AREA.    COPY HSHTOTWS.                   03010027
030200 EJECT                                                            03020027
030300 PROCEDURE DIVISION.                                              03030027
030400                                                                  03040027
030500 0000-MAINLINE.                                                   03050027
030600     DISPLAY 'BSL211 HAS BEGUN'.                                  03060027
030700                                                                  03070027
030800     PERFORM 1000-INITIALIZATION.                                 03080027
030900                                                                  03090027
031000     PERFORM 2000-PROC-BUDGET-MASTER-FILE                         03100027
031100         UNTIL BUDGET-MASTER-EOF.                                 03110027
031200                                                                  03120027
031300     PERFORM 9900-EOJ-PROCESSING.                                 03130027
031400 EJECT                                                            03140027
031500 1000-INITIALIZATION.                                             03150027
031600                                                                  03160027
031700                                                                  03170027
031800     OPEN INPUT BUDGET-MASTER-FILE                                03180027
031900                SYSTEM-CONTROL-FILE                               03190027
032000                BUDGET-TABLES-FILE.                               03200027
032100                                                                  03210027
032200     OPEN OUTPUT REPORT-FILE.                                     03220027
032300                                                                  03230027
032400     PERFORM 8000-READ-SYSTEM-CONTROL-FILE.                       03240027
032500     DISPLAY 'SYSCTLI - ' SYSTEM-CONTROL-RECORD.                  03250027
032600                                                                  03260027
032700*      ** STANDARD INITIALIZIATION FOR STANDARD REPORT HEADING    03270027
032800*      **  REQUIRES PROGRAM TO HAVE READ SYSTEM CONTROL RECORD    03280027
032900                                                                  03290027
033000     MOVE  SYS-CURR-PROC-YEAR  TO  RPT-HEAD2-REPORT-YEAR.         03300027
033100     MOVE  SYS-CURR-PROC-MONTH TO  RPT-HEAD2-REPORT-MONTH.        03310027
033200     MOVE  SYS-CURR-PROC-DAY   TO  RPT-HEAD2-REPORT-DAY.          03320027
033300                                                                  03330027
033400     ACCEPT  RPT-RUN-DATE  FROM  DATE.                            03340027
033500     MOVE  RPT-RUN-YEAR  TO  RPT-HEAD3-RUN-YEAR.                  03350027
033600     MOVE  RPT-RUN-MONTH TO  RPT-HEAD3-RUN-MONTH.                 03360027
033700     MOVE  RPT-RUN-DAY   TO  RPT-HEAD3-RUN-DAY.                   03370027
033800                                                                  03380027
033900     MOVE PROGRAM-TITLE TO RPT-HEAD1-TITLE.                       03390027
034000     MOVE '2115'        TO RPT-HEAD1-ID.                          03400027
034100                                                                  03410027
034200     MOVE SYS-LOCATION-CODE  TO RPT-HEAD2-LOC-CODE.               03420027
034300     MOVE SYS-LOCATION-TITLE TO RPT-HEAD2-LOC-TITLE.              03430027
034400     MOVE '                  I N C O M E                  '       03440027
034500                                 TO RPT-HEAD2-SUBTITLE.           03450027
034600                                                                  03460027
034700     PERFORM 8200-READ-BUDGET-MASTER-FILE.                        03470027
034800                                                                  03480027
034900     IF  MST-CYCLE-NO NOT = SYS-CURR-CYCLE-NO                     03490027
035000         MOVE 09 TO ABORT-CODE                                    03500027
035100         DISPLAY 'SYSTEM CYCLE NO. = ' SYS-CURR-CYCLE-NO          03510027
035200         DISPLAY 'MASTER CYCLE NO. = ' MST-CYCLE-NO               03520027
035300         PERFORM 9800-ABORT-PROGRAM.                              03530027
035400                                                                  03540027
035500     PERFORM 1100-PROC-BUDGET-TABLES-LOAD.                        03550027
035600 EJECT                                                            03560027
035700 1100-PROC-BUDGET-TABLES-LOAD.                                    03570027
035800                                                                  03580027
035900     SET TAB-INDX TO +1.                                          03590027
036000     SET TAB-END-INDX TO +1.                                      03600027
036100     SET TAB-NO-INDX TO +1.                                       03610027
036200     MOVE SPACES TO TAB-TABLE-NO.                                 03620027
036300                                                                  03630027
036400*** LOAD SAU TABLE                                                03640027
036500     MOVE '002' TO TABLE-NO-ARG.                                  03650027
036600     PERFORM 9200-LOAD-BUDGET-TABLE.                              03660027
036700                                                                  03670027
036800     IF  TABLE-LOAD-ERROR                                         03680027
036900         MOVE 08 TO ABORT-CODE                                    03690027
037000         PERFORM 9800-ABORT-PROGRAM.                              03700027
037100                                                                  03710027
037200     SET TAB-INDX TO TAB-END-INDX.                                03720027
037300*** LOAD FUND TYPE TABLE                                          03730027
037400     MOVE '005' TO TABLE-NO-ARG.                                  03740027
037500     PERFORM 9200-LOAD-BUDGET-TABLE.                              03750027
037600     IF  TABLE-LOAD-ERROR                                         03760027
037700         MOVE 08 TO ABORT-CODE                                    03770027
037800         PERFORM 9800-ABORT-PROGRAM.                              03780027
037900                                                                  03790027
038000     SET TAB-INDX TO TAB-END-INDX.                                03800027
038100*** LOAD REVENUE ACCOUNT/FUND GROUP TABLE                         03810027
038200     MOVE '006' TO TABLE-NO-ARG.                                  03820027
038300     PERFORM 9200-LOAD-BUDGET-TABLE.                              03830027
038400                                                                  03840027
038500     IF  TABLE-LOAD-ERROR                                         03850027
038600         MOVE 08 TO ABORT-CODE                                    03860027
038700         PERFORM 9800-ABORT-PROGRAM.                              03870027
038800 EJECT                                                            03880027
038900 2000-PROC-BUDGET-MASTER-FILE.                                    03890027
039000                                                                  03900027
039100     PERFORM 8200-READ-BUDGET-MASTER-FILE.                        03910027
039200                                                                  03920027
039300     IF  CURR-MASTER-KEY NOT = PREV-MASTER-KEY                    03930027
039400         PERFORM 4000-PROCESS-CONTROL-BREAK.                      03940027
039500                                                                  03950027
039600     PERFORM 3000-PROC-BUDGET-MASTER-RECORD.                      03960027
039700 SKIP3                                                            03970027
039800 3000-PROC-BUDGET-MASTER-RECORD.                                  03980027
039900                                                                  03990027
040000     IF  MST-INCOME-REC                                           04000027
040100         IF  MST-INITIAL-REC                                      04010027
040200             PERFORM 3100-PROCESS-INITIAL-RECORD                  04020027
040300         ELSE                                                     04030027
040400         IF  MST-SUM-REC                                          04040027
040500             PERFORM 3200-PROCESS-SUMMARY-RECORD.                 04050027
040600 EJECT                                                            04060027
040700 3100-PROCESS-INITIAL-RECORD.                                     04070027
040800                                                                  04080027
040900     MOVE MST-ACCOUNT-TITLE          TO  RPT-DET-ACCT-TITLE.      04090027
041000     MOVE MST-FUND-TITLE             TO  RPT-DET-FUND-TITLE.      04100027
041100     MOVE MST-INIT-AMT               TO  RPT-DET-INIT-AMT.        04110027
041200                                                                  04120027
041300     MOVE MST-INIT-IFIS-INDEX        TO RPT-DET-IFIS-INDEX.       04130027
041400     MOVE MST-INIT-IFIS-FUND         TO RPT-DET-IFIS-FUND.        04140027
041500     MOVE MST-INIT-IFIS-ORG          TO RPT-DET-IFIS-ORG.         04150027
041600     MOVE MST-INIT-IFIS-ACCOUNT      TO RPT-DET-IFIS-ACCOUNT.     04160027
041700     MOVE MST-IFIS-ACCOUNT-TITLE  TO RPT-DET-IFIS-ACCOUNT-TITLE.  04170027
041800     MOVE MST-INIT-IFIS-PROGRAM      TO  RPT-DET-IFIS-PROGRAM.    04180027
041900     MOVE MST-INIT-IFIS-ACTIVITY     TO RPT-DET-IFIS-ACTIVITY.    04190027
042000     MOVE MST-INIT-IFIS-LOCATION     TO RPT-DET-IFIS-LOCATION.    04200027
042100                                                                  04210027
042200     MOVE MST-INIT-AMT               TO  RPT-DET-INIT-AMT.        04220027
042300     ADD  MST-INIT-AMT               TO  RPT-ACCT-INIT-AMT-TOT.   04230027
042400                                                                  04240027
042500     IF  MST-INIT-AMT GREATER THAN ZERO                           04250027
042600         MOVE 'CR'                   TO  RPT-DET-INIT-AMT-CR      04260027
042700     ELSE                                                         04270027
042800         MOVE SPACES                 TO  RPT-DET-INIT-AMT-CR.     04280027
042900     MOVE MST-FUND-TITLE             TO  FUND-TITLE-WS.           04290027
043000                                                                  04300027
043100                                                                  04310027
043200 3200-PROCESS-SUMMARY-RECORD.                                     04320027
043300                                                                  04330027
043400     MOVE MST-SUB-CAMPUS-ID          TO  RPT-DET-SUB-CAMPUS-ID.   04340027
043500     MOVE MST-ACCOUNT-NO             TO  RPT-DET-ACCOUNT-NO.      04350027
043600     MOVE MST-FUND-NO                TO  RPT-DET-FUND-NO.         04360027
043700                                                                  04370027
043800     MOVE MST-SUB-CAMPUS-ID          TO RPT-DET-SUB-CAMPUS-ID-B.  04380027
043900     MOVE MST-SUM-IFIS-INDEX         TO RPT-DET-IFIS-INDEX.       04390027
044000     MOVE MST-SUM-IFIS-FUND          TO RPT-DET-IFIS-FUND.        04400027
044100     MOVE MST-SUM-IFIS-ORG           TO RPT-DET-IFIS-ORG.         04410027
044200     MOVE MST-SUM-IFIS-ACCOUNT       TO RPT-DET-IFIS-ACCOUNT.     04420027
044300*    MOVE MST-IFIS-ACCOUNT-TITLE  TO RPT-DET-IFIS-ACCOUNT-TITLE.  04430027
044400     MOVE MST-SUM-IFIS-PROGRAM       TO  RPT-DET-IFIS-PROGRAM.    04440027
044500     MOVE MST-SUM-IFIS-ACTIVITY      TO RPT-DET-IFIS-ACTIVITY.    04450027
044600     MOVE MST-SUM-IFIS-LOCATION      TO RPT-DET-IFIS-LOCATION.    04460027
044700                                                                  04470027
044800     MOVE MST-SUM-ADJ-AMT            TO  RPT-DET-ADJ-AMT.         04480027
044900     MOVE MST-SUM-INCTD-AMT          TO  RPT-DET-INCTD-AMT.       04490027
045000                                                                  04500027
045100     IF  MST-SUM-ADJ-AMT GREATER THAN ZERO                        04510027
045200         MOVE 'CR'                   TO  RPT-DET-ADJ-AMT-CR       04520027
045300     ELSE                                                         04530027
045400         MOVE SPACES                 TO  RPT-DET-ADJ-AMT-CR.      04540027
045500     IF  MST-SUM-INCTD-AMT GREATER THAN ZERO                      04550027
045600         MOVE 'CR'                   TO  RPT-DET-INCTD-AMT-CR     04560027
045700     ELSE                                                         04570027
045800         MOVE SPACES                 TO  RPT-DET-INCTD-AMT-CR.    04580027
045900*                                                                 04590027
046000*    MOVE RPT-DETAIL-LINE-1          TO  REPORT-LINE.             04600027
046100*    PERFORM 8900-PRINT-REPORT.                                   04610027
046200                                                                  04620027
046300     MOVE RPT-DETAIL-LINE-1-B        TO  REPORT-LINE.             04630027
046400     PERFORM 8900-PRINT-REPORT.                                   04640027
046500                                                                  04650027
046600     MOVE RPT-DETAIL-LINE-2          TO REPORT-LINE.              04660027
046700     PERFORM 8900-PRINT-REPORT.                                   04670027
046800                                                                  04680027
046900     MOVE SPACES                     TO RPT-DETAIL-LINE-1         04690027
047000                                        RPT-DETAIL-LINE-2.        04700027
047100     MOVE '0'                        TO  RPT-DET-CC-1.            04710027
047200     MOVE '0'                        TO  RPT-DET-CC-1-B.          04720027
047300     ADD MST-SUM-ADJ-AMT             TO  RPT-ACCT-ADJ-AMT-TOT.    04730027
047400     ADD MST-SUM-INCTD-AMT           TO  RPT-ACCT-INCTD-AMT-TOT.  04740027
047500 EJECT                                                            04750027
047600 4000-PROCESS-CONTROL-BREAK.                                      04760027
047700                                                                  04770027
047800     IF  PREV-MASTER-KEY NOT = LOW-VALUES                         04780027
047900         IF  CURR-LOCATION NOT = PREV-LOCATION                    04790027
048000             PERFORM 4100-PROCESS-REV-ACCT-BREAK                  04800027
048100             PERFORM 4200-PROCESS-FUND-TYPE-BREAK                 04810027
048200         ELSE                                                     04820027
048300         IF  CURR-SAU NOT = PREV-SAU                              04830027
048400             PERFORM 4100-PROCESS-REV-ACCT-BREAK                  04840027
048500             PERFORM 4200-PROCESS-FUND-TYPE-BREAK                 04850027
048600         ELSE                                                     04860027
048700         IF  CURR-FUND-TYPE NOT = PREV-FUND-TYPE                  04870027
048800             PERFORM 4100-PROCESS-REV-ACCT-BREAK                  04880027
048900             PERFORM 4200-PROCESS-FUND-TYPE-BREAK                 04890027
049000         ELSE                                                     04900027
049100         IF  CURR-REV-ACCT-TYPE NOT = PREV-REV-ACCT-TYPE          04910027
049200             PERFORM 4100-PROCESS-REV-ACCT-BREAK.                 04920027
049300                                                                  04930027
049400     IF  CURR-MASTER-KEY NOT = HIGH-VALUES                        04940027
049500         IF  CURR-LOCATION NOT = PREV-LOCATION                    04950027
049600             PERFORM 4400-FETCH-SAU-TITLE                         04960027
049700             PERFORM 4250-PRINT-FUND-TYPE-TITLE                   04970027
049800             PERFORM 4150-PRINT-REV-ACCT-TITLE                    04980027
049900         ELSE                                                     04990027
050000         IF  CURR-SAU NOT = PREV-SAU                              05000027
050100             PERFORM 4400-FETCH-SAU-TITLE                         05010027
050200             PERFORM 4250-PRINT-FUND-TYPE-TITLE                   05020027
050300             PERFORM 4150-PRINT-REV-ACCT-TITLE                    05030027
050400         ELSE                                                     05040027
050500         IF  CURR-FUND-TYPE NOT = PREV-FUND-TYPE                  05050027
050600             PERFORM 4250-PRINT-FUND-TYPE-TITLE                   05060027
050700             PERFORM 4150-PRINT-REV-ACCT-TITLE                    05070027
050800         ELSE                                                     05080027
050900         IF  CURR-REV-ACCT-TYPE NOT = PREV-REV-ACCT-TYPE          05090027
051000             PERFORM 4150-PRINT-REV-ACCT-TITLE.                   05100027
051100 EJECT                                                            05110027
051200 4100-PROCESS-REV-ACCT-BREAK.                                     05120027
051300                                                                  05130027
051400     MOVE PREV-REV-ACCT-TYPE         TO RPT-ACF-REV-ACCT-NO.      05140027
051500     MOVE RPT-ACCT-INIT-AMT-TOT      TO RPT-ACF-INIT-AMT.         05150027
051600     MOVE RPT-ACCT-ADJ-AMT-TOT       TO RPT-ACF-ADJ-AMT.          05160027
051700     MOVE RPT-ACCT-INCTD-AMT-TOT     TO RPT-ACF-INCTD-AMT.        05170027
051800     MOVE REV-ACCT-FUND-TITLE-WS     TO RPT-ACF-ACCT-TITLE.       05180027
051900     PERFORM 4120-FORMAT-CREDIT-AMOUNT-SIGN.                      05190027
052000     MOVE RPT-ACCT-FUND-TOT-LINE     TO REPORT-LINE.              05200027
052100     PERFORM 8900-PRINT-REPORT.                                   05210027
052200     MOVE RPT-ASTERISK-LINE          TO REPORT-LINE.              05220027
052300     PERFORM 8900-PRINT-REPORT.                                   05230027
052400                                                                  05240027
052500     ADD RPT-ACCT-INIT-AMT-TOT       TO RPT-FUND-INIT-AMT-TOT.    05250027
052600     ADD RPT-ACCT-ADJ-AMT-TOT        TO RPT-FUND-ADJ-AMT-TOT      05260027
052700     ADD RPT-ACCT-INCTD-AMT-TOT      TO RPT-FUND-INCTD-AMT-TOT.   05270027
052800     MOVE ZEROS                      TO RPT-ACCT-INIT-AMT-TOT     05280027
052900                                        RPT-ACCT-ADJ-AMT-TOT      05290027
053000                                        RPT-ACCT-INCTD-AMT-TOT.   05300027
053100                                                                  05310027
053200                                                                  05320027
053300 4120-FORMAT-CREDIT-AMOUNT-SIGN.                                  05330027
053400                                                                  05340027
053500     IF  RPT-ACCT-INIT-AMT-TOT GREATER THAN ZERO                  05350027
053600         MOVE 'CR'                   TO RPT-ACF-INIT-AMT-CR       05360027
053700     ELSE                                                         05370027
053800         MOVE SPACES                 TO RPT-ACF-INIT-AMT-CR.      05380027
053900     IF  RPT-ACCT-ADJ-AMT-TOT GREATER THAN ZERO                   05390027
054000         MOVE 'CR'                   TO RPT-ACF-ADJ-AMT-CR        05400027
054100     ELSE                                                         05410027
054200         MOVE SPACES                 TO RPT-ACF-ADJ-AMT-CR.       05420027
054300     IF  RPT-ACCT-INCTD-AMT-TOT GREATER THAN ZERO                 05430027
054400         MOVE 'CR'                   TO RPT-ACF-INCTD-AMT-CR      05440027
054500     ELSE                                                         05450027
054600         MOVE SPACES                 TO RPT-ACF-INCTD-AMT-CR.     05460027
054700                                                                  05470027
054800                                                                  05480027
054900 4150-PRINT-REV-ACCT-TITLE.                                       05490027
055000                                                                  05500027
055100     MOVE SPACES                     TO RPT-ACCT-FUND-TOT-LINE.   05510027
055200     MOVE '0'                        TO RPT-ACF-CC.               05520027
055300     MOVE MST-REV-ACC-FND-GRP        TO TABLE-ENTRY-ARG           05530027
055400                                        RPT-ACF-REV-ACCT-NO.      05540027
055500     MOVE '006'                      TO TABLE-NO-ARG.             05550027
055600     MOVE 'MATCH'                    TO TABLE-SEARCH-TYPE-ARG.    05560027
055700     PERFORM 9250-SEARCH-TABLE.                                   05570027
055800                                                                  05580027
055900     IF  TABLE-ENTRY-NOT-FOUND                                    05590027
056000         MOVE 'UNKNOWN REV ACCT/FUND GROUP'                       05600027
056100                                     TO RPT-ACF-ACCT-TITLE        05610027
056200                                        REV-ACCT-FUND-TITLE-WS    05620027
056300     ELSE                                                         05630027
056400         MOVE TABLE-CLASS-TITLE (TAB-INDX)                        05640027
056500                                     TO RPT-ACF-ACCT-TITLE        05650027
056600                                        REV-ACCT-FUND-TITLE-WS.   05660027
056700                                                                  05670027
056800     MOVE RPT-ACCT-FUND-TOT-LINE     TO REPORT-LINE.              05680027
056900     PERFORM 8900-PRINT-REPORT.                                   05690027
057000                                                                  05700027
057100     MOVE '0'                        TO RPT-DET-CC-1.             05710027
057200     MOVE '0'                        TO RPT-DET-CC-1-B.           05720027
057300 EJECT                                                            05730027
057400 4200-PROCESS-FUND-TYPE-BREAK.                                    05740027
057500                                                                  05750027
057600     MOVE PREV-FUND-TYPE             TO RPT-FUND-TYPE-CODE.       05760027
057700     MOVE FUND-TYPE-TITLE-WS         TO RPT-FUND-TYPE-TITLE.      05770027
057800     MOVE RPT-FUND-INIT-AMT-TOT      TO RPT-FUND-INIT-AMT.        05780027
057900     MOVE RPT-FUND-ADJ-AMT-TOT       TO RPT-FUND-ADJ-AMT.         05790027
058000     MOVE RPT-FUND-INCTD-AMT-TOT     TO RPT-FUND-INCTD-AMT.       05800027
058100     PERFORM 4210-FORMAT-CREDIT-AMOUNT-SIGN.                      05810027
058200                                                                  05820027
058300     MOVE RPT-FUND-TOT-LINE          TO REPORT-LINE.              05830027
058400     PERFORM 8900-PRINT-REPORT.                                   05840027
058500                                                                  05850027
058600     MOVE ZEROS                      TO RPT-FUND-INIT-AMT-TOT.    05860027
058700     MOVE ZEROS                      TO RPT-FUND-ADJ-AMT-TOT.     05870027
058800     MOVE ZEROS                      TO RPT-FUND-INCTD-AMT-TOT.   05880027
058900     MOVE +90                        TO RPT-LINE-CNT.             05890027
059000                                                                  05900027
059100                                                                  05910027
059200 4210-FORMAT-CREDIT-AMOUNT-SIGN.                                  05920027
059300                                                                  05930027
059400     IF  RPT-FUND-INIT-AMT-TOT GREATER THAN ZERO                  05940027
059500         MOVE 'CR'                   TO RPT-FUND-INIT-AMT-CR      05950027
059600     ELSE                                                         05960027
059700         MOVE SPACES                 TO RPT-FUND-INIT-AMT-CR.     05970027
059800     IF  RPT-FUND-ADJ-AMT-TOT GREATER THAN ZERO                   05980027
059900         MOVE 'CR'                   TO RPT-FUND-ADJ-AMT-CR       05990027
060000     ELSE                                                         06000027
060100         MOVE SPACES                 TO RPT-FUND-ADJ-AMT-CR.      06010027
060200     IF  RPT-FUND-INCTD-AMT-TOT GREATER THAN ZERO                 06020027
060300         MOVE 'CR'                   TO RPT-FUND-INCTD-AMT-CR     06030027
060400     ELSE                                                         06040027
060500         MOVE SPACES                 TO RPT-FUND-INCTD-AMT-CR.    06050027
060600                                                                  06060027
060700                                                                  06070027
060800 4250-PRINT-FUND-TYPE-TITLE.                                      06080027
060900                                                                  06090027
061000     MOVE MST-FUND-TYPE              TO TABLE-ENTRY-ARG           06100027
061100                                        RPT-FUNT-CODE.            06110027
061200     MOVE '005'                      TO TABLE-NO-ARG.             06120027
061300     MOVE 'MATCH' TO TABLE-SEARCH-TYPE-ARG.                       06130027
061400     PERFORM 9250-SEARCH-TABLE.                                   06140027
061500                                                                  06150027
061600     IF  TABLE-ENTRY-NOT-FOUND                                    06160027
061700         MOVE 'UNKNOWN FUND TYPE'    TO RPT-FUNT-TITLE            06170027
061800                                        FUND-TYPE-TITLE-WS        06180027
061900     ELSE                                                         06190027
062000         MOVE TABLE-CLASS-TITLE (TAB-INDX)                        06200027
062100                                     TO RPT-FUNT-TITLE            06210027
062200                                        FUND-TYPE-TITLE-WS.       06220027
062300                                                                  06230027
062400     MOVE RPT-FUND-TITLE-LINE        TO REPORT-LINE.              06240027
062500     PERFORM 8900-PRINT-REPORT.                                   06250027
062600                                                                  06260027
062700*    MOVE RPT-HEAD-LINE-4            TO REPORT-LINE.              06270027
062800*    PERFORM 8900-PRINT-REPORT.                                   06280027
062900*                                                                 06290027
063000*    MOVE RPT-HEAD-LINE-5            TO REPORT-LINE.              06300027
063100*    PERFORM 8900-PRINT-REPORT.                                   06310027
063200                                                                  06320027
063300     MOVE RPT-HEAD-LINE-4-B          TO REPORT-LINE.              06330027
063400     PERFORM 8900-PRINT-REPORT.                                   06340027
063500                                                                  06350027
063600     MOVE RPT-HEAD-LINE-5-B          TO REPORT-LINE.              06360027
063700     PERFORM 8900-PRINT-REPORT.                                   06370027
063800 EJECT                                                            06380027
063900 4400-FETCH-SAU-TITLE.                                            06390027
064000                                                                  06400027
064100     MOVE MST-SAU                    TO TABLE-ENTRY-ARG           06410027
064200                                        RPT-HEAD3-SUBCAMPUS-CODE. 06420027
064300     MOVE '002'                      TO TABLE-NO-ARG.             06430027
064400     MOVE 'MATCH'                    TO TABLE-SEARCH-TYPE-ARG.    06440027
064500     PERFORM 9250-SEARCH-TABLE.                                   06450027
064600                                                                  06460027
064700     IF  TABLE-ENTRY-NOT-FOUND                                    06470027
064800         MOVE 'SAU TITLE NOT IN TABLE'                            06480027
064900                                     TO RPT-HEAD3-SUBCAMPUS-TITLE 06490027
065000     ELSE                                                         06500027
065100         MOVE TABLE-CLASS-TITLE (TAB-INDX)                        06510027
065200                                    TO RPT-HEAD3-SUBCAMPUS-TITLE. 06520027
065300     MOVE +90                        TO RPT-LINE-CNT.             06530027
065400                                                                  06540027
065500                                                                  06550027
065600 EJECT                                                            06560027
065700 8000-READ-SYSTEM-CONTROL-FILE.                                   06570027
065800                                                                  06580027
065900     READ SYSTEM-CONTROL-FILE INTO SYSTEM-CONTROL-RECORD          06590027
066000          AT END MOVE 01 TO ABORT-CODE                            06600027
066100                 PERFORM 9800-ABORT-PROGRAM.                      06610027
066200                                                                  06620027
066300                                                                  06630027
066400                                                                  06640027
066500 8200-READ-BUDGET-MASTER-FILE.                                    06650027
066600                                                                  06660027
066700     IF  BUDGET-MASTER-BEGIN                                      06670027
066800         READ BUDGET-MASTER-FILE INTO BUDGET-MASTER-RECORD        06680027
066900              AT END MOVE 03         TO ABORT-CODE                06690027
067000                     PERFORM 9800-ABORT-PROGRAM                   06700027
067100     ELSE                                                         06710027
067200     IF  BUDGET-MASTER-READ                                       06720027
067300         READ BUDGET-MASTER-FILE INTO BUDGET-MASTER-RECORD        06730027
067400              AT END MOVE HIGH-VALUES TO BUDGET-MASTER-RECORD     06740027
067500                     MOVE 'E' TO BUDGET-MASTER-STATUS-FLAG        06750027
067600     ELSE                                                         06760027
067700         MOVE 04                     TO ABORT-CODE                06770027
067800         PERFORM 9800-ABORT-PROGRAM.                              06780027
067900                                                                  06790027
068000     IF  BUDGET-MASTER-READ                                       06800027
068100         PERFORM 9300-SUM-MASTER-IN-HASH-TOTALS                   06810027
068200     ELSE                                                         06820027
068300     IF  BUDGET-MASTER-BEGIN                                      06830027
068400         MOVE 'R' TO BUDGET-MASTER-STATUS-FLAG.                   06840027
068500                                                                  06850027
068600     IF  MST-APPROP-REC                                           06860027
068700         GO TO 8200-READ-BUDGET-MASTER-FILE                       06870027
068800     ELSE                                                         06880027
068900         PERFORM 9000-SEQ-CHK-BUDGET-MASTER.                      06890027
069000                                                                  06900027
069100                                                                  06910027
069200                                                                  06920027
069300 8400-READ-BUDGET-TABLES-FILE.                                    06930027
069400                                                                  06940027
069500     IF  BUDGET-TABLES-BEGIN                                      06950027
069600         MOVE 'R' TO BUDGET-TABLES-FILE-STATUS-FLAG               06960027
069700         READ BUDGET-TABLES-FILE INTO BUDGET-TABLES-RECORD        06970027
069800             AT END MOVE 02 TO ABORT-CODE                         06980027
069900                    PERFORM 9800-ABORT-PROGRAM                    06990027
070000     ELSE                                                         07000027
070100         READ BUDGET-TABLES-FILE INTO BUDGET-TABLES-RECORD        07010027
070200             AT END MOVE 'E' TO BUDGET-TABLES-FILE-STATUS-FLAG.   07020027
070300 EJECT                                                            07030027
070400 8900-PRINT-REPORT.                                               07040027
070500                                                                  07050027
070600     COPY RPTPRINT.                                               07060027
070700                                                                  07070027
070800 8910-ADVANCE-RPT-PAGE.                                           07080027
070900                                                                  07090027
071000     COPY RPTADVPG.                                               07100027
071100                                                                  07110027
071200 8920-SPECIAL-HEADING-PROCESS.                                    07120027
071300                                                                  07130027
071400                                                                  07140027
071500 8930-WRITE-REPORT-LINE.                                          07150027
071600                                                                  07160027
071700       COPY WRTRPTLN.                                             07170027
071800 EJECT                                                            07180027
071900 9000-SEQ-CHK-BUDGET-MASTER.                                      07190027
072000                                                                  07200027
072100     MOVE CURR-MASTER-KEY            TO PREV-MASTER-KEY.          07210027
072200     MOVE MST-LOCATION               TO CURR-LOCATION.            07220027
072300     MOVE MST-SAU                    TO CURR-SAU.                 07230027
072400     MOVE MST-TYPE                   TO CURR-TYPE.                07240027
072500     MOVE MST-FUND-TYPE              TO CURR-FUND-TYPE.           07250027
072600     MOVE MST-REV-ACC-FND-GRP        TO CURR-REV-ACCT-TYPE.       07260027
072700     MOVE MST-ACCOUNT-NO             TO CURR-ACCOUNT-NO.          07270027
072800     MOVE MST-FUND-NO                TO CURR-FUND-NO.             07280027
072900                                                                  07290027
073000     IF  CURR-MASTER-KEY LESS THAN PREV-MASTER-KEY                07300027
073100         MOVE 05                     TO ABORT-CODE                07310027
073200         DISPLAY 'CURR-KEY - ' CURR-MASTER-KEY                    07320027
073300         DISPLAY 'PREV-KEY - ' PREV-MASTER-KEY                    07330027
073400         PERFORM 9800-ABORT-PROGRAM.                              07340027
073500 EJECT                                                            07350027
073600 9200-LOAD-BUDGET-TABLE.   COPY BUDTBLLD.                         07360027
073700 EJECT                                                            07370027
073800 9250-SEARCH-TABLE.    COPY BUDTBLSR.                             07380027
073900 EJECT                                                            07390027
074000 9300-SUM-MASTER-IN-HASH-TOTALS.    COPY HSHTOTPR.                07400027
074100 EJECT                                                            07410027
074200 9800-ABORT-PROGRAM.                                              07420027
074300                                                                  07430027
074400     PERFORM 9850-STANDARD-ABORT-PROCESSING.                      07440027
074500     MOVE 'Y' TO PROGRAM-ABORT-FLAG.                              07450027
074600     GO TO 9900-EOJ-PROCESSING.                                   07460027
074700                                                                  07470027
074800                                                                  07480027
074900                                                                  07490027
075000 9850-STANDARD-ABORT-PROCESSING.  COPY ABORTPRG.                  07500027
075100 EJECT                                                            07510027
075200 9900-EOJ-PROCESSING.                                             07520027
075300                                                                  07530027
075400     IF NOT ABORTING-PROGRAM                                      07540027
075500         DISPLAY 'BSL211 SUCCESSFULLY COMPLETED'                  07550027
075600         MOVE 'X' TO HOLD-EXTRACT                                 07560027
075700         PERFORM 9350-PRINT-MASTER-IN-HASH-TOTS 2 TIMES.          07570027
075800                                                                  07580027
075900     CLOSE BUDGET-MASTER-FILE                                     07590027
076000           SYSTEM-CONTROL-FILE                                    07600027
076100           BUDGET-TABLES-FILE                                     07610027
076200           REPORT-FILE.                                           07620027
076300                                                                  07630027
076400     STOP RUN.                                                    07640027
