000100 IDENTIFICATION DIVISION.                                         00010000
000200 PROGRAM-ID.    SLPGB110.                                         00020000
000300 AUTHOR.        THOMAS O'BRIEN                                    00030000
000400 INSTALLATION.  U. C. BERKELEY.                                   00040000
000500 DATE-WRITTEN.  JANUARY 1981.                                     00050000
000600 DATE-COMPILED.                                                   00060000
      ******************************************************************
      * NAME   DATE    COMMENT
      * ----   ----    -------
AT001 * AT   03-13-19  PREVENT EXTRACTING NEW CALENDAR MONTH BUDGET
AT001 *                TRANSACTIONS PRIOR TO FINAL MONTH END REPORTING.
AT001 *                (FIX: CUTOFF DATE COMPARISON MISSING POST DATE)
      ******************************************************************
000700 ENVIRONMENT DIVISION.                                            00070000
000800 CONFIGURATION SECTION.                                           00080000
000900 SOURCE-COMPUTER.  IBM-370.                                       00090000
001000 OBJECT-COMPUTER.  IBM-370.                                       00100000
001100 SPECIAL-NAMES.                                                   00110000
001200     C01 IS NEXT-PAGE.                                            00120000
001300 INPUT-OUTPUT SECTION.                                            00130000
001400 FILE-CONTROL.                                                    00140000
001500     SELECT JOB-CONTROL-FILE ASSIGN DA-S-SLJOBCTL.                00150000
001600     SELECT PROGRAM-CONTROL-FILE ASSIGN DA-S-SLPGMCTL.            00160002
001700***************************************************************   00170000
001800*                                                             *   00180000
001900*    PROGRAM-SPECIFIC SELECTS FOLLOW                          *   00190000
002000*                                                             *   00200000
002100***************************************************************   00210000
002200     SELECT RBS-BUDGET-MASTER-FILE ASSIGN UT-S-BSBUDMST.          00220000
002300     SELECT RSL-BUDGET-EXTRACT-FILE ASSIGN UT-S-SLBUDEXT.         00230000
002400     SELECT BUDGET-EXTRACT-CONTROL-TOTS ASSIGN UT-S-SLBUDXCL.     00240000
002500 DATA DIVISION.                                                   00250000
002600 FILE SECTION.                                                    00260000
002700 FD  JOB-CONTROL-FILE                    COPY CPFDXJCF.           00270000
002710                                                                  00271005
002800 FD  PROGRAM-CONTROL-FILE                COPY CPFDXPCF.           00280000
002900     EJECT                                                        00290000
003000***************************************************************   00300000
003100*                                                             *   00310000
003200*    PROGRAM-SPECIFIC FILE DESCRIPTIONS FOLLOW                *   00320000
003300*                                                             *   00330000
004500*    PROGRAM-SPECIFIC FILE DESCRIPTIONS FOLLOW                *   00322000
004510*                                                             *   00323000
004520*   05/09/1997 NRB   ADDED A NEW COPY MEMBER CPY2K001 FOR     *   00324000
004530*                    8-DIGIT DATES AND A NEW 0688-Y2K-XLATE   *   00325000
004540*                    PARAGRAPH VIA NEW COPY MEMBER CPY2K101   *   00326000
004550*                    WHICH IS CALLED PRIOR TO ALL DATE        *   00327000
004560*                    COMPARISONS....(SEE *Y2K LINES IN CODE). *   00328000
004570*                                                             *   00329000
004580*                    OLD PARAGRAPHS AFFECTED:                 *   00329100
004590*                      0400-PROCESS-TRANSACTION-REC           *   00329200
004600*                                                             *   00329300
003300*                                                             *   00330000
003400***************************************************************   00340000
003500 FD  RBS-BUDGET-MASTER-FILE              COPY CPFDXBGM.           00350000
003510                                                                  00351005
003600 FD  RSL-BUDGET-EXTRACT-FILE             COPY CPFDXBGX.           00360000
003610                                                                  00361005
003700 FD  BUDGET-EXTRACT-CONTROL-TOTS                                  00370000
003800     LABEL RECORDS STANDARD                                       00380000
003900     RECORDING MODE F                                             00390000
004000     RECORD CONTAINS 133 CHARACTERS                               00400000
004100     BLOCK CONTAINS 0 RECORDS                                     00410000
004200     DATA RECORD IS FD-CONTROL-LIST-REC.                          00420000
004300 01  FD-CONTROL-LIST-REC.                                         00430000
004400     05  CTL-CC               PIC X(001).                         00440000
004500     05  CTL-AREA             PIC X(132).                         00450000
004600     EJECT                                                        00460000
004700 WORKING-STORAGE SECTION.                                         00470000
       01  DATE-CONV-COB2.  COPY WSDATEC2.                              00471012
                                                                        00472012
004800 01  XJCB-JOB-CONTROL-BLOCK.             COPY CPWSXJCB.           00480000
004810                                                                  00481011
004900 01  XPCB-PROGRAM-CONTROL-BLOCK.         COPY CPWSXPCB.           00490000
004910                                                                  00491011
005000 01  XPGM-PROLOGUE-WORKING-STORAGE.      COPY CPWSXPGM.           00500000
005100     EJECT                                                        00510000
006410 01  CPY2K001-COPY-MEMBER.               COPY CPY2K001.           00501000
006420     EJECT                                                        00502000
005200**************************************************************    00520000
005300*                                                            *    00530000
005400*    PROGRAM-SPECIFIC WORKING STORAGE FOLLOWS                *    00540000
005500*                                                            *    00550000
005600**************************************************************    00560000
005700 01  WTOT-EXTRACT-CONTROL-TOTALS.                                 00570000
005800     05  WTOT-HDR-EXTR-RECS              PIC S9(05).              00580000
005900     05  WTOT-DTL-EXTR-RECS              PIC S9(07).              00590000
006000     05  WTOT-DTL-EXTR-FTE               PIC S9(05)V99.           00600000
006100     05  WTOT-DTL-EXTR-AMT               PIC S9(11).              00610000
006200     05  WTOT-DTL-NOT-EXTR-RECS          PIC S9(07).              00620000
006300     05  WTOT-DTL-NOT-EXTR-FTE           PIC S9(05)V99.           00630000
006400     05  WTOT-DTL-NOT-EXTR-AMT           PIC S9(11).              00640000
006500     05  WTOT-TRLR-RECS                  PIC S9(05).              00650000
006600     05  WTOT-TRLR-INIT-FTE              PIC S9(05)V99.           00660000
006700     05  WTOT-TRLR-INIT-AMT              PIC S9(11).              00670000
006800     05  WTOT-TEST-RECS-1                PIC S9(07).              00680000
006900     05  WTOT-TEST-RECS-2                PIC S9(07).              00690000
007000     05  WTOT-TEST-FTE                   PIC S9(05)V99.           00700000
007100     05  WTOT-TEST-AMT                   PIC S9(11).              00710000
007110                                                                  00711011
007200 01  XBHS-BUDGET-HEADER-SEGMENT.         COPY CPWSXBHS.           00720000
007210                                                                  00721011
007300 01  XBDS-BUDGET-DETAIL-SEGMENT.         COPY CPWSXBDS.           00730000
007310                                                                  00731011
007400 01  XBTS-BUDGET-TRAILER-SEGMENT.        COPY CPWSXBTS.           00740000
007420     EJECT                                                        00742011
007500 01  XHDR-STANDARD-REPORT-HEADER.        COPY CPWSXHDR.           00750000
007510                                                                  00751011
007600 01  XRCH-STD-RUN-CONTROL-TOTALS.        COPY CPWSXRCT.           00760000
007610                                                                  00761011
007700 01  XCMP-CAMPUS-PARAMETERS.             COPY CPWSXCMP.           00770000
007800                                                                  00780000
007900 01  MISCELLANEOUS-WS.                                            00790000
008000 05  REPORT-TITLE.                                                00800000
008100     10  RPT-TIT-FIL             PIC X(40) VALUE SPACES.          00810000
008200     10  RPT-TIT-NM              PIC X(29) VALUE                  00820000
008300         'BUDGET EXTRACT CONTROL TOTALS'.                         00830000
008400     05  I                       PIC S99.                         00840000
008500 05  RPT-PAGE-CNT                PIC S9(04) COMP-3 VALUE +0.      00850000
008600 05  RPT-LINE-CNT                PIC S9(03) COMP-3 VALUE +99.     00860000
008700 05  RPT-SAVE-REC                PIC X(133).                      00870000
008800     05  DATE-WS.                                                 00880000
008900         10  DATE-MM-WS          PIC X(02) VALUE ZEROS.           00890000
009000         10  DATE-FIL-1          PIC X(01) VALUE '-'.             00900000
009100         10  DATE-DD-WS          PIC X(02) VALUE ZEROS.           00910000
009200         10  DATE-FIL-2          PIC X(01) VALUE '-'.             00920000
009300         10  DATE-YY-WS          PIC X(02) VALUE ZEROS.           00930000
009400                                                                  00940000
009500     05  CUTOFF-DATE.                                             00950000
009600         10  CUTOFF-DT-YY        PIC X(02) VALUE ZEROS.           00960000
009700         10  CUTOFF-DT-MM        PIC X(02) VALUE ZEROS.           00970000
009800         10  CUTOFF-DT-DD        PIC X(02) VALUE ZEROS.           00980000
009900                                                                  00990000
010000     05  BUDGET-MASTER-FILE-FLAG PIC X(01) VALUE 'B'.             01000000
010100         88  BUDGET-MASTER-BEGIN           VALUE 'B'.             01010000
010200         88  BUDGET-MASTER-EOF             VALUE 'E'.             01020000
010210     EJECT                                                        01021011
010300 01  XRBS-BUDGET-MASTER-RECORD         PIC X(466).                01030002
010400                                         COPY CPWSXRBS.           01040000
010410     EJECT                                                        01041011
010500 01  BUDGET-MASTER-HASH-AREA.                                     01050000
010600     05  HASH-INCOME-AMOUNTS     COMP-3.                          01060000
010700         10  HASH-INC-INIT-CURR-YR-AMT PIC S9(11) VALUE +0.       01070000
010800         10  HASH-INC-PREV-YR-AMT      PIC S9(11) VALUE +0.       01080000
010900         10  HASH-INC-TRANS-AMT        PIC S9(11) VALUE +0.       01090000
011000         10  HASH-INC-ADJ-BUDGET-AMT   PIC S9(11) VALUE +0.       01100000
011100         10  HASH-INC-ADJ-TO-DTE-AMT   PIC S9(11) VALUE +0.       01110000
011200         10  HASH-INC-INC-TO-DTE-AMT   PIC S9(11) VALUE +0.       01120000
011300                                                                  01130000
011400     05  HASH-INC-AMOUNTS REDEFINES                               01140000
011500         HASH-INCOME-AMOUNTS     COMP-3.                          01150000
011600         10  HASH-INC-AMOUNT OCCURS 6  PIC S9(11).                01160000
011700                                                                  01170000
011800     05  HASH-APPROP-AMOUNTS     COMP-3.                          01180000
011900         10  HASH-APR-INIT-CURR-YR-AMT PIC S9(11) VALUE +0.       01190000
012000         10  HASH-APR-PREV-YR-AMT      PIC S9(11) VALUE +0.       01200000
012100         10  HASH-APR-TRANS-AMT        PIC S9(11) VALUE +0.       01210000
012200         10  HASH-APR-ADJ-BUDGET-AMT   PIC S9(11) VALUE +0.       01220000
012300         10  HASH-APR-ADJ-TO-DTE-AMT   PIC S9(11) VALUE +0.       01230000
012400         10  HASH-APR-INC-TO-DTE-AMT   PIC S9(11) VALUE +0.       01240000
012500                                                                  01250000
012600     05  HASH-APR-AMOUNTS REDEFINES                               01260000
012700         HASH-APPROP-AMOUNTS     COMP-3.                          01270000
012800         10  HASH-APR-AMOUNT OCCURS 6  PIC S9(11).                01280000
012900                                                                  01290000
013000     05  HASH-APPROP-FTE         COMP-3.                          01300000
013100         10  HASH-APR-INIT-CURR-YR-FTE PIC S9(07)V99 VALUE +0.    01310000
013200         10  HASH-APR-PREV-YR-FTE      PIC S9(07)V99 VALUE +0.    01320000
013300         10  HASH-APR-TRANS-FTE        PIC S9(07)V99 VALUE +0.    01330000
013400         10  HASH-APR-ADJ-BUDGET-FTE   PIC S9(07)V99 VALUE +0.    01340000
013500         10  HASH-APR-ADJ-TO-DTE-FTE   PIC S9(07)V99 VALUE +0.    01350000
013600         10  HASH-APR-INC-TO-DTE-FTE   PIC S9(07)V99 VALUE +0.    01360000
013700                                                                  01370000
013800     05  HASH-APR-FTES REDEFINES                                  01380000
013900         HASH-APPROP-FTE         COMP-3.                          01390000
014000         10  HASH-APR-FTE OCCURS 6     PIC S9(07)V99.             01400000
014100                                                                  01410000
014200     05  HASH-INCOME-COUNTS      COMP-3.                          01420000
014300         10  HASH-INC-INIT-CNT         PIC S9(07) VALUE +0.       01430000
014400         10  HASH-INC-TRANS-CNT        PIC S9(07) VALUE +0.       01440000
014500         10  HASH-INC-SUMRY-CNT        PIC S9(07) VALUE +0.       01450000
014600         10  HASH-INC-TOTAL-CNT        PIC S9(07) VALUE +0.       01460000
014700                                                                  01470000
014800     05  HASH-INC-COUNTS REDEFINES                                01480000
014900         HASH-INCOME-COUNTS      COMP-3.                          01490000
015000         10  HASH-INC-COUNT OCCURS 4   PIC S9(07).                01500000
015100                                                                  01510000
015200     05  HASH-APPROP-COUNTS      COMP-3.                          01520000
015300         10  HASH-APR-INIT-CNT         PIC S9(07) VALUE +0.       01530000
015400         10  HASH-APR-TRANS-CNT        PIC S9(07) VALUE +0.       01540000
015500         10  HASH-APR-SUMRY-CNT        PIC S9(07) VALUE +0.       01550000
015600         10  HASH-APR-TOTAL-CNT        PIC S9(07) VALUE +0.       01560000
015700                                                                  01570000
015800     05  HASH-APR-COUNTS REDEFINES                                01580000
015900         HASH-APPROP-COUNTS      COMP-3.                          01590000
016000         10  HASH-APR-COUNT OCCURS 4   PIC S9(07).                01600000
016100                                                                  01610000
016200     05  HASH-TOTAL-AMOUNT   COMP-3    PIC S9(11) VALUE +0.       01620000
016300     05  HASH-TOTAL-COUNT    COMP-3    PIC S9(07) VALUE +0.       01630000
016400     05  HASH-SUB            COMP-3    PIC S9(02).                01640000
016500                                                                  01650000
016600 01  HASH-HEAD1.                                                  01660000
016700     05  H1-CC           PIC X(01)   VALUE '-'.                   01670000
016800     05  H1-FLD1         PIC X(20)   VALUE '                    '.01680000
016900     05  H1-FLD2         PIC X(20)   VALUE '                    '.01690000
017000     05  H1-FLD3         PIC X(20)   VALUE 'B U D G E T   M A S '.01700000
017100     05  H1-FLD4         PIC X(20)   VALUE 'T E R   H A S H   T '.01710000
017200     05  H1-FLD5         PIC X(20)   VALUE 'O T A L S           '.01720000
017300     05  H1-FLD6         PIC X(20)   VALUE '                    '.01730000
017400     05  H1-FLD7         PIC X(20)   VALUE '            '.        01740000
017500                                                                  01750000
017600 01  HASH-HEAD2.                                                  01760000
017700     05  H2-CC           PIC X(01)   VALUE '0'.                   01770000
017800     05  H2-FLD1         PIC X(20)   VALUE '                    '.01780000
017900     05  H2-FLD2         PIC X(20)   VALUE '               INCOM'.01790000
018000     05  H2-FLD3         PIC X(20)   VALUE 'E                   '.01800000
018100     05  H2-FLD4         PIC X(20)   VALUE '  APPROPRIATION     '.01810000
018200     05  H2-FLD5         PIC X(20)   VALUE '                 TOT'.01820000
018300     05  H2-FLD6         PIC X(20)   VALUE 'AL                  '.01830000
018400     05  H2-FLD7         PIC X(20)   VALUE '            '.        01840000
018500                                                                  01850000
018600 01  HASH-HEAD3.                                                  01860000
018700     05  H3-CC           PIC X(01)   VALUE SPACE.                 01870000
018800     05  H3-FLD1         PIC X(20)   VALUE '                    '.01880000
018900     05  H3-FLD2         PIC X(20)   VALUE '               AMOUN'.01890000
019000     05  H3-FLD3         PIC X(20)   VALUE 'TS                AM'.01900000
019100     05  H3-FLD4         PIC X(20)   VALUE 'OUNTS         F.T.E.'.01910000
019200     05  H3-FLD5         PIC X(20)   VALUE '                 AMO'.01920000
019300     05  H3-FLD6         PIC X(20)   VALUE 'UNTS                '.01930000
019400     05  H3-FLD7         PIC X(20)   VALUE '            '.        01940000
019500                                                                  01950000
019600 01  HASH-AMOUNT-LINE.                                            01960000
019700     05  HA-CC           PIC X(01).                               01970000
019800     05  HA-TITLE        PIC X(21).                               01980000
019900     05  HA-FIL1         PIC X(09)   VALUE SPACES.                01990000
020000     05  HA-INC-AMT      PIC ZZ,ZZZ,ZZZ,ZZZ.                      02000000
020100     05  HA-INC-AMT-CR   PIC X(02).                               02010000
020200     05  HA-FIL2         PIC X(07)   VALUE SPACES.                02020000
020300     05  HA-APR-AMT      PIC ZZ,ZZZ,ZZZ,ZZZ.                      02030000
020400     05  HA-APR-AMT-CR   PIC X(02).                               02040000
020500     05  HA-FIL3         PIC X(02)   VALUE SPACES.                02050000
020600     05  HA-APR-FTE      PIC ZZ,ZZZ,ZZZ.ZZ.                       02060000
020700     05  HA-APR-FTE-CR   PIC X(02).                               02070000
020800     05  HA-FIL4         PIC X(07)   VALUE SPACES.                02080000
020900     05  HA-TOT-AMT      PIC ZZ,ZZZ,ZZZ,ZZZ.                      02090000
021000     05  HA-TOT-AMT-CR   PIC X(02).                               02100000
021100     05  HA-FIL5         PIC X(22)   VALUE SPACES.                02110000
021200                                                                  02120000
021300 01  HASH-COUNT-LINE.                                             02130000
021400     05  HC-CC           PIC X(01)   VALUE SPACE.                 02140000
021500     05  HC-TITLE        PIC X(21).                               02150000
021600     05  HC-FIL1         PIC X(14)   VALUE SPACES.                02160000
021700     05  HC-INC-CNT      PIC Z,ZZZ,ZZZ.                           02170000
021800     05  HC-FIL2         PIC X(14)   VALUE SPACES.                02180000
021900     05  HC-APR-CNT      PIC Z,ZZZ,ZZZ.                           02190000
022000     05  HC-FIL3         PIC X(31)   VALUE SPACES.                02200000
022100     05  HC-TOT-CNT      PIC Z,ZZZ,ZZZ.                           02210000
022200                                                                  02220000
022300 01  HASH-AMOUNT-TITLE-TABLE.                                     02230000
022400     05  HASH-AMOUNT-TITLES.                                      02240000
022500         10  HAT1    PIC X(21) VALUE 'INITIAL CURRENT YEAR:'.     02250000
022600         10  HAT2    PIC X(21) VALUE 'PREVIOUS YEAR       :'.     02260000
022700         10  HAT4    PIC X(21) VALUE 'TRANSACTION         :'.     02270000
022800         10  HAT5    PIC X(21) VALUE 'ADJUSTED BUDGET     :'.     02280000
022900         10  HAT6    PIC X(21) VALUE 'ADJUSTMENTS TO DATE :'.     02290000
023000         10  HAT7    PIC X(21) VALUE 'INCREMENTS TO DATE  :'.     02300000
023100     05  HASH-AMT-TITLES REDEFINES                                02310000
023200         HASH-AMOUNT-TITLES.                                      02320000
023300         10  HASH-AMOUNT-TITLE OCCURS 6 PIC X(21).                02330000
023400                                                                  02340000
023500 01  HASH-COUNT-TITLE-TABLE.                                      02350000
023600     05  HASH-COUNT-TITLES.                                       02360000
023700         10  HC1     PIC X(21) VALUE 'INITIAL             :'.     02370000
023800         10  HC2     PIC X(21) VALUE 'TRANSACTION         :'.     02380000
023900         10  HC3     PIC X(21) VALUE 'SUMMARY             :'.     02390000
024000         10  HC4     PIC X(21) VALUE 'TOTAL               :'.     02400000
024100     05  HASH-CNT-TITLES REDEFINES                                02410000
024200         HASH-COUNT-TITLES.                                       02420000
024300         10  HASH-COUNT-TITLE OCCURS 4 PIC X(21).                 02430000
024400                                                                  02440000
AT001  01  WORK-AREA.
AT001      05  EDB-DATE                    PIC  9(08)  VALUE 20991231.
AT001      05  FILLER            REDEFINES EDB-DATE.
AT001          10  EDB-CEN                 PIC  9(02).
AT001          10  EDB-DT.
AT001              15  EDB-YR              PIC  9(02).
AT001              15  EDB-MTH             PIC  9(02).
AT001              15  EDB-DAY             PIC  9(02).
AT001      05  MONTH-ABREV                 PIC  X(36)  VALUE
AT001          'JANFEBMARAPRMAYJUNJULAUGSEPOCTNOVDEC'.
AT001      05  FILLER            REDEFINES MONTH-ABREV.
AT001          10  MTH-ABREV               OCCURS 12 TIMES
AT001                                      PIC  X(03).

024500     EJECT                                                        02450000
024600 PROCEDURE DIVISION.                                              02460000
024700                                                                  02470000
024800 0010-PROLOGUE.                                                   02480000
024900     DISPLAY 'SLPGM110 BEGIN'.                                    02490004
025000     MOVE 'SLJOB2' TO XPGM-JOB-NAME.                              02500000
025100     MOVE 'SLPGM110' TO XPGM-PROGRAM-NAME.                        02510004
025200     MOVE '1' TO XPGM-SEQUENCE-OPTION.                            02520000
025300     MOVE +0 TO XPGM-VERSION-COUNT.                               02530000
025400     OPEN I-O JOB-CONTROL-FILE                                    02540000
025500              PROGRAM-CONTROL-FILE.                               02550000
025600     READ JOB-CONTROL-FILE INTO XJCB-JOB-CONTROL-BLOCK            02560000
025700          AT END DISPLAY 'SLPGM110 ABEND'                         02570004
025800                 DISPLAY 'NO JOB CONTROL BLOCK'                   02580000
025900                 GO TO 0010-EXIT.                                 02590000
026000     IF XJCB-JOB-NAME NOT EQUAL XPGM-JOB-NAME                     02600000
026100        DISPLAY 'SLPGM110 ABEND'                                  02610004
026200        DISPLAY 'WRONG JOB CONTROL BLOCK'                         02620000
026300        GO TO 0010-EXIT.                                          02630000
026400     IF XJCB-PROOF-LIST-ERROR                                     02640000
026500        GO TO 0010-EXIT.                                          02650000
026600     MOVE '0' TO XPGM-VERSION-STATUS.                             02660000
026700     PERFORM 0020-PROLOGUE-NEXT-VERSION THRU                      02670000
026800             0020-EXIT                                            02680000
026900             UNTIL XPGM-NO-MORE-VERSIONS.                         02690000
027000     IF XPGM-VERSION-COUNT = +0                                   02700000
027100        MOVE 'ABEND' TO XJCB-JOB-STATUS                           02710000
027200        MOVE 'SLPGM110' TO XJCB-ABENDING-JOB                      02720004
027300        MOVE 'NO PROGRAM-CONTROL-BLOCK' TO XJCB-ABEND-REASON.     02730000
027400     REWRITE XJCF-JOB-CONTROL-RECORD FROM XJCB-JOB-CONTROL-BLOCK. 02740000
027500 0010-EXIT.                                                       02750000
027600     CLOSE JOB-CONTROL-FILE                                       02760000
027700           PROGRAM-CONTROL-FILE.                                  02770000
027800     DISPLAY 'SLPGM110 END'.                                      02780004
027900     STOP RUN.                                                    02790000
028000     EJECT                                                        02800000
028100 0020-PROLOGUE-NEXT-VERSION.                                      02810000
028200     MOVE '2' TO XPGM-VERSION-STATUS.                             02820000
028300     PERFORM 0030-PROLOGUE-PARAMETER-SCAN THRU                    02830000
028400             0030-EXIT                                            02840000
028500             UNTIL XPGM-NEXT-VERSION-FOUND OR                     02850000
028600                   XPGM-NO-MORE-VERSIONS.                         02860000
028700     IF XPGM-NO-MORE-VERSIONS                                     02870000
028800        GO TO 0020-EXIT.                                          02880000
028900     MOVE SPACES TO XPCB-PARM-EDIT-STATUS.                        02890000
029000     PERFORM 0040-PROLOGUE-PARAMETER-EDIT THRU                    02900000
029100             0040-EXIT.                                           02910000
029200     IF NOT XPCB-PARM-EDIT-ERROR                                  02920000
029300        MOVE 'OK' TO XPCB-PARM-EDIT-STATUS.                       02930000
029400     IF XJCB-ABEND                                                02940000
029500        MOVE 'JOB ABEND' TO XPCB-PROGRAM-RUN-STATUS               02950000
029600        GO TO 0020-EXIT.                                          02960000
029700     IF XJCB-TEST                                                 02970000
029800        MOVE 'TEST' TO XPCB-PROGRAM-RUN-STATUS                    02980000
029900        GO TO 0020-EXIT.                                          02990000
030000     IF XPCB-PARM-EDIT-ERROR                                      03000000
030100        MOVE 'NOT RUN' TO XPCB-PROGRAM-RUN-STATUS                 03010000
030200        GO TO 0020-EXIT.                                          03020000
AT001      PERFORM 0050-PROLOGUE-PARAMETER-DATE
AT001         THRU 0050-EXIT.
030300     MOVE SPACES TO XPGM-RUN-STATUS.                              03030000
030400     PERFORM 0100-MAIN-CONTROL THRU                               03040000
030500             0100-EXIT.                                           03050000
030600     IF XPGM-ABEND                                                03060000
030700        MOVE 'ABENDED' TO XPCB-PROGRAM-RUN-STATUS                 03070000
030800        MOVE 'ABEND' TO XJCB-JOB-STATUS                           03080000
030900        MOVE 'SLPGM110' TO XJCB-ABENDING-JOB                      03090004
031000        MOVE XPGM-ABEND-REASON TO XJCB-ABEND-REASON               03100000
031100     ELSE                                                         03110000
031200        MOVE 'RAN OK' TO XPCB-PROGRAM-RUN-STATUS.                 03120000
031300 0020-EXIT.                                                       03130000
031400     REWRITE XPCF-PROGRAM-CONTROL-RECORD FROM                     03140000
031500             XPCB-PROGRAM-CONTROL-BLOCK.                          03150000
031600 0030-PROLOGUE-PARAMETER-SCAN.                                    03160000
031700     READ PROGRAM-CONTROL-FILE INTO XPCB-PROGRAM-CONTROL-BLOCK    03170000
031800          AT END MOVE '1' TO XPGM-VERSION-STATUS                  03180000
031900                 GO TO 0030-EXIT.                                 03190000
032000     IF XPCB-BLOCK-KEY LESS XPGM-BLOCK-KEY                        03200000
032100        GO TO 0030-PROLOGUE-PARAMETER-SCAN.                       03210000
032200     IF XPCB-BLOCK-KEY GREATER XPGM-BLOCK-KEY                     03220000
032300        MOVE '1' TO XPGM-VERSION-STATUS                           03230000
032400        GO TO 0030-EXIT.                                          03240000
032500     COMPUTE XPGM-VERSION-COUNT = XPGM-VERSION-COUNT + 1.         03250000
032600     MOVE '0'                    TO XPGM-VERSION-STATUS.          03260000
032700 0030-EXIT.                                                       03270000
032800     EXIT.                                                        03280000
032900     EJECT                                                        03290000
033000***************************************************************   03300000
033100*                                                             *   03310000
033200*    PROGRAM-SPECIFIC LOGIC TO EDIT THE PROGRAM PARAMETERS    *   03320000
033300*    IN THE CURRENT XPCB-PROGRAM-CONTROL-BLOCK FOLLOWS        *   03330000
033400*                                                             *   03340000
033500*    XPCB-ITEM-ID (I) = SPACES MEANS ITEM I NOT SPECIFIED:    *   03350000
033600*       SET XPCB-ITEM-DESCRIPTION (I) AND                     *   03360000
033700*           XPCB-ITEM-VALUE (I) TO DEFAULT VALUES             *   03370000
033800*       MOVE 'DEFAULT' TO XPCB-ITEM-MESSAGE (I)               *   03380000
033900*                                                             *   03390000
034000*    IF EDIT ERROR                                            *   03400000
034100*       MOVE ERROR MESSAGE TO XPCB-ITEM-MESSAGE (I)           *   03410000
034200*       MOVE 'ERROR' TO XPCB-EDIT-STATUS                      *   03420000
034300*                                                             *   03430000
034400***************************************************************   03440000
034500 0040-PROLOGUE-PARAMETER-EDIT.                                    03450000
034600     IF  XPCB-ITEM (1) = SPACES                                   03460000
034700         MOVE 'BUDGET DETAIL CUTOFF DATE' TO                      03470000
034800              XPCB-ITEM-DESCRIPTION (1)                           03480000
034900         MOVE 'NO CUTOFF DATE'   TO XPCB-ITEM-VALUE (1)           03490000
035000         MOVE 'DEFAULT'          TO XPCB-ITEM-MESSAGE (1)         03500000
035100     ELSE                                                         03510000
035200     IF  XPCB-ITEM-ID (1) = '01'                                  03520000
035300         MOVE XPCB-ITEM-VALUE (1) TO DATE-WS                      03530000
035400         IF (DATE-MM-WS GREATER THAN ZEROS  AND                   03540000
035500             DATE-MM-WS LESS THAN 13        AND                   03550000
035600             DATE-DD-WS GREATER THAN ZEROS  AND                   03560000
035700             DATE-DD-WS LESS THAN 32        AND                   03570000
035800             DATE-YY-WS NUMERIC)                                  03580000
035900             MOVE DATE-MM-WS     TO CUTOFF-DT-MM                  03590000
036000             MOVE DATE-DD-WS     TO CUTOFF-DT-DD                  03600000
036100             MOVE DATE-YY-WS     TO CUTOFF-DT-YY                  03610000
036200         ELSE                                                     03620000
036300             MOVE 'INVALID DATE' TO XPCB-ITEM-MESSAGE (1)         03630000
036400             MOVE 'ERROR'        TO XPCB-PARM-EDIT-STATUS         03640000
036500     ELSE                                                         03650000
036600         MOVE 'INVALID ITEM-NO.' TO XPCB-ITEM-MESSAGE (1)         03660000
036700         MOVE 'ERROR'            TO XPCB-PARM-EDIT-STATUS.        03670000
036800 0040-EXIT.                                                       03680000
036900     EXIT.                                                        03690000
AT001  0050-PROLOGUE-PARAMETER-DATE.
AT001      ACCEPT PRE-EDIT-DATE FROM DATE.
AT001      MOVE XJCB-PAY-MSTR-ID(11:2) TO EDB-DT(3:2).
AT001      MOVE XJCB-PAY-MSTR-ID(14:2) TO EDB-DT(5:2).
AT001      MOVE XJCB-PAY-MSTR-ID(17:2) TO EDB-DT(1:2).
AT001      IF EDB-DATE NOT NUMERIC
AT001        OR (EDB-MTH < 1 OR > 12)
AT001          DISPLAY '*** EDB DATE IS INVALID ***'
AT001          GO TO 0050-EXIT
AT001      END-IF.
AT001      IF PRE-EDIT-DATE(1:4) > EDB-DT(1:4)
AT001          MOVE 'RESTRICTING EXTRACT DATE TO  '
AT001                                  TO XPCB-ITEM-DESCRIPTION(2)
AT001          MOVE '  -  -'           TO XPCB-ITEM-VALUE(2)
AT001          MOVE EDB-MTH            TO XPCB-ITEM-VALUE(2)(1:2)
AT001          MOVE EDB-DAY            TO XPCB-ITEM-VALUE(2)(4:2)
AT001          MOVE EDB-YR             TO XPCB-ITEM-VALUE(2)(7:2)
AT001          MOVE 'NEW MONTH,     FINAL PENDING '
AT001                                  TO XPCB-ITEM-MESSAGE(2)
AT001          MOVE MTH-ABREV(EDB-MTH) TO XPCB-ITEM-MESSAGE(2)(12:3)
AT001          DISPLAY 'RESTRICTING EXTRACT DATE TO '
AT001                   XPCB-ITEM-VALUE(2)(1:8)
AT001                  ' - RUNNING ' MTH-ABREV(EDB-MTH)
AT001                  ' REPORTS IN NEW CALENDAR MONTH'
AT001      END-IF.
AT001  0050-EXIT.
036900     EXIT.                                                        03690000
037000                                                                  03700000
037100     EJECT                                                        03710000
037200***************************************************************   03720000
037300*                                                             *   03730000
037400*    PROGRAM-SPECIFIC LOGIC FOLLOWSHERE                       *   03740000
037500*    SEE ALSO PARAGRAPH 0040-PROLOGUE-PARAMETER-EDIT          *   03750000
037600*                                                             *   03760000
037700*    IF A USER ABEND CONDITION OCCURS:                        *   03770000
037800*       MOVE 'ABEND' TO XPGM-RUN-STATUS                       *   03780000
037900*       MOVE DESCRIPTION OF ERROR TO XPGM-ABEND-REASON        *   03790000
038000*                                                             *   03800000
038100***************************************************************   03810000
038200 0100-MAIN-CONTROL.                                               03820000
038300     OPEN INPUT RBS-BUDGET-MASTER-FILE                            03830000
038400          OUTPUT RSL-BUDGET-EXTRACT-FILE                          03840000
038500                 BUDGET-EXTRACT-CONTROL-TOTS.                     03850000
038600     PERFORM 0150-INITIALIZATION.                                 03860000
038700     PERFORM 0200-PROCESS-BUDGET-MASTER THRU                      03870000
038800         0200-EXIT                                                03880000
038900         UNTIL BUDGET-MASTER-EOF OR                               03890000
039000               XPGM-ABEND.                                        03900000
039100     PERFORM 0700-PRINT-HASH-IN-TOTALS.                           03910000
039200     PERFORM 0800-PRINT-HASH-OUT-TOTALS.                          03920000
039300     CLOSE RBS-BUDGET-MASTER-FILE                                 03930000
039400           RSL-BUDGET-EXTRACT-FILE                                03940000
039500           BUDGET-EXTRACT-CONTROL-TOTS.                           03950000
039600 0100-EXIT.                                                       03960000
039700     EXIT.                                                        03970000
039800     EJECT                                                        03980000
039900 0150-INITIALIZATION.                                             03990000
040000     MOVE SPACES                 TO XHD1-STD-RPT-HDR-LINE-1       04000000
040100                                    XHD2-STD-RPT-HDR-LINE-2       04010000
040200                                    XHD3-STD-RPT-HDR-LINE-3.      04020000
040300     MOVE '1'                    TO XHD1-CTL.                     04030000
040400     MOVE 'SLRPT110'             TO XHD1-RPT-NAME.                04040000
040500     MOVE REPORT-TITLE           TO XHD1-RPT-TITLE.               04050000
040600     MOVE XHDC-RPT-PAGE-ID       TO XHD1-RPT-PAGE-ID.             04060000
040700     MOVE ZEROS                  TO RPT-PAGE-CNT.                 04070000
040800     MOVE XHDC-LOC-ID            TO XHD2-LOC-ID.                  04080000
040900     MOVE XCMP-LOC               TO XHD2-LOC.                     04090000
041000     MOVE XCMP-LOC-TITLE         TO XHD2-LOC-TITLE.               04100000
041100     MOVE XPGM-PROGRAM-NAME      TO XHDC-PROGRAM-NAME.            04110000
041200     MOVE XPGM-SEQUENCE-OPTION   TO XHDC-SEQ-OPTION               04120000
041300     MOVE XPGM-VERSION-COUNT     TO XHDC-VERSION-NO.              04130000
041400     MOVE SPACE                  TO XHDC-FORMAT-OPTION.           04140000
041500     MOVE DATE-WS                TO XHDC-SELECT-OPTIONS.          04150000
041600     MOVE XHDC-REPORT-SUB-TITLE  TO XHD2-REPORT-SUB-TITLE.        04160000
041700     MOVE XHDC-REPORT-DATE-ID    TO XHD2-REPORT-DATE-ID.          04170000
041800     MOVE XJCB-JOB-MONTH         TO XHD2-REPORT-MONTH.            04180000
041900     MOVE XJCB-JOB-DAY           TO XHD2-REPORT-DAY.              04190000
042000     MOVE XJCB-JOB-YEAR          TO XHD2-REPORT-YEAR.             04200000
042100     MOVE '-'                    TO XHD2-DASH1 XHD2-DASH2.        04210000
042200     MOVE XHDC-RUN-DATE-ID       TO XHD3-RUN-DATE-ID.             04220000
           COPY PDDATEC2.                                               04221012
           MOVE GREGORIAN-DATE      TO XHD3-RUN-DATE.                   04222012
042400     MOVE '-'                    TO XHD3-DASH1 XHD3-DASH2.        04240000
042500*                                                                 04250000
042600*    INITIALIZE CONTROL TOTAL BUCKETS                             04260000
042700*                                                                 04270000
042800     MOVE +0 TO XRC6-IN-ACC-BUD-RECS                              04280000
042900                XRC6-IN-ACC-BUD-AMT                               04290000
043000                XRC6-OUT-CTL-BUD-RECS                             04300000
043100                XRC6-OUT-CTL-BUD-AMT                              04310000
043200                WTOT-HDR-EXTR-RECS                                04320000
043300                WTOT-DTL-EXTR-RECS                                04330000
043400                WTOT-DTL-EXTR-AMT                                 04340000
043500                WTOT-DTL-NOT-EXTR-RECS                            04350000
043600                WTOT-DTL-NOT-EXTR-FTE                             04360000
043700                WTOT-DTL-NOT-EXTR-AMT                             04370000
043800                WTOT-TRLR-RECS                                    04380000
043900                WTOT-TRLR-INIT-AMT.                               04390000
044000     MOVE +0.00 TO XRC6-IN-ACC-BUD-FTE                            04400000
044100                   XRC6-OUT-CTL-BUD-FTE                           04410000
044200                   WTOT-DTL-EXTR-FTE                              04420000
044300                   WTOT-DTL-NOT-EXTR-FTE                          04430000
044400                   WTOT-TRLR-INIT-FTE.                            04440000
044500 EJECT                                                            04450000
044600 0200-PROCESS-BUDGET-MASTER.                                      04460000
044700*                                                                 04470000
044800*    BYPASS BUDGET MASTER HEADER RECORD                           04480000
044900*                                                                 04490000
045000     IF  BUDGET-MASTER-BEGIN                                      04500000
045100         MOVE 'R' TO BUDGET-MASTER-FILE-FLAG                      04510000
045200         READ RBS-BUDGET-MASTER-FILE                              04520000
045300             AT END MOVE 'ABEND' TO XPGM-RUN-STATUS               04530000
045400                    MOVE 'RBS BUDGET MASTER FILE NULL'            04540000
045500                                 TO XPGM-ABEND-REASON             04550000
045600                    GO TO 0200-EXIT.                              04560000
045700                                                                  04570000
045800     READ RBS-BUDGET-MASTER-FILE INTO XRBS-BUDGET-MASTER-RECORD   04580000
045900         AT END MOVE 'E' TO BUDGET-MASTER-FILE-FLAG               04590000
046000                GO TO 0200-EXIT.                                  04600000
046100     PERFORM 0250-SUM-MASTER-IN-HASH-TOTALS.                      04610000
046200     IF (XRB0-APPROP-REC AND (XRB0-SUB-BUDGET-CD = '0 ' OR '1 ')) 04620000
046300         IF  XRB0-INITIAL-REC                                     04630000
046400             PERFORM 0300-PROCESS-INITIAL-REC                     04640000
046500         ELSE                                                     04650000
046600         IF  XRB1-TRANS-REC                                       04660000
046700             PERFORM 0400-PROCESS-TRANSACTION-REC                 04670000
046800         ELSE                                                     04680000
046900         IF  XRB8-SUM-REC                                         04690000
047000             PERFORM 0500-PROCESS-SUMMARY-REC                     04700000
047100         ELSE                                                     04710000
047200             DISPLAY 'BUDGET-RECORD ERROR - ' XRB0-KEY            04720000
047300             MOVE 'ABEND' TO XPGM-RUN-STATUS                      04730000
047400             MOVE 'RBS BUDGET MASTER ERROR' TO XPGM-ABEND-REASON. 04740000
047500 0200-EXIT.                                                       04750000
047600     EXIT.                                                        04760000
047700 EJECT                                                            04770000
047800 0250-SUM-MASTER-IN-HASH-TOTALS.                                  04780000
047900     IF  XRB0-INCOME-REC                                          04790000
048000         IF  XRB0-INITIAL-REC                                     04800000
048100             ADD XRB0-INIT-AMT       TO HASH-INC-INIT-CURR-YR-AMT 04810000
048200             ADD XRB0-PREV-YR-ADJ-AMT TO HASH-INC-PREV-YR-AMT     04820000
048300             ADD +1                  TO HASH-INC-INIT-CNT         04830000
048400         ELSE                                                     04840000
048500         IF  XRB1-TRANS-REC                                       04850000
048600             ADD XRB1-TRANS-AMT      TO HASH-INC-TRANS-AMT        04860000
048700             ADD +1                  TO HASH-INC-TRANS-CNT        04870000
048800         ELSE                                                     04880000
048900             ADD XRB8-SUM-ADJ-AMT    TO HASH-INC-ADJ-BUDGET-AMT   04890000
049000             ADD XRB8-SUM-ADJTD-AMT  TO HASH-INC-ADJ-TO-DTE-AMT   04900000
049100             ADD XRB8-SUM-INCTD-AMT  TO HASH-INC-INC-TO-DTE-AMT   04910000
049200             ADD +1                  TO HASH-INC-SUMRY-CNT        04920000
049300     ELSE                                                         04930000
049400     IF  XRB0-APPROP-REC                                          04940000
049500         IF  XRB0-INITIAL-REC                                     04950000
049600             ADD XRB0-INIT-AMT       TO HASH-APR-INIT-CURR-YR-AMT 04960000
049700             ADD XRB0-PREV-YR-ADJ-AMT TO HASH-APR-PREV-YR-AMT     04970000
049800             ADD XRB0-INIT-FTE       TO HASH-APR-INIT-CURR-YR-FTE 04980000
049900             ADD XRB0-PREV-YR-ADJ-FTE TO HASH-APR-PREV-YR-FTE     04990000
050000             ADD +1                  TO HASH-APR-INIT-CNT         05000000
050100         ELSE                                                     05010000
050200         IF  XRB1-TRANS-REC                                       05020000
050300             ADD XRB1-TRANS-AMT      TO HASH-APR-TRANS-AMT        05030000
050400             ADD XRB1-TRANS-FTE      TO HASH-APR-TRANS-FTE        05040000
050500             ADD +1                  TO HASH-APR-TRANS-CNT        05050000
050600         ELSE                                                     05060000
050700             ADD XRB8-SUM-ADJ-AMT    TO HASH-APR-ADJ-BUDGET-AMT   05070000
050800             ADD XRB8-SUM-ADJTD-AMT  TO HASH-APR-ADJ-TO-DTE-AMT   05080000
050900             ADD XRB8-SUM-INCTD-AMT  TO HASH-APR-INC-TO-DTE-AMT   05090000
051000             ADD XRB8-SUM-ADJ-FTE    TO HASH-APR-ADJ-BUDGET-FTE   05100000
051100             ADD XRB8-SUM-ADJTD-FTE  TO HASH-APR-ADJ-TO-DTE-FTE   05110000
051200             ADD XRB8-SUM-INCTD-FTE  TO HASH-APR-INC-TO-DTE-FTE   05120000
051300             ADD +1                  TO HASH-APR-SUMRY-CNT.       05130000
051400 EJECT                                                            05140000
051500 0300-PROCESS-INITIAL-REC.                                        05150000
051600     MOVE SPACES                  TO XBHS-BUDGET-HEADER-SEGMENT.  05160000
051700     MOVE XRB0-LOCATION           TO XBHS-LOCATION.               05170000
051800     MOVE XRB0-SAU                TO XBHS-SAU.                    05180000
051900     MOVE XRB0-SUB-CAMPUS-ID      TO XBHS-SUB-CAMPUS.             05190000
052000     MOVE XRB0-ACCOUNT-NO         TO XBHS-ACCOUNT.                05200000
052100     MOVE XRB0-FUND-NO            TO XBHS-FUND.                   05210000
052200     MOVE XRB0-SUB-BUDGET-CD      TO XBHS-SUB-BUDGET.             05220000
052300     MOVE '1'                     TO XBHS-SEGMENT-TYPE.           05230000
052400     MOVE XRB0-ATT-SUB-CAMPUS-ID  TO XBHS-SUB-CAMPUS-ATTR.        05240000
052500     MOVE XRB0-ACCOUNT-TITLE      TO XBHS-ACCOUNT-TITLE.          05250000
052600     MOVE XRB0-ATT-FUND-NO        TO XBHS-FUND-ATTR.              05260000
052700     MOVE XRB0-FUND-TITLE         TO XBHS-FUND-TITLE.             05270000
052800     MOVE XRB0-FUND-TYPE          TO XBHS-FUND-TYPE.              05280000
052900     MOVE XRB0-ATT-SUB-BUDGET-CD  TO XBHS-SUB-BUDGET-ATTR.        05290000
053000     MOVE XRB0-FUNCTION-CD        TO XBHS-FUNCTION-CODE.          05300000
053100     MOVE XRB0-COLLEGE-CD         TO XBHS-COLLEGE-CODE.           05310000
053200     MOVE XRB0-DEPT-CD            TO XBHS-DEPARTMENT-CODE.        05320000
053300     MOVE SPACES                  TO XBTS-BUDGET-TRAILER-SEGMENT. 05330000
053400     MOVE XBHS-KEY                TO XBTS-KEY.                    05340000
053500     MOVE '3'                     TO XBTS-SEGMENT-TYPE.           05350000
053600     MOVE XRB0-INIT-AMT           TO XBTS-INITIAL-AMT.            05360000
053700     MOVE XRB0-INIT-FTE           TO XBTS-INITIAL-FTE.            05370000
053800     MOVE ZEROS                   TO XBTS-TOT-TRANS-EXTR-AMT.     05380000
053900     MOVE ZEROS                   TO XBTS-TOT-TRANS-EXTR-FTE.     05390000
054000     MOVE ZEROS                   TO XBTS-TOT-TRANS-NOT-EXTR-AMT. 05400000
054100     MOVE ZEROS                   TO XBTS-TOT-TRANS-NOT-EXTR-FTE. 05410000
054200     MOVE ZEROS                   TO XBTS-TOT-ADJUSTED-AMT.       05420000
054300     MOVE ZEROS                   TO XBTS-TOT-ADJUSTED-FTE.       05430000
054400*                                                                 05440000
054500*    UPDATE RSLS RUN CONTROL TOTALS:  SELECTED APPROPRIATIONS     05450000
054600*                                     BUDGET HEADER EXTRACTED     05460000
054700*                                     BUDGET EXTRACT TOTALS       05470000
054800*                                                                 05480000
054900     ADD +1                       TO XRC6-IN-ACC-BUD-RECS.        05490000
055000     ADD XRB0-INIT-FTE            TO XRC6-IN-ACC-BUD-FTE.         05500000
055100     ADD XRB0-INIT-AMT            TO XRC6-IN-ACC-BUD-AMT.         05510000
055200     ADD +1                       TO WTOT-HDR-EXTR-RECS.          05520000
055300     ADD +1                       TO XRC6-OUT-CTL-BUD-RECS.       05530000
055400     ADD XRB0-INIT-FTE            TO XRC6-OUT-CTL-BUD-FTE.        05540000
055500     ADD XRB0-INIT-AMT            TO XRC6-OUT-CTL-BUD-AMT.        05550000
055510     MOVE XRB0-INIT-IFIS-IFOAPAL TO XBHS-IFIS-IFOAPAL.            05551009
055520     MOVE XRB0-INIT-IFIS-TITLES  TO XBHS-IFIS-TITLES.             05552009
055600     WRITE XBGX-BUDGET-RECORD FROM XBHS-BUDGET-HEADER-SEGMENT     05560000
055700           INVALID KEY MOVE 'ABEND' TO XPGM-RUN-STATUS            05570000
055800                       MOVE 'BUDGET EXTRACT FILE OUT OF SPACE' TO 05580000
055900                            XPGM-ABEND-REASON.                    05590000
056000 EJECT                                                            05600000
056100 0400-PROCESS-TRANSACTION-REC.                                    05610000
056200*                                                                 05620000
056300*    UPDATE RSLS RUN CONTROL TOTALS:  SELECTED APPROPRIATIONS     05630000
056400*                                                                 05640000
056500     ADD +1                       TO XRC6-IN-ACC-BUD-RECS.        05650000
056600     ADD XRB1-TRANS-AMT           TO XRC6-IN-ACC-BUD-AMT.         05660000
056700     ADD XRB1-TRANS-FTE           TO XRC6-IN-ACC-BUD-FTE.         05670000
AT001      MOVE XRB1-POST-DATE          TO WS-DATE-A6.
056800*Y2K IF  XRB1-POST-DATE GREATER THAN CUTOFF-DATE                  05680000
058410*                                          ... BEGIN NEW CODE ... 05681000
058412     MOVE CUTOFF-DATE     TO  WS-DATE-B6.                         05683000
058413     PERFORM 0688-Y2K-XLATE.                                      05684000
058414     IF  WS-DATE-A8  GREATER THAN WS-DATE-B8                      05685000
058420*                                          ... END NEW CODE ...   05686000
AT001        AND WS-DATE-A8 <= EDB-DATE
056900         MOVE SPACES              TO XBDS-BUDGET-DETAIL-SEGMENT   05690000
057000         MOVE XBHS-KEY            TO XBDS-FILE-KEY                05700000
057100         MOVE '2'                 TO XBDS-SEGMENT-TYPE            05710000
057200         MOVE XRB1-TRANS-CLASS    TO XBDS-TRANSACTION-CLASS       05720000
057300         MOVE XRB1-TRANS-TYPE     TO XBDS-TRANSACTION-TYPE        05730000
057400         MOVE XRB1-POST-DATE      TO XBDS-POSTING-DATE            05740000
057500         MOVE XRB1-TRANS-DOC-NO   TO XBDS-DOCUMENT-NUMBER         05750000
057600         MOVE XRB1-TRANS-DOC-SUF  TO XBDS-DOCUMENT-SUFFIX         05760000
057700         MOVE XRB1-TRANS-AMT      TO XBDS-DETAIL-AMOUNT           05770000
057800         MOVE XRB1-TRANS-FTE      TO XBDS-DETAIL-FTE              05780000
057900         MOVE XRB1-TRANS-DESCR    TO XBDS-DETAIL-TEXT             05790000
058000*                                                                 05800000
058100*    UPDATE RSLS RUN CONTROL TOTALS:  BUDGET DETAIL EXTRACTED     05810000
058200*                                     BUDGET EXTRACT TOTALS       05820000
058300*                                                                 05830000
058400         ADD +1                   TO WTOT-DTL-EXTR-RECS           05840000
058500         ADD +1                   TO XRC6-OUT-CTL-BUD-RECS        05850000
058600         ADD XRB1-TRANS-FTE       TO WTOT-DTL-EXTR-FTE            05860000
058700         ADD XRB1-TRANS-AMT       TO WTOT-DTL-EXTR-AMT            05870000
058800         ADD XRB1-TRANS-AMT       TO XRC6-OUT-CTL-BUD-AMT         05880000
058900         ADD XRB1-TRANS-FTE       TO XRC6-OUT-CTL-BUD-FTE         05890000
059000         ADD XRB1-TRANS-AMT       TO XBTS-TOT-TRANS-EXTR-AMT      05900000
059100         ADD XRB1-TRANS-FTE       TO XBTS-TOT-TRANS-EXTR-FTE      05910000
059200         PERFORM 0410-DETAIL-WRITE                                05920000
059300     ELSE                                                         05930000
059400*                                                                 05940000
059500*    UPDATE RSLS RUN CONTROL TOTALS:  BUDGET DETAIL SUMMARIZED    05950000
059600*                                     BUDGET DETAIL TOTALS        05960000
059700         ADD +1                   TO WTOT-DTL-NOT-EXTR-RECS       05970000
059800         ADD XRB1-TRANS-FTE       TO WTOT-DTL-NOT-EXTR-FTE        05980000
059900         ADD XRB1-TRANS-AMT       TO WTOT-DTL-NOT-EXTR-AMT        05990000
060000         ADD XRB1-TRANS-AMT       TO XBTS-TOT-TRANS-NOT-EXTR-AMT  06000000
060100         ADD XRB1-TRANS-FTE       TO XBTS-TOT-TRANS-NOT-EXTR-FTE. 06010000
060200 0410-DETAIL-WRITE.                                               06020000
060210     MOVE XRB1-TRANS-IFIS-IFOAPAL TO XBDS-IFIS-IFOAPAL.           06021009
060300     WRITE XBGX-BUDGET-RECORD FROM XBDS-BUDGET-DETAIL-SEGMENT     06030000
060400           INVALID KEY MOVE 'ABEND' TO XPGM-RUN-STATUS            06040000
060500                       MOVE 'BUDGET EXTRACT FILE OUT OF SPACE' TO 06050000
060600                             XPGM-ABEND-REASON.                   06060000
060700                                                                  06070000
060800 0500-PROCESS-SUMMARY-REC.                                        06080000
060900     MOVE XRB8-SUM-ADJ-FTE        TO XBTS-TOT-ADJUSTED-FTE.       06090000
061000     ADD XRB8-SUM-INCTD-FTE       TO XBTS-TOT-ADJUSTED-FTE.       06100000
061100     MOVE XRB8-SUM-ADJ-AMT        TO XBTS-TOT-ADJUSTED-AMT.       06110000
061200     ADD XRB8-SUM-INCTD-AMT       TO XBTS-TOT-ADJUSTED-AMT.       06120000
061300*                                                                 06130000
061400*    UPDATE RSLS RUN CONTROL TOTALS:  BUDGET TRAILER EXTRACTED    06140000
061500*                                                                 06150000
061600     ADD +1                       TO XRC6-IN-ACC-BUD-RECS.        06160000
061700     ADD +1                       TO WTOT-TRLR-RECS.              06170000
061800     ADD XBTS-INITIAL-FTE         TO WTOT-TRLR-INIT-FTE.          06180000
061900     ADD XBTS-INITIAL-AMT         TO WTOT-TRLR-INIT-AMT.          06190000
062000     ADD +1                       TO XRC6-OUT-CTL-BUD-RECS.       06200000
062010     MOVE XRB8-SUM-IFIS-IFOAPAL   TO XBTS-IFIS-IFOAPAL.           06201009
062100     WRITE XBGX-BUDGET-RECORD FROM XBTS-BUDGET-TRAILER-SEGMENT    06210000
062200           INVALID KEY MOVE 'ABEND' TO XPGM-RUN-STATUS            06220000
062300                       MOVE 'BUDGET EXTRACT FILE OUT OF SPACE' TO 06230000
062400                             XPGM-ABEND-REASON.                   06240000
062500 EJECT                                                            06250000
064110 0688-Y2K-XLATE.                    COPY CPY2K101.                06251000
064120 EJECT                                                            06252000
062600 0700-PRINT-HASH-IN-TOTALS.                                       06260000
062700     PERFORM 0710-SUM-TOTAL-COUNTS.                               06270000
062800     MOVE HASH-HEAD1 TO FD-CONTROL-LIST-REC.                      06280000
062900     PERFORM 0770-PRINT-REPORT.                                   06290000
063000     MOVE HASH-HEAD2 TO FD-CONTROL-LIST-REC.                      06300000
063100     PERFORM 0770-PRINT-REPORT.                                   06310000
063200     MOVE HASH-HEAD3 TO FD-CONTROL-LIST-REC.                      06320000
063300     PERFORM 0770-PRINT-REPORT.                                   06330000
063400     MOVE '-' TO HA-CC.                                           06340000
063500     PERFORM 0750-PRINT-HASH-AMOUNTS                              06350000
063600         VARYING HASH-SUB FROM 1 BY 1                             06360000
063700             UNTIL HASH-SUB GREATER THAN 6.                       06370000
063800     MOVE SPACES TO FD-CONTROL-LIST-REC.                          06380000
063900     MOVE '0' TO CTL-CC.                                          06390000
064000     MOVE 'NUMBER OF RECORDS -' TO CTL-AREA.                      06400000
064100     PERFORM 0770-PRINT-REPORT.                                   06410000
064200     PERFORM 0760-PRINT-HASH-COUNTS                               06420000
064300         VARYING HASH-SUB FROM 1 BY 1                             06430000
064400             UNTIL HASH-SUB GREATER THAN 4.                       06440000
064500                                                                  06450000
064600 0710-SUM-TOTAL-COUNTS.                                           06460000
064700     COMPUTE HASH-INC-TOTAL-CNT = HASH-INC-INIT-CNT +             06470000
064800         HASH-INC-TRANS-CNT + HASH-INC-SUMRY-CNT.                 06480000
064900     COMPUTE HASH-APR-TOTAL-CNT = HASH-APR-INIT-CNT +             06490000
065000         HASH-APR-TRANS-CNT + HASH-APR-SUMRY-CNT.                 06500000
065100 EJECT                                                            06510000
065200 0750-PRINT-HASH-AMOUNTS.                                         06520000
065300     MOVE HASH-AMOUNT-TITLE (HASH-SUB) TO HA-TITLE.               06530000
065400     MOVE HASH-INC-AMOUNT   (HASH-SUB) TO HA-INC-AMT.             06540000
065500     MOVE HASH-APR-AMOUNT   (HASH-SUB) TO HA-APR-AMT.             06550000
065600     MOVE HASH-APR-FTE      (HASH-SUB) TO HA-APR-FTE.             06560000
065700     IF  HASH-INC-AMOUNT (HASH-SUB) GREATER THAN ZERO             06570000
065800         MOVE 'CR'                     TO HA-INC-AMT-CR           06580000
065900     ELSE                                                         06590000
066000         MOVE SPACES                   TO HA-INC-AMT-CR.          06600000
066100                                                                  06610000
066200     IF  HASH-APR-AMOUNT (HASH-SUB) GREATER THAN ZERO             06620000
066300         MOVE 'CR'                     TO HA-APR-AMT-CR           06630000
066400     ELSE                                                         06640000
066500         MOVE SPACES                   TO HA-APR-AMT-CR.          06650000
066600                                                                  06660000
066700     IF  HASH-APR-FTE (HASH-SUB) GREATER THAN ZERO                06670000
066800         MOVE 'CR'                     TO HA-APR-FTE-CR           06680000
066900     ELSE                                                         06690000
067000         MOVE SPACES                   TO HA-APR-FTE-CR.          06700000
067100     COMPUTE HASH-TOTAL-AMOUNT = HASH-APR-AMOUNT (HASH-SUB) +     06710000
067200                                 HASH-INC-AMOUNT (HASH-SUB).      06720000
067300     MOVE HASH-TOTAL-AMOUNT TO HA-TOT-AMT.                        06730000
067400     IF  HASH-TOTAL-AMOUNT GREATER THAN ZERO                      06740000
067500         MOVE 'CR' TO HA-TOT-AMT-CR                               06750000
067600     ELSE                                                         06760000
067700         MOVE SPACES TO HA-TOT-AMT-CR.                            06770000
067800     MOVE HASH-AMOUNT-LINE TO FD-CONTROL-LIST-REC.                06780000
067900     PERFORM 0770-PRINT-REPORT.                                   06790000
068000     MOVE SPACE TO HA-CC.                                         06800000
068100                                                                  06810000
068200 0760-PRINT-HASH-COUNTS.                                          06820000
068300     MOVE HASH-COUNT-TITLE (HASH-SUB) TO HC-TITLE.                06830000
068400     MOVE HASH-INC-COUNT   (HASH-SUB) TO HC-INC-CNT.              06840000
068500     MOVE HASH-APR-COUNT   (HASH-SUB) TO HC-APR-CNT.              06850000
068600                                                                  06860000
068700     COMPUTE HASH-TOTAL-COUNT = HASH-INC-COUNT (HASH-SUB) +       06870000
068800                                HASH-APR-COUNT (HASH-SUB).        06880000
068900     MOVE HASH-TOTAL-COUNT            TO HC-TOT-CNT.              06890000
069000     MOVE HASH-COUNT-LINE             TO FD-CONTROL-LIST-REC.     06900000
069100     PERFORM 0770-PRINT-REPORT.                                   06910000
069200     MOVE SPACE TO HA-CC.                                         06920000
069300 EJECT                                                            06930000
069400 0770-PRINT-REPORT.                                               06940000
069500     IF  RPT-LINE-CNT GREATER THAN +55                            06950000
069600         PERFORM 0790-ADVANCE-PAGE.                               06960000
069700     PERFORM 0780-PRINT-LINE.                                     06970000
069800                                                                  06980000
069900 0780-PRINT-LINE.                                                 06990000
070000                                                                  07000000
070100     IF (CTL-CC = '1')                                            07010000
070200         WRITE FD-CONTROL-LIST-REC AFTER ADVANCING NEXT-PAGE      07020000
070300         MOVE +0                 TO RPT-LINE-CNT                  07030000
070400     ELSE                                                         07040000
070500     IF (CTL-CC = SPACE)                                          07050000
070600         WRITE FD-CONTROL-LIST-REC AFTER ADVANCING 1 LINES        07060000
070700         ADD +1                  TO RPT-LINE-CNT                  07070000
070800     ELSE                                                         07080000
070900     IF (CTL-CC = '0')                                            07090000
071000         WRITE FD-CONTROL-LIST-REC AFTER ADVANCING 2 LINES        07100000
071100         ADD +2                  TO RPT-LINE-CNT                  07110000
071200     ELSE                                                         07120000
071300     IF (CTL-CC = '-')                                            07130000
071400         WRITE FD-CONTROL-LIST-REC AFTER ADVANCING 3 LINES        07140000
071500         ADD +3                  TO RPT-LINE-CNT.                 07150000
071600                                                                  07160000
071700 0790-ADVANCE-PAGE.                                               07170000
071800     MOVE FD-CONTROL-LIST-REC    TO RPT-SAVE-REC.                 07180000
071900     ADD +1                      TO RPT-PAGE-CNT.                 07190000
072000     MOVE RPT-PAGE-CNT           TO XHD1-RPT-PAGE-NO.             07200000
072100     MOVE XHD1-STD-RPT-HDR-LINE-1 TO FD-CONTROL-LIST-REC.         07210000
072200     PERFORM 0780-PRINT-LINE.                                     07220000
072300     MOVE XHD2-STD-RPT-HDR-LINE-2 TO FD-CONTROL-LIST-REC.         07230000
072400     PERFORM 0780-PRINT-LINE.                                     07240000
072500     MOVE XHD3-STD-RPT-HDR-LINE-3 TO FD-CONTROL-LIST-REC.         07250000
072600     PERFORM 0780-PRINT-LINE.                                     07260000
072700     MOVE RPT-SAVE-REC           TO FD-CONTROL-LIST-REC.          07270000
072800 EJECT                                                            07280000
072900 0800-PRINT-HASH-OUT-TOTALS.                                      07290000
073000*                                                                 07300000
073100*    PRINT RSLS STANDARD RUN CONTROL TOTALS                       07310000
073200*                                                                 07320000
073300     PERFORM 0790-ADVANCE-PAGE.                                   07330000
073400     MOVE XRC1-HDR1 TO FD-CONTROL-LIST-REC.                       07340000
073500     MOVE '-' TO CTL-CC.                                          07350000
073600     PERFORM 0780-PRINT-LINE.                                     07360000
073700     MOVE XRC2-HDR2 TO FD-CONTROL-LIST-REC.                       07370000
073800     MOVE SPACE TO CTL-CC.                                        07380000
073900     PERFORM 0780-PRINT-LINE.                                     07390000
074000     MOVE XRC3-HDR3 TO FD-CONTROL-LIST-REC.                       07400000
074100     MOVE SPACE TO CTL-CC.                                        07410000
074200     PERFORM 0780-PRINT-LINE.                                     07420000
074300     MOVE SPACES TO XRC4-DETAIL-LINE.                             07430000
074400     MOVE 'SELECTED APPROPRIATIONS' TO XRC4-LINE-TITLE.           07440000
074500     MOVE XRC6-IN-ACC-BUD-RECS TO XRC4-BUD-RECS.                  07450000
074600     MOVE XRC6-IN-ACC-BUD-FTE TO XRC4-BUD-FTE.                    07460000
074700     IF XRC4-BUD-FTE-CR = 'CR'                                    07470000
074800        MOVE SPACES TO XRC4-BUD-FTE-CR                            07480000
074900     ELSE                                                         07490000
075000        MOVE 'CR' TO XRC4-BUD-FTE-CR.                             07500000
075100     MOVE XRC6-IN-ACC-BUD-AMT TO XRC4-BUD-AMT.                    07510000
075200     IF  XRC4-BUD-AMT-CR = 'CR'                                   07520000
075300         MOVE SPACES TO XRC4-BUD-AMT-CR                           07530000
075400     ELSE                                                         07540000
075500         MOVE 'CR'   TO XRC4-BUD-AMT-CR.                          07550000
075600     MOVE XRC4-DETAIL-LINE TO FD-CONTROL-LIST-REC.                07560000
075700     MOVE '0' TO CTL-CC.                                          07570000
075800     PERFORM 0780-PRINT-LINE.                                     07580000
075900     MOVE SPACES TO XRC4-DETAIL-LINE.                             07590000
076000     MOVE 'BUDGET HEADER EXTRACTED' TO XRC4-LINE-TITLE.           07600000
076100     MOVE WTOT-HDR-EXTR-RECS TO XRC4-BUD-RECS.                    07610000
076200     MOVE XRC4-DETAIL-LINE TO FD-CONTROL-LIST-REC.                07620000
076300     MOVE '0' TO CTL-CC.                                          07630000
076400     PERFORM 0780-PRINT-LINE.                                     07640000
076500     MOVE SPACES TO XRC4-DETAIL-LINE.                             07650000
076600     MOVE 'BUDGET DETAIL EXTRACTED' TO XRC4-LINE-TITLE.           07660000
076700     MOVE WTOT-DTL-EXTR-RECS TO XRC4-BUD-RECS.                    07670000
076800     MOVE WTOT-DTL-EXTR-FTE TO XRC4-BUD-FTE.                      07680000
076900     IF XRC4-BUD-FTE-CR = 'CR'                                    07690000
077000        MOVE SPACES TO XRC4-BUD-FTE-CR                            07700000
077100     ELSE                                                         07710000
077200        MOVE 'CR' TO XRC4-BUD-FTE-CR.                             07720000
077300     MOVE WTOT-DTL-EXTR-AMT TO XRC4-BUD-AMT.                      07730000
077400     IF  XRC4-BUD-AMT-CR = 'CR'                                   07740000
077500         MOVE SPACES TO XRC4-BUD-AMT-CR                           07750000
077600     ELSE                                                         07760000
077700         MOVE 'CR'   TO XRC4-BUD-AMT-CR.                          07770000
077800     MOVE XRC4-DETAIL-LINE TO FD-CONTROL-LIST-REC.                07780000
077900     MOVE SPACE TO CTL-CC.                                        07790000
078000     PERFORM 0780-PRINT-LINE.                                     07800000
078100     MOVE SPACES TO XRC4-DETAIL-LINE.                             07810000
078200     MOVE 'BUDGET DETAIL SUMMARIZED' TO XRC4-LINE-TITLE.          07820000
078300     MOVE WTOT-DTL-NOT-EXTR-RECS TO XRC4-BUD-RECS.                07830000
078400     MOVE WTOT-DTL-NOT-EXTR-FTE TO XRC4-BUD-FTE.                  07840000
078500     IF XRC4-BUD-FTE-CR = 'CR'                                    07850000
078600        MOVE SPACES TO XRC4-BUD-FTE-CR                            07860000
078700     ELSE                                                         07870000
078800        MOVE 'CR' TO XRC4-BUD-FTE-CR.                             07880000
078900     MOVE WTOT-DTL-NOT-EXTR-AMT TO XRC4-BUD-AMT.                  07890000
079000     IF  XRC4-BUD-AMT-CR = 'CR'                                   07900000
079100         MOVE SPACES TO XRC4-BUD-AMT-CR                           07910000
079200     ELSE                                                         07920000
079300         MOVE 'CR'   TO XRC4-BUD-AMT-CR.                          07930000
079400     MOVE XRC4-DETAIL-LINE TO FD-CONTROL-LIST-REC.                07940000
079500     MOVE SPACE TO CTL-CC.                                        07950000
079600     PERFORM 0780-PRINT-LINE.                                     07960000
079700     MOVE SPACES TO XRC4-DETAIL-LINE.                             07970000
079800     MOVE 'BUDGET TRAILER INITIAL' TO XRC4-LINE-TITLE.            07980000
079900     MOVE WTOT-TRLR-RECS TO XRC4-BUD-RECS.                        07990000
080000     MOVE WTOT-TRLR-INIT-FTE TO XRC4-BUD-FTE.                     08000000
080100     IF XRC4-BUD-FTE-CR = 'CR'                                    08010000
080200        MOVE SPACES TO XRC4-BUD-FTE-CR                            08020000
080300     ELSE                                                         08030000
080400        MOVE 'CR' TO XRC4-BUD-FTE-CR.                             08040000
080500     MOVE WTOT-TRLR-INIT-AMT TO XRC4-BUD-AMT.                     08050000
080600     IF  XRC4-BUD-AMT-CR = 'CR'                                   08060000
080700         MOVE SPACES TO XRC4-BUD-AMT-CR                           08070000
080800     ELSE                                                         08080000
080900         MOVE 'CR'   TO XRC4-BUD-AMT-CR.                          08090000
081000     MOVE XRC4-DETAIL-LINE TO FD-CONTROL-LIST-REC.                08100000
081100     MOVE SPACE TO CTL-CC.                                        08110000
081200     PERFORM 0780-PRINT-LINE.                                     08120000
081300     MOVE SPACES TO XRC4-DETAIL-LINE.                             08130000
081400     MOVE 'BUDGET EXTRACT TOTALS' TO XRC4-LINE-TITLE.             08140000
081500     MOVE XRC6-OUT-CTL-BUD-RECS TO XRC4-BUD-RECS.                 08150000
081600     MOVE XRC6-OUT-CTL-BUD-FTE TO XRC4-BUD-FTE.                   08160000
081700     IF XRC4-BUD-FTE-CR = 'CR'                                    08170000
081800        MOVE SPACES TO XRC4-BUD-FTE-CR                            08180000
081900     ELSE                                                         08190000
082000        MOVE 'CR' TO XRC4-BUD-FTE-CR.                             08200000
082100     MOVE XRC6-OUT-CTL-BUD-AMT TO XRC4-BUD-AMT.                   08210000
082200     IF  XRC4-BUD-AMT-CR = 'CR'                                   08220000
082300         MOVE SPACES TO XRC4-BUD-AMT-CR                           08230000
082400     ELSE                                                         08240000
082500         MOVE 'CR'   TO XRC4-BUD-AMT-CR.                          08250000
082600     MOVE XRC4-DETAIL-LINE TO FD-CONTROL-LIST-REC.                08260000
082700     MOVE SPACE TO CTL-CC.                                        08270000
082800     PERFORM 0780-PRINT-LINE.                                     08280000
082900*                                                                 08290000
083000*    CHECK CONTROL TOTAL CONSISTENCY                              08300000
083100*                                                                 08310000
083200*                                                                 08320000
083300     COMPUTE WTOT-TEST-RECS-1 = WTOT-HDR-EXTR-RECS +              08330000
083400                                WTOT-DTL-EXTR-RECS +              08340000
083500                                WTOT-DTL-NOT-EXTR-RECS +          08350000
083600                                WTOT-TRLR-RECS.                   08360000
083700     COMPUTE WTOT-TEST-RECS-2 = WTOT-TEST-RECS-1 -                08370000
083800                                WTOT-DTL-NOT-EXTR-RECS.           08380000
083900     IF XRC6-IN-ACC-BUD-RECS  NOT EQUAL WTOT-TEST-RECS-1 OR       08390000
084000        XRC6-OUT-CTL-BUD-RECS NOT EQUAL WTOT-TEST-RECS-2          08400000
084100        PERFORM 0810-ERROR-MESSAGE.                               08410000
084200     COMPUTE WTOT-TEST-FTE = WTOT-DTL-EXTR-FTE +                  08420000
084300                             WTOT-DTL-NOT-EXTR-FTE +              08430000
084400                             WTOT-TRLR-INIT-FTE.                  08440000
084500     IF XRC6-IN-ACC-BUD-FTE  NOT EQUAL WTOT-TEST-FTE OR           08450000
084600        XRC6-OUT-CTL-BUD-FTE NOT EQUAL WTOT-TEST-FTE              08460000
084700        PERFORM 0810-ERROR-MESSAGE.                               08470000
084800     COMPUTE WTOT-TEST-AMT = WTOT-DTL-EXTR-AMT +                  08480000
084900                             WTOT-DTL-NOT-EXTR-AMT +              08490000
085000                             WTOT-TRLR-INIT-AMT.                  08500000
085100     IF XRC6-IN-ACC-BUD-AMT  NOT EQUAL WTOT-TEST-AMT OR           08510000
085200        XRC6-OUT-CTL-BUD-AMT NOT EQUAL WTOT-TEST-AMT              08520000
085300        PERFORM 0810-ERROR-MESSAGE.                               08530000
085400*    WRITE BUDGET EXTRACT CONTROL TOTALS RECORD                   08540000
085500*                                                                 08550000
085600     MOVE SPACES TO XBTS-FILE-CONTROL-TOTALS.                     08560000
085700     MOVE HIGH-VALUES TO XBTS-CTL-REC-KEY.                        08570000
085800     MOVE XRC6-OUT-CTL-BUD-RECS TO XBTS-CTL-RECS.                 08580000
085900     MOVE XRC6-OUT-CTL-BUD-FTE TO XBTS-CTL-FTE.                   08590000
086000     MOVE XRC6-OUT-CTL-BUD-AMT TO XBTS-CTL-AMT.                   08600000
086100     WRITE XBGX-BUDGET-RECORD FROM XBTS-FILE-CONTROL-TOTALS       08610000
086200           INVALID KEY MOVE 'ABEND' TO XPGM-RUN-STATUS            08620000
086300                       MOVE 'BUDGET EXTRACT FILE OUT OF SPACE' TO 08630000
086400                            XPGM-ABEND-REASON.                    08640000
086500 0810-ERROR-MESSAGE.                                              08650000
086600     MOVE XRC7-ERROR-MESSAGE TO FD-CONTROL-LIST-REC.              08660000
086700     MOVE '-' TO CTL-CC.                                          08670000
