       IDENTIFICATION DIVISION.                                         00000010
       PROGRAM-ID.    SLPGM210.                                         00000020
       AUTHOR.        FRANK WINDORSKI                                   00000030
                      APPLIED BUSINESS SYSTEMS INC                      00000040
                      44 MONTGOMERY ST, 5TH FLOOR                       00000050
                      SAN FRANCISCO, CA 94104                           00000060
                      (415) 982-6614                                    00000070
       INSTALLATION.  U. C. BERKELEY.                                   00000080
       DATE-WRITTEN.  JANUARY 1981.                                     00000090
       DATE-COMPILED.                                                   00000100
      *REMARKS.                                                         00000110
      *    MODIFICATION LOG                                             00000120
      *                                                                 00000130
      *    JULY 1981                                                    00000140
      *    CODE WAS INSERTED TO ACCEPT CONTROL CARDS FOR SLPGM230,      00000150
      *    IN ORDER FOR SLPGM230 TO BE ADDED TO THE SLJOB3 JOBSTREAM.   00000160
      *    THESE MODIFICATIONS WERE SENT TO CAMPUSES IN SECTION 3.3     00000170
      *    OF THE RSLS INSTALLATION GUIDE.            RANDY BROWN       00000180
      *                                                                 00000130
      *    APRIL 1989                                                   00000140
      *    CODE WAS INSERTED TO ACCEPT CONTROL CARDS FOR SLPGM225,      00000150
      *    IN ORDER FOR SLPGM225 TO BE ADDED TO THE SLJOB3 JOBSTREAM.   00000160
      *    LINDA PIERCY
      *
      *    MAY 1998                                                     00000140
      *    Y2K MODIFICATIONS - FIS006                 ILANA ACKS        00000150
      *
      *      ***********  PLEASE NOTE  ***********
      *      RECOMPILE USING NO-ADVANCE OPTION!!!!
      *      ***********  PLEASE NOTE  ***********

       ENVIRONMENT DIVISION.                                            00000190
       CONFIGURATION SECTION.                                           00000200
       SOURCE-COMPUTER.  IBM-370.                                       00000210
       OBJECT-COMPUTER.  IBM-370.                                       00000220
       SPECIAL-NAMES.                                                   00000230
           C01 IS NEW-PAGE.                                             00000240
       INPUT-OUTPUT SECTION.                                            00000250
       FILE-CONTROL.                                                    00000260
           SELECT CARD-FILE ASSIGN UT-S-SLSYSIN.                        00000270
           SELECT JOB-CONTROL-FILE ASSIGN DA-S-SLJOBCTL.                00000280
           SELECT PROGRAM-CONTROL-FILE ASSIGN DA-S-SLPGMCTL.            00000290
           SELECT REPORT-FILE ASSIGN UT-S-SLSYSOUT.                     00000300
       DATA DIVISION.                                                   00000310
       FILE SECTION.                                                    00000320
       FD  CARD-FILE                                                    00000330
           LABEL RECORDS OMITTED                                        00000340
           RECORDING MODE F                                             00000350
           RECORD CONTAINS 80 CHARACTERS                                00000360
           BLOCK CONTAINS 0 RECORDS                                     00000370
           DATA RECORD IS CARD-RECORD.                                  00000380
       01  CARD-RECORD                         PIC X(80).               00000390
       FD  JOB-CONTROL-FILE                    COPY CPFDXJCF.           00000400
       FD  PROGRAM-CONTROL-FILE                COPY CPFDXPCF.           00000410
       FD  REPORT-FILE                                                  00000420
           LABEL RECORDS STANDARD                                       00000430
           RECORDING MODE F                                             00000440
           RECORD CONTAINS 133 CHARACTERS                               00000450
           DATA RECORD IS REPORT-RECORD.                                00000460
       01  REPORT-RECORD                        PIC X(133).             00000470
           EJECT                                                        00000480
       WORKING-STORAGE SECTION.                                         00000490
       01  ITEM-SS                             PIC S9(04) COMP.         00000500
       01  WCTL-CONTROL-TABLE.                                          00000510
           05  FILLER                          PIC X(19) VALUE          00000520
               'SLJOB3SLPGM21010101'.                                   00000530
           05  FILLER                          PIC X(19) VALUE          00000540
               'SLJOB3SLPGM22010101'.                                   00000550
           05  FILLER          PIC  X(19)                  VALUE        00000560
                 'SLJOB3SLPGM22510101'.                                 00000570
           05  FILLER          PIC  X(19)                  VALUE        00000560
                 'SLJOB3SLPGM23010104'.                                 00000570
           05  FILLER                          PIC X(19) VALUE          00000580
               'SLJOB3SLPGM24010104'.                                   00000590
           05  FILLER                          PIC X(19) VALUE          00000600
               HIGH-VALUES.                                             00000610
       01  WCTL-REDEFINES                      REDEFINES                00000620
           WCTL-CONTROL-TABLE.                                          00000630
           05  WCTL-ENTRY                      OCCURS 5                 00000640
                                               INDEXED BY IPGM.         00000650
               10  WCTL-JOB-PGM-SEQ.                                    00000660
                   15  WCTL-JOB                PIC X(06).               00000670
                   15  WCTL-PGM                PIC X(08).               00000680
                   15  WCTL-SEQ                PIC X(01).               00000690
               10  WCTL-VER-RANGE.                                      00000700
                   15  WCTL-VER-MIN            PIC X(02).               00000710
                   15  WCTL-VER-MAX            PIC X(02).               00000720
       01  WDL1-DTL-LINE-1.                                             00000730
           05  WDL1-CTL                        PIC X(01).               00000740
           05  WDL1-PREFIX.                                             00000750
               10  WDL1-JOB                    PIC X(06).               00000760
               10  FILLER                      PIC X(02).               00000770
               10  WDL1-PGM                    PIC X(08).               00000780
               10  FILLER                      PIC X(02).               00000790
               10  WDL1-SEQ                    PIC X(01).               00000800
               10  FILLER                      PIC X(03).               00000810
               10  WDL1-VER                    PIC X(02).               00000820
               10  FILLER                      PIC X(03).               00000830
           05  WDL1-ITEM                       PIC X(02).               00000840
           05  FILLER                          PIC X(02).               00000850
           05  WDL1-DATA                       PIC X(50).               00000860
           05  FILLER                          PIC X(01).               00000870
           05  WDL1-MSG                        PIC X(40).               00000880
       01  WHD1-COLUMN-HEADER.                                          00000890
           05  WHD1-CTL                        PIC X(01).               00000900
           05  FILLER                          PIC X(08) VALUE          00000910
               'JOB'.                                                   00000920
           05  FILLER                          PIC X(09) VALUE          00000930
               'PROGRAM'.                                               00000940
           05  FILLER                          PIC X(05) VALUE          00000950
               'SEQ'.                                                   00000960
           05  FILLER                          PIC X(04) VALUE          00000970
               'VER'.                                                   00000980
           05  FILLER                          PIC X(05) VALUE          00000990
               'ITEM'.                                                  00001000
           05  FILLER                          PIC X(30) VALUE          00001010
               'DESCRIPTION'.                                           00001020
           05  FILLER                          PIC X(21) VALUE          00001030
               'VALUE'.                                                 00001040
           05  FILLER                          PIC X(42) VALUE          00001050
               'MESSAGE'.                                               00001060
       01  WPCB-ITEM.                                                   00001070
           05  WPCB-ITEM-NO                    PIC X(02).               00001080
           05  WPCB-ITEM-DESC                  PIC X(29).               00001090
           05  WPCB-ITEM-VALUE                 PIC X(20).               00001100
           05  WPCB-ITEM-MSG                   PIC X(29).               00001110
       01  WPCB-DATE                           REDEFINES                00001120
           WPCB-ITEM.                                                   00001130
           05  FILLER                          PIC X(31).               00001140
           05  WPCB-DATE-VALUE.                                         00001150
               10  WPCB-MO                     PIC X(02).               00001160
               10  WPCB-DASH1                  PIC X(01).               00001170
               10  WPCB-DY                     PIC X(02).               00001180
               10  WPCB-DASH2                  PIC X(01).               00001190
               10  WPCB-YR                     PIC X(02).               00001200
               10  FILLER                      PIC X(12).               00001210
           05  FILLER                          PIC X(29).               00001220
       01  WPCB-RUN-TYPE                       REDEFINES                00001230
           WPCB-ITEM.                                                   00001240
           05  FILLER                          PIC X(31).               00001250
           05  WPCB-RUN-TYPE-VALUE             PIC X(20).               00001260
           05  FILLER                          PIC X(29).               00001270
       01  WPCB-BUD-ID                         REDEFINES                00001280
           WPCB-ITEM.                                                   00001290
           05  FILLER                          PIC X(31).               00001300
           05  WPCB-BUD-VALUE.                                          00001310
               10  WPCB-BUD-CYCLE-PICX.                                 00001320
                   15  WPCB-BUD-CYCLE-PIC9     PIC S9(3).               00001330
               10  WPCB-BUD-FILLER             PIC X(17).               00001340
           05  FILLER                          PIC X(29).               00001350
       01  WPCB-PVN-ID                         REDEFINES                00001360
           WPCB-ITEM.                                                   00001370
           05  FILLER                          PIC X(31).               00001380
           05  WPCB-PVN-VALUE.                                          00001390
               10  WPCB-PVN-RUN-CYCLE          PIC X(03).               00001400
               10  WPCB-PVN-FILLER             PIC X(17).               00001410
           05  FILLER                          PIC X(29).               00001420
       01  WPCB-SL-ID                          REDEFINES                00001430
           WPCB-ITEM.                                                   00001440
           05  FILLER                          PIC X(31).               00001450
           05  WPCB-SL-VALUE.                                           00001460
               10  WPCB-SL-RUN-CYCLE           PIC X(03).               00001470
               10  WPCB-SL-FILLER              PIC X(17).               00001480
           05  FILLER                          PIC X(29).               00001490
00IA
00IA    01  WS-ACCEPT-DATE.
00IA        05  WS-ACCEPT-DATE-YEAR             PIC X(02) VALUE SPACES.
00IA        05  WS-ACCEPT-DATE-MONTH            PIC X(02) VALUE SPACES.
00IA        05  WS-ACCEPT-DATE-DAY              PIC X(02) VALUE SPACES.
00IA
       01  WMSC-MISCELLANEOUS.                                          00001500
           05  WMSC-REPORT-TITLE.                                       00001510
               10  FILLER                      PIC X(40) VALUE SPACES.  00001520
               10  FILLER                      PIC X(29) VALUE          00001530
                   'SLJOB3 JOB CONTROL PROOF LIST'.                     00001540
           05  WMSC-LINE-NO                    PIC S9(03) COMP-3.       00001550
           05  WMSC-PAGE-NO                    PIC S9(03) COMP-3.       00001560
           05  WMSC-LAST-PREFIX                PIC X(27) VALUE          00001570
               LOW-VALUES.                                              00001580
           05  WMSC-LAST-KEY                   PIC X(19) VALUE          00001590
               LOW-VALUES.                                              00001600
           05  WMSC-CUR-PCB                    PIC X(17).               00001610
           05  WMSC-CARD-EOF                   PIC X(03) VALUE 'NO'.    00001620
           05  WMSC-CUR-JOB-PGM-SEQ.                                    00001630
               10  WMSC-CUR-JOB                PIC X(06).               00001640
               10  WMSC-CUR-PGM                PIC X(08).               00001650
               10  WMSC-CUR-SEQ                PIC X(01).               00001660
           05  WMSC-CUR-VER                    PIC X(02).               00001670
           05  WMSC-VER-CNT                    PIC S9(3) COMP-3.        00001680
           05  WMSC-ITEM-CNT                   PIC S9(3) COMP-3.        00001690
           05  WMSC-PROOF-LIST-MSG.                                     00001700
               10  FILLER                      PIC X(01).               00001710
               10  FILLER                      PIC X(26) VALUE          00001720
                   '*****  PROOF LIST ERROR -'.                         00001730
               10  FILLER                      PIC X(31) VALUE          00001740
                   'CORRECT CONTROL CARDS AND RERUN'.                   00001750
               10  FILLER                      PIC X(07) VALUE          00001760
                   '  *****'.                                           00001770
       01  XCMP-CAMPUS-PARAMETERS.             COPY CPWSXCMP.           00001780
       01  XHDR-STANDARD-REPORT-HEADER.        COPY CPWSXHDR.           00001790
       01  XJCB-JOB-CONTROL-BLOCK.             COPY CPWSXJCB.           00001800
       01  XPCB-PROGRAM-CONTROL-BLOCK.         COPY CPWSXPCB.           00001810
       01  XPPC-PROGRAM-PARAMETER-CARD.        COPY CPWSXPPC.           00001820
           EJECT                                                        00001830
       PROCEDURE DIVISION.                                              00001840
                                                                        00001850
       0100-MAIN-CONTROL.                                               00001860
           DISPLAY 'SLPGM210 BEGIN'.                                    00001870
           PERFORM 0110-OPEN-FILES.                                     00001880
           PERFORM 0120-SETUP-STD-RPT-HDR.                              00001890
           MOVE SPACES TO XJCB-JOB-CONTROL-BLOCK                        00001900
                          XPCB-PROGRAM-CONTROL-BLOCK.                   00001910
           MOVE 'SLJOB3' TO XJCB-JOB-NAME.                              00001920
           MOVE 'STAFFING CATEGORY-1 REPORTS' TO                        00001930
                XJCB-JOB-DESCRIPTION.                                   00001940
           PERFORM 0130-READ-CARD.                                      00001950
           SET IPGM TO 1.                                               00001960
           PERFORM 0200-NEXT-PGM-SEQ                                    00001970
                   VARYING IPGM FROM 1 BY 1                             00001980
                   UNTIL WCTL-JOB-PGM-SEQ (IPGM) = HIGH-VALUES.         00001990
           PERFORM 0140-INVALID-JOB-PGM-SEQ                             00002000
                   UNTIL WMSC-CARD-EOF = 'YES'.                         00002010
           WRITE XJCF-JOB-CONTROL-RECORD FROM XJCB-JOB-CONTROL-BLOCK    00002020
                 INVALID KEY PERFORM 0101-JCB-INVALID-KEY.              00002030
           IF XJCB-PROOF-LIST-ERROR                                     00002040
              MOVE WMSC-PROOF-LIST-MSG TO WDL1-DTL-LINE-1               00002050
              PERFORM 0180-PRINT-DTL-LINE                               00002060
           ELSE                                                         00002070
              MOVE ' ***** ALL CARDS OK *****' TO WDL1-DTL-LINE-1       00002080
              PERFORM 0180-PRINT-DTL-LINE.                              00002090
           PERFORM 0150-CLOSE-FILES.                                    00002100
           IF XJCB-PROOF-LIST-ERROR                                     00002110
              OPEN OUTPUT JOB-CONTROL-FILE                              00002120
                          PROGRAM-CONTROL-FILE                          00002130
              CLOSE JOB-CONTROL-FILE                                    00002140
                    PROGRAM-CONTROL-FILE                                00002150
              DISPLAY 'SLPGM210 CONTROL CARD ERROR'                     00002160
           ELSE                                                         00002170
              DISPLAY 'SLPGM210 CONTROL CARDS OK'.                      00002180
           DISPLAY 'SLPGM210 END'.                                      00002190
           STOP RUN.                                                    00002200
       0101-JCB-INVALID-KEY.                                            00002210
           MOVE ' *****  JOB CONTROL FILE NOT ALLOCATED  *****' TO      00002220
                WDL1-DTL-LINE-1.                                        00002230
           PERFORM 0180-PRINT-DTL-LINE.                                 00002240
           EJECT                                                        00002250
       0110-OPEN-FILES.                                                 00002260
           OPEN INPUT  CARD-FILE.                                       00002270
           OPEN OUTPUT JOB-CONTROL-FILE                                 00002280
                       PROGRAM-CONTROL-FILE                             00002290
                       REPORT-FILE.                                     00002300
       0120-SETUP-STD-RPT-HDR.                                          00002310
           MOVE SPACES TO XHD1-STD-RPT-HDR-LINE-1                       00002320
                          XHD2-STD-RPT-HDR-LINE-2                       00002330
                          XHD3-STD-RPT-HDR-LINE-3.                      00002340
           MOVE 'SLRPT210' TO XHD1-RPT-NAME.                            00002350
           MOVE WMSC-REPORT-TITLE TO XHD1-RPT-TITLE.                    00002360
           MOVE XHDC-RPT-PAGE-ID TO XHD1-RPT-PAGE-ID.                   00002370
           MOVE +0 TO WMSC-PAGE-NO.                                     00002380
           MOVE +99 TO WMSC-LINE-NO.                                    00002390
           MOVE XHDC-LOC-ID TO XHD2-LOC-ID.                             00002400
           MOVE XCMP-LOC TO XHD2-LOC.                                   00002410
           MOVE XCMP-LOC-TITLE TO XHD2-LOC-TITLE.                       00002420
           MOVE XHDC-JOB-DATE-ID TO XHD2-REPORT-DATE-ID.                00002430
           MOVE '--------' TO XHD2-REPORT-DATE.                         00002440
           MOVE XHDC-RUN-DATE-ID TO XHD3-RUN-DATE-ID.                   00002450
00IA  *    MOVE CURRENT-DATE TO XHD3-RUN-DATE.                          00002460
00IA       ACCEPT WS-ACCEPT-DATE       FROM DATE.
00IA       MOVE WS-ACCEPT-DATE-YEAR    TO XHD3-RUN-YEAR.
00IA       MOVE WS-ACCEPT-DATE-MONTH   TO XHD3-RUN-MONTH.
00IA       MOVE WS-ACCEPT-DATE-DAY     TO XHD3-RUN-DAY.
           MOVE '-' TO XHD3-DASH1                                       00002470
                       XHD3-DASH2.                                      00002480
       0130-READ-CARD.                                                  00002490
           READ CARD-FILE INTO XPPC-PROGRAM-PARAMETER-CARD              00002500
                AT END MOVE 'YES' TO WMSC-CARD-EOF.                     00002510
           IF WMSC-CARD-EOF = 'NO'                                      00002520
              IF XPPC-KEY GREATER WMSC-LAST-KEY                         00002530
                 MOVE XPPC-KEY TO WMSC-LAST-KEY                         00002540
              ELSE                                                      00002550
                 PERFORM 0170-FORMAT-DTL-LINE                           00002560
                 MOVE 'CARD OUT OF SEQUENCE' TO WDL1-MSG                00002570
                 PERFORM 0180-PRINT-DTL-LINE                            00002580
                 MOVE 'PROOF' TO XJCB-JOB-STATUS                        00002590
                 GO TO 0130-READ-CARD.                                  00002600
       0140-INVALID-JOB-PGM-SEQ.                                        00002610
           PERFORM 0170-FORMAT-DTL-LINE.                                00002620
           MOVE 'INVALID JOB-PROGRAM-SEQ' TO WDL1-MSG.                  00002630
           PERFORM 0180-PRINT-DTL-LINE.                                 00002640
           MOVE 'PROOF' TO XJCB-JOB-STATUS.                             00002650
           PERFORM 0130-READ-CARD.                                      00002660
       0150-CLOSE-FILES.                                                00002670
           CLOSE CARD-FILE                                              00002680
                 JOB-CONTROL-FILE                                       00002690
                 PROGRAM-CONTROL-FILE                                   00002700
                 REPORT-FILE.                                           00002710
           EJECT                                                        00002720
       0170-FORMAT-DTL-LINE.                                            00002730
           MOVE SPACES TO WDL1-DTL-LINE-1.                              00002740
           MOVE XPPC-JOB TO WDL1-JOB.                                   00002750
           MOVE XPPC-PGM TO WDL1-PGM.                                   00002760
           MOVE XPPC-SEQ TO WDL1-SEQ.                                   00002770
           MOVE XPPC-VER TO WDL1-VER.                                   00002780
           MOVE XPPC-ITEM-PICX TO WDL1-ITEM.                            00002790
           MOVE XPPC-DATA TO WDL1-DATA.                                 00002800
       0180-PRINT-DTL-LINE.                                             00002810
           IF WDL1-PREFIX = WMSC-LAST-PREFIX                            00002820
              COMPUTE WMSC-LINE-NO = WMSC-LINE-NO + 1                   00002830
           ELSE                                                         00002840
              COMPUTE WMSC-LINE-NO = WMSC-LINE-NO + 2.                  00002850
           IF WMSC-LINE-NO GREATER +60                                  00002860
              PERFORM 0190-PRINT-HDR                                    00002870
              MOVE +7 TO WMSC-LINE-NO.                                  00002880
           IF WDL1-PREFIX = WMSC-LAST-PREFIX                            00002890
              MOVE '1' TO WDL1-CTL                                      00002900
              MOVE SPACES TO WDL1-PREFIX                                00002910
           ELSE                                                         00002920
              MOVE '2' TO WDL1-CTL                                      00002930
              MOVE WDL1-PREFIX TO WMSC-LAST-PREFIX.                     00002940
           IF WMSC-LINE-NO = +7                                         00002950
              MOVE '2' TO WDL1-CTL.                                     00002960
           IF WDL1-CTL = '1'                                            00002970
              WRITE REPORT-RECORD FROM WDL1-DTL-LINE-1                  00002980
                    AFTER ADVANCING 1                                   00002990
           ELSE                                                         00003000
              WRITE REPORT-RECORD FROM WDL1-DTL-LINE-1                  00003010
                    AFTER ADVANCING 2.                                  00003020
       0190-PRINT-HDR.                                                  00003030
           COMPUTE WMSC-PAGE-NO = WMSC-PAGE-NO + 1.                     00003040
           MOVE WMSC-PAGE-NO TO XHD1-RPT-PAGE-NO.                       00003050
           WRITE REPORT-RECORD FROM XHD1-STD-RPT-HDR-LINE-1             00003060
                 AFTER ADVANCING NEW-PAGE.                              00003070
           WRITE REPORT-RECORD FROM XHD2-STD-RPT-HDR-LINE-2             00003080
                 AFTER ADVANCING 1.                                     00003090
           WRITE REPORT-RECORD FROM XHD3-STD-RPT-HDR-LINE-3             00003100
                 AFTER ADVANCING 1.                                     00003110
           WRITE REPORT-RECORD FROM WHD1-COLUMN-HEADER                  00003120
                 AFTER ADVANCING 2.                                     00003130
           EJECT                                                        00003140
       0200-NEXT-PGM-SEQ.                                               00003150
           MOVE WCTL-JOB-PGM-SEQ (IPGM) TO WMSC-CUR-JOB-PGM-SEQ.        00003160
           PERFORM 0140-INVALID-JOB-PGM-SEQ                             00003170
                   UNTIL XPPC-JOB-PGM-SEQ NOT LESS                      00003180
                         WMSC-CUR-JOB-PGM-SEQ OR                        00003190
                         WMSC-CARD-EOF = 'YES'.                         00003200
           MOVE +0 TO WMSC-VER-CNT.                                     00003210
           MOVE SPACES TO XPCB-PROGRAM-CONTROL-BLOCK.                   00003220
           PERFORM 0210-NEXT-VERSION                                    00003230
                   UNTIL WMSC-CARD-EOF = 'YES' OR                       00003240
                         XPPC-JOB-PGM-SEQ GREATER                       00003250
                         WMSC-CUR-JOB-PGM-SEQ.                          00003260
           IF IPGM = 1                                                  00003270
              PERFORM 0370-MISSING-JOB-CARD-EDIT                        00003280
           ELSE                                                         00003290
              IF WMSC-VER-CNT = +0                                      00003300
                 MOVE SPACES TO XPCB-PROGRAM-CONTROL-BLOCK              00003310
                 MOVE WMSC-CUR-JOB TO XPCB-JOB-NAME                     00003320
                 MOVE WMSC-CUR-PGM TO XPCB-PROGRAM-NAME                 00003330
                 MOVE WMSC-CUR-SEQ TO XPCB-SEQUENCE-OPTION              00003340
                 MOVE WCTL-VER-MIN (IPGM) TO XPCB-VERSION-NO            00003350
                 PERFORM 0240-WRITE-PCB.                                00003360
       0210-NEXT-VERSION.                                               00003370
           MOVE XPPC-VER TO WMSC-CUR-VER.                               00003380
           IF WMSC-CUR-VER LESS WCTL-VER-MIN (IPGM) OR                  00003390
              WMSC-CUR-VER GREATER WCTL-VER-MAX (IPGM)                  00003400
              PERFORM 0220-VERSION-OUT-OF-RANGE                         00003410
                      UNTIL WMSC-CARD-EOF = 'YES' OR                    00003420
                            XPPC-JOB-PGM-SEQ GREATER                    00003430
                            WMSC-CUR-JOB-PGM-SEQ OR                     00003440
                            XPPC-VER GREATER WMSC-CUR-VER.              00003450
           MOVE SPACES TO XPCB-PROGRAM-CONTROL-BLOCK.                   00003460
           MOVE WMSC-CUR-JOB TO XPCB-JOB-NAME.                          00003470
           MOVE WMSC-CUR-PGM TO XPCB-PROGRAM-NAME.                      00003480
           MOVE WMSC-CUR-SEQ TO XPCB-SEQUENCE-OPTION.                   00003490
           MOVE WMSC-CUR-VER TO XPCB-VERSION-NO.                        00003500
           MOVE +0 TO WMSC-ITEM-CNT.                                    00003510
           PERFORM 0250-CURRENT-VERSION                                 00003520
                   UNTIL WMSC-CARD-EOF = 'YES' OR                       00003530
                         XPPC-JOB-PGM-SEQ GREATER                       00003540
                         WMSC-CUR-JOB-PGM-SEQ OR                        00003550
                         XPPC-VER GREATER WMSC-CUR-VER.                 00003560
           IF WMSC-ITEM-CNT GREATER +0                                  00003570
              PERFORM 0240-WRITE-PCB                                    00003580
              COMPUTE WMSC-VER-CNT = WMSC-VER-CNT + 1.                  00003590
       0220-VERSION-OUT-OF-RANGE.                                       00003600
           PERFORM 0170-FORMAT-DTL-LINE.                                00003610
           MOVE 'INVALID VERSION - OUT OF RANGE' TO WDL1-MSG.           00003620
           PERFORM 0180-PRINT-DTL-LINE.                                 00003630
           PERFORM 0130-READ-CARD.                                      00003640
       0240-WRITE-PCB.                                                  00003650
           IF IPGM = 1                                                  00003660
              IF XJCB-PROOF-LIST-ERROR                                  00003670
                 NEXT SENTENCE                                          00003680
              ELSE                                                      00003690
                 MOVE 'OK' TO XPCB-PARM-EDIT-STATUS                     00003700
                MOVE 'RAN OK' TO XPCB-PROGRAM-RUN-STATUS.               00003710
           IF XJCB-PROOF-LIST-ERROR                                     00003720
              NEXT SENTENCE                                             00003730
           ELSE                                                         00003740
              WRITE XPCF-PROGRAM-CONTROL-RECORD FROM                    00003750
                    XPCB-PROGRAM-CONTROL-BLOCK                          00003760
                    INVALID KEY PERFORM 0241-PCF-INVALID-KEY.           00003770
       0241-PCF-INVALID-KEY.                                            00003780
           MOVE ' *****  PROGRAM CONTROL FILE FULL  *****' TO           00003790
                WDL1-DTL-LINE-1.                                        00003800
           PERFORM 0180-PRINT-DTL-LINE.                                 00003810
           MOVE 'PROOF' TO XJCB-JOB-STATUS.                             00003820
           EJECT                                                        00003830
       0250-CURRENT-VERSION.                                            00003840
           PERFORM 0170-FORMAT-DTL-LINE.                                00003850
           IF XPPC-ITEM-PIC9 NUMERIC AND                                00003860
              XPPC-ITEM-PIC9 GREATER 0 AND                              00003870
              XPPC-ITEM-PIC9 LESS 13                                    00003880
              MOVE XPPC-ITEM-PIC9 TO ITEM-SS                            00003890
              MOVE XPPC-ITEM-PIC9 TO XPCB-ITEM-ID (ITEM-SS)             00003900
              MOVE XPPC-DESC TO XPCB-ITEM-DESCRIPTION (ITEM-SS)         00003910
              MOVE XPPC-VALUE TO XPCB-ITEM-VALUE (ITEM-SS)              00003920
              IF IPGM = 1                                               00003930
                 PERFORM 0300-JOB-CARD-EDIT                             00003940
              ELSE                                                      00003950
                 NEXT SENTENCE                                          00003960
           ELSE                                                         00003970
              MOVE 'INVALID ITEM NUMBER' TO WDL1-MSG                    00003980
              MOVE 'PROOF' TO XJCB-JOB-STATUS.                          00003990
           COMPUTE WMSC-ITEM-CNT = WMSC-ITEM-CNT + 1.                   00004000
           IF WDL1-MSG = SPACES                                         00004010
              MOVE 'OK' TO WDL1-MSG.                                    00004020
           PERFORM 0180-PRINT-DTL-LINE.                                 00004030
           PERFORM 0130-READ-CARD.                                      00004040
       0300-JOB-CARD-EDIT.                                              00004050
           MOVE XPCB-ITEM (ITEM-SS) TO WPCB-ITEM.                       00004060
           IF ITEM-SS = +1                                              00004070
              PERFORM 0310-DATE-EDIT.                                   00004080
           IF ITEM-SS = +2                                              00004090
              PERFORM 0320-RUN-TYPE-EDIT.                               00004100
           IF ITEM-SS = +3                                              00004110
              PERFORM 0330-BUD-INPUT-EDIT.                              00004120
           IF ITEM-SS = +4                                              00004130
              PERFORM 0340-PAY-INPUT-EDIT.                              00004140
           IF ITEM-SS = +5                                              00004150
              PERFORM 0350-PVN-INPUT-EDIT.                              00004160
           IF ITEM-SS = +6                                              00004170
              PERFORM 0360-SL-INPUT-EDIT.                               00004180
           IF ITEM-SS LESS +1 OR                                        00004190
              ITEM-SS GREATER +6                                        00004200
              MOVE 'SLPGM210 NO SUCH ITEM' TO WDL1-MSG                  00004210
              MOVE 'PROOF' TO XJCB-JOB-STATUS.                          00004220
       0310-DATE-EDIT.                                                  00004230
           MOVE WPCB-DATE-VALUE TO XHD2-REPORT-DATE.                    00004240
00IA       IF WPCB-YR NOT NUMERIC
00IA          MOVE 'BAD JOB DATE' TO WDL1-MSG
00IA          MOVE 'PROOF' TO XJCB-JOB-STATUS.
           IF WPCB-MO LESS '01' OR                                      00004250
              WPCB-MO GREATER '12' OR                                   00004260
              WPCB-DY LESS '01' OR                                      00004270
              WPCB-DY GREATER '31' OR                                   00004280
00IA  *       WPCB-YR LESS '80' OR                                      00004290
              WPCB-DASH1 NOT EQUAL '-' OR                               00004300
              WPCB-DASH2 NOT EQUAL '-'                                  00004310
              MOVE 'BAD JOB DATE' TO WDL1-MSG                           00004320
              MOVE 'PROOF' TO XJCB-JOB-STATUS                           00004330
           ELSE                                                         00004340
              MOVE WPCB-MO TO XJCB-JOB-MONTH                            00004350
              MOVE WPCB-DY TO XJCB-JOB-DAY                              00004360
              MOVE WPCB-YR TO XJCB-JOB-YEAR.                            00004370
       0320-RUN-TYPE-EDIT.                                              00004380
           IF WPCB-RUN-TYPE-VALUE = 'TEST'                              00004390
              IF XJCB-PROOF-LIST-ERROR                                  00004400
                 NEXT SENTENCE                                          00004410
              ELSE                                                      00004420
                 MOVE 'TEST' TO XJCB-JOB-STATUS                         00004430
           ELSE                                                         00004440
              IF WPCB-RUN-TYPE-VALUE = 'PROD'                           00004450
                 NEXT SENTENCE                                          00004460
              ELSE                                                      00004470
                 MOVE 'BAD RUN-TYPE SPECIFICATION' TO WDL1-MSG          00004480
                 MOVE 'PROOF' TO XJCB-JOB-STATUS.                       00004490
       0330-BUD-INPUT-EDIT.                                             00004500
           IF WPCB-BUD-CYCLE-PIC9 NUMERIC AND                           00004510
              WPCB-BUD-FILLER = SPACES                                  00004520
              MOVE WPCB-BUD-CYCLE-PICX TO XJCB-BUDGET-RUN-CYCLE-IN      00004530
           ELSE                                                         00004540
              MOVE 'BAD BUDGET RUN CYCLE' TO WDL1-MSG                   00004550
              MOVE 'PROOF' TO XJCB-JOB-STATUS.                          00004560
       0340-PAY-INPUT-EDIT.                                             00004570
           IF WPCB-ITEM-VALUE NOT EQUAL SPACES                          00004580
              MOVE WPCB-ITEM-VALUE TO XJCB-PAY-MSTR-ID                  00004590
           ELSE                                                         00004600
              MOVE 'BAD PAYROLL FILE ID' TO WDL1-MSG                    00004610
              MOVE 'PROOF' TO XJCB-JOB-STATUS.                          00004620
       0350-PVN-INPUT-EDIT.                                             00004630
           IF WPCB-PVN-RUN-CYCLE NUMERIC AND                            00004640
              WPCB-PVN-FILLER = SPACES                                  00004650
              MOVE WPCB-PVN-RUN-CYCLE TO XJCB-PVN-RUN-CYCLE-IN          00004660
           ELSE                                                         00004670
              MOVE 'BAD PROVISION FILE ID' TO WDL1-MSG                  00004680
              MOVE 'PROOF' TO XJCB-JOB-STATUS.                          00004690
       0360-SL-INPUT-EDIT.                                              00004700
           IF WPCB-SL-RUN-CYCLE NUMERIC AND                             00004710
              WPCB-SL-FILLER = SPACES                                   00004720
              MOVE WPCB-SL-RUN-CYCLE TO XJCB-SL-RUN-CYCLE-IN            00004730
           ELSE                                                         00004740
              MOVE 'BAD STAFFING LIST FILE ID' TO WDL1-MSG              00004750
              MOVE 'PROOF' TO XJCB-JOB-STATUS.                          00004760
       0370-MISSING-JOB-CARD-EDIT.                                      00004770
           IF XPCB-ITEM-ID (1) NOT EQUAL '01'                           00004780
              MOVE ' *****  MISSING SLPGM210 JOB DATE' TO               00004790
                   WDL1-DTL-LINE-1                                      00004800
              PERFORM 0180-PRINT-DTL-LINE                               00004810
              MOVE 'PROOF' TO XJCB-JOB-STATUS.                          00004820
           IF XPCB-ITEM-ID (2) NOT EQUAL '02'                           00004830
              MOVE ' *****  MISSING SLPGM210 RUN TYPE' TO               00004840
                   WDL1-DTL-LINE-1                                      00004850
              PERFORM 0180-PRINT-DTL-LINE                               00004860
              MOVE 'PROOF' TO XJCB-JOB-STATUS.                          00004870
           IF XPCB-ITEM-ID (3) NOT EQUAL '03'                           00004880
              MOVE ' *****  MISSING SLPGM210 BUDGET RUN CYCLE' TO       00004890
                   WDL1-DTL-LINE-1                                      00004900
              PERFORM 0180-PRINT-DTL-LINE                               00004910
              MOVE 'PROOF' TO XJCB-JOB-STATUS.                          00004920
           IF XPCB-ITEM-ID (4) NOT EQUAL '04'                           00004930
              MOVE ' *****  MISSING SLPGM210 PAYROLL FILE ID' TO        00004940
                   WDL1-DTL-LINE-1                                      00004950
              PERFORM 0180-PRINT-DTL-LINE                               00004960
              MOVE 'PROOF' TO XJCB-JOB-STATUS.                          00004970
           IF XPCB-ITEM-ID (5) NOT EQUAL '05'                           00004980
              MOVE ' *****  MISSING SLPGM210 PROVISION FILE ID' TO      00004990
                   WDL1-DTL-LINE-1                                      00005000
              PERFORM 0180-PRINT-DTL-LINE                               00005010
              MOVE 'PROOF' TO XJCB-JOB-STATUS.                          00005020
           IF XPCB-ITEM-ID (6) NOT EQUAL '06'                           00005030
              MOVE ' *****  MISSING SLPGM210 STAFFING LIST FILE ID' TO  00005040
              WDL1-DTL-LINE-1                                           00005050
              PERFORM 0180-PRINT-DTL-LINE                               00005060
              MOVE 'PROOF' TO XJCB-JOB-STATUS.                          00005070
