000100 IDENTIFICATION DIVISION.                                         00010000
000200 PROGRAM-ID.    SLPGB120.                                         00020000
000300 AUTHOR.        FRANK WINDORSKI                                   00030000
000400                APPLIED BUSINESS SYSTEMS INC                      00040000
000500                44 MONTGOMERY ST, 5TH FLOOR                       00050000
000600                SAN FRANCISCO, CA 94104                           00060000
000700                (415) 982-6614                                    00070000
000800 INSTALLATION.  U. C. BERKELEY.                                   00080000
000900 DATE-WRITTEN.  JANUARY 1981.                                     00090000
001000 DATE-COMPILED.                                                   00100000
001100 ENVIRONMENT DIVISION.                                            00110000
001200 CONFIGURATION SECTION.                                           00120000
001300 SOURCE-COMPUTER.  IBM-370.                                       00130000
001400 OBJECT-COMPUTER.  IBM-370.                                       00140000
001500 SPECIAL-NAMES.                                                   00150000
001600     C01 IS NEXT-PAGE.                                            00160000
001700 INPUT-OUTPUT SECTION.                                            00170000
001800 FILE-CONTROL.                                                    00180000
001900     SELECT JOB-CONTROL-FILE ASSIGN DA-S-SLJOBCTL.                00190000
002000     SELECT PROGRAM-CONTROL-FILE ASSIGN DA-S-SLPGMCTL.            00200000
002100***************************************************************   00210000
002200*                                                             *   00220000
002300*    PROGRAM-SPECIFIC SELECTS FOLLOW                          *   00230000
002400*                                                             *   00240000
002500***************************************************************   00250000
002600     SELECT BUDGET-TABLES-FILE         ASSIGN UT-S-SLTABLES.      00260000
002700     SELECT RSL-BUDGET-EXTRACT-FILE    ASSIGN UT-S-SLBUDEXT.      00270000
002800     SELECT BUDGET-EXTRACT-LIST-FILE   ASSIGN UT-S-SLBUDXLS.      00280000
002900 DATA DIVISION.                                                   00290000
003000 FILE SECTION.                                                    00300000
003100 FD  JOB-CONTROL-FILE                    COPY CPFDXJCF.           00310000
003200 FD  PROGRAM-CONTROL-FILE                COPY CPFDXPCF.           00320000
003300***************************************************************   00330000
003400*                                                             *   00340000
003500*    PROGRAM-SPECIFIC FILE DESCRIPTIONS FOLLOW                *   00350000
003600*                                                             *   00360000
003700***************************************************************   00370000
003800 FD  BUDGET-TABLES-FILE                  COPY CPFDXBTB.           00380000
003900 FD  RSL-BUDGET-EXTRACT-FILE             COPY CPFDXBGX.           00390000
004000     EJECT                                                        00400000
004100 FD  BUDGET-EXTRACT-LIST-FILE                                     00410000
004200     LABEL RECORDS STANDARD                                       00420000
004300     RECORDING MODE F                                             00430000
004400     RECORD CONTAINS 133 CHARACTERS                               00440000
004500     BLOCK CONTAINS 0 RECORDS                                     00450000
004600     DATA RECORD IS BUDGET-EXTRACT-LIST.                          00460000
004700 01  BUDGET-EXTRACT-LIST.                                         00470000
004800     05  LIST-CC              PIC X(001).                         00480000
004900     05  LIST-REST            PIC X(132).                         00490000
005000     EJECT                                                        00500000
005100 WORKING-STORAGE SECTION.                                         00510000
       01  DATE-CONV-COB2.  COPY WSDATEC2.                              00511029
                                                                        00512029
005200 01  XJCB-JOB-CONTROL-BLOCK.             COPY CPWSXJCB.           00520000
005300 01  XPCB-PROGRAM-CONTROL-BLOCK.         COPY CPWSXPCB.           00530000
005400 01  XPGM-PROLOGUE-WORKING-STORAGE.      COPY CPWSXPGM.           00540000
005500     EJECT                                                        00550000
005600**************************************************************    00560000
005700*                                                            *    00570000
005800*    PROGRAM-SPECIFIC WORKING STORAGE FOLLOWS                *    00580000
005900*                                                            *    00590000
006000**************************************************************    00600000
006100 01  XBGX-BUDGET-REC-WS.                                          00610000
006200     05  XBGX-KEY.                                                00620000
006300         10  XBGX-LOCATION       PIC X(02).                       00630000
006400         10  XBGX-SAU            PIC X(01).                       00640000
006500         10  XBGX-SUB-CAMPUS     PIC X(01).                       00650000
006600         10  XBGX-ACCOUNT        PIC X(07).                       00660000
006700         10  XBGX-FUND           PIC X(06).                       00670000
006800         10  XBGX-SUB-BUDGET     PIC X(02).                       00680000
006900         10  XBGX-SEGMENT-TYPE   PIC X(01).                       00690000
007000             88  XBGX-HEADER-REC           VALUE '1'.             00700000
007100             88  XBGX-DETAIL-REC           VALUE '2'.             00710000
007200             88  XBGX-TRAILER-REC          VALUE '3'.             00720000
007300     05  XBGX-FILLER             PIC X(95).                       00730000
007310     05  XBGX-IFIS-IFOAPAL PIC X(46).                             00731025
007320     05  XBGX-IFIS-TITLES  PIC X(245).                            00732025
007400 01  XBHS-BUDGET-HEADER-SEGMENT.         COPY CPWSXBHS.           00740000
007500 01  XBDS-BUDGET-DETAIL-SEGMENT.         COPY CPWSXBDS.           00750000
007600 01  XBTS-BUDGET-TRAILER-SEGMENT.        COPY CPWSXBTS.           00760000
007700 01  XHDR-STANDARD-REPORT-HEADER.        COPY CPWSXHDR.           00770000
007800 01  XRCH-STD-RUN-CONTROL-TOTALS.        COPY CPWSXRCT.           00780000
007900 01  XCMP-CAMPUS-PARAMETERS.             COPY CPWSXCMP.           00790000
008000                                                                  00800000
008100 01  MISCELLANEOUS-WS.                                            00810000
008200     05  I                       PIC S99.                         00820000
008300     05  BUDGET-EXTRACT-FILE-FLAG PIC X(01) VALUE 'B'.            00830000
008400         88  BUDGET-EXTRACT-BEGIN          VALUE 'B'.             00840000
008500         88  BUDGET-EXTRACT-EOF            VALUE 'E'.             00850000
008600     05  TOTAL-SAU-FTE           PIC S9(05)V99 COMP-3 VALUE +0.   00860000
008700     05  TOTAL-SUB-CAMPUS-FTE    PIC S9(05)V99 COMP-3 VALUE +0.   00870000
008800     05  TOTAL-SAU-AMT           PIC S9(11)    COMP-3 VALUE +0.   00880000
008900     05  TOTAL-SUB-CAMPUS-AMT    PIC S9(11)    COMP-3 VALUE +0.   00890000
009000     05  REPORT-TITLE.                                            00900000
009100         10  RPT-TIT-FIL         PIC X(40) VALUE SPACES.          00910000
009200         10  RPT-TIT-NM          PIC X(27) VALUE                  00920000
009300         'BUDGET EXTRACT CONTROL LIST'.                           00930000
009400     05  CURR-KEY.                                                00940000
009500         10  CURR-SAU            PIC X(01).                       00950000
009600         10  CURR-SUB-CAMPUS     PIC X(01).                       00960000
009700     05  PREV-KEY.                                                00970000
009800         10  PREV-SAU            PIC X(01).                       00980000
009900         10  PREV-SUB-CAMPUS     PIC X(01).                       00990000
010000     05  SAU-TITLE               PIC X(35).                       01000000
010100     05  SUB-CAMPUS-TITLE        PIC X(35).                       01010000
010200     05  RPT-PAGE-CNT            PIC S9(04) COMP-3 VALUE +0.      01020000
010300     05  RPT-LINE-CNT            PIC S9(02) COMP-3 VALUE +99.     01030000
010400     05  RPT-SAVE-REC            PIC X(133).                      01040000
010500                                                                  01050000
010600 01  BUDGET-TABLES-RECORD.               COPY CPWSXBTB.           01060000
010700 01  RPT-TITLE-LINE-0.                                            01070026
010800     05  RPT-TTL-0-CC    PIC X(01) VALUE '0'.                     01080026
011510     05  FILLER          PIC X(04) VALUE ' '.                     01151014
011520     05  FILLER          PIC X(08) VALUE ' '.                     01152003
011530     05  FILLER          PIC X(05) VALUE ' '.                     01153003
011540     05  FILLER          PIC X(15) VALUE ' '.                     01154026
011560     05  FILLER          PIC X(04) VALUE 'S   '.                  01156026
011570     05  FILLER          PIC X(07) VALUE ' '.                     01157028
011580     05  FILLER          PIC X(04) VALUE ' '.                     01158028
011590     05  FILLER          PIC X(05) VALUE ' '.                     01159028
011591     05  FILLER          PIC X(09) VALUE ' '.                     01159103
011592     05  FILLER          PIC X(04) VALUE ' '.                     01159217
011593     05  FILLER          PIC X(31) VALUE ' '.                     01159328
011595     05  FILLER          PIC X(09) VALUE ' '.                     01159528
011596     05  FILLER          PIC X(08) VALUE ' '.                     01159628
011598     05  FILLER          PIC X(03) VALUE ' '.                     01159820
011599     05  FILLER          PIC X(14) VALUE ' '.                     01159928
011600     05  FILLER          PIC X(02) VALUE ' '.                     01160003
011601 01  RPT-TITLE-LINE-1.                                            01160126
011602     05  RPT-TTL-1-CC    PIC X(01) VALUE ' '.                     01160226
011610     05  FILLER          PIC X(04) VALUE ' '.                     01161026
011611     05  FILLER          PIC X(08) VALUE ' '.                     01161126
011612     05  FILLER          PIC X(05) VALUE ' '.                     01161226
011613     05  FILLER          PIC X(15) VALUE ' '.                     01161326
011614     05  FILLER          PIC X(04) VALUE 'A S '.                  01161426
011615     05  FILLER          PIC X(07) VALUE ' ATTR--'.               01161526
011616     05  FILLER          PIC X(04) VALUE 'SUB-'.                  01161626
011617     05  FILLER          PIC X(05) VALUE 'SUB'.                   01161726
011618     05  FILLER          PIC X(09) VALUE ' '.                     01161826
011619     05  FILLER          PIC X(04) VALUE ' '.                     01161926
011620     05  FILLER          PIC X(31) VALUE                          01162026
011621                         'FUND TITLE/ORG TITLE'.                  01162126
011622     05  FILLER          PIC X(09) VALUE ' POSTING'.              01162226
011623     05  FILLER          PIC X(08) VALUE '     FTE'.              01162326
011624     05  FILLER          PIC X(03) VALUE ' '.                     01162426
011625     05  FILLER          PIC X(14) VALUE '        AMOUNT'.        01162526
011626     05  FILLER          PIC X(02) VALUE ' '.                     01162626
011630 01  RPT-TITLE-LINE-2.                                            01163000
011700     05  RPT-TTL-2-CC    PIC X(01) VALUE ' '.                     01170000
012310     05  FILLER          PIC X(04) VALUE ' '.                     01231014
012320     05  FILLER          PIC X(07) VALUE 'FUND'.                  01232009
012330     05  FILLER          PIC X(07) VALUE 'ORG'.                   01233009
012340     05  FILLER          PIC X(07) VALUE 'ACCT'.                  01234009
012350     05  FILLER          PIC X(07) VALUE 'PROG'.                  01235009
012360     05  FILLER          PIC X(04) VALUE 'U C'.                   01236026
012370     05  FILLER          PIC X(07) VALUE ' FUND  '.               01237002
012380     05  FILLER          PIC X(04) VALUE 'BUD'.                   01238002
012390     05  FILLER          PIC X(04) VALUE 'CMP'.                   01239005
012391     05  FILLER          PIC X(09) VALUE 'DOCUMENT'.              01239102
012392     05  FILLER          PIC X(05) VALUE 'TRAN '.                 01239217
012393     05  FILLER          PIC X(31) VALUE                          01239320
012394                         '----------DESCRIPTION_________'.        01239420
012395     05  FILLER          PIC X(09) VALUE '   DATE'.               01239520
012396     05  FILLER          PIC X(08) VALUE ' '.                     01239622
012398     05  FILLER          PIC X(03) VALUE ' '.                     01239821
012399     05  FILLER          PIC X(14) VALUE ' '.                     01239920
012400     05  FILLER          PIC X(02) VALUE ' '.                     01240002
012410 01  RPT-HDR-LINE.                                                01241000
012500     05  RPT-HDR-CC              PIC X(01) VALUE '0'.             01250000
012600     05  RPT-HDR-ID              PIC X(04) VALUE 'HDR '.          01260014
012700     05  RPT-HDR-IFIS-FUND       PIC X(06)B.                      01270024
012900     05  RPT-HDR-IFIS-ORG        PIC X(06)B.                      01290024
013100     05  RPT-HDR-IFIS-ACCOUNT    PIC X(06)B.                      01310024
013110     05  RPT-HDR-IFIS-PROGRAM    PIC X(06)B.                      01311024
013200     05  RPT-HDR-SAU             PIC X(01).                       01320000
013300     05  FILLER                  PIC X(01) VALUE ' '.             01330027
013400     05  RPT-HDR-SUB-CAMPUS      PIC X(03).                       01340000
013500     05  RPT-HDR-ATTR-FUND       PIC X(07).                       01350000
013600     05  RPT-HDR-ATTR-SUB-BUDGET PIC X(04).                       01360000
013700     05  RPT-HDR-ATTR-SUB-CAMPUS PIC X(03).                       01370000
013800     05  RPT-HDR-IFIS-FUND-TITLE   PIC X(28).                     01380024
013900     05  RPT-HDR-SLSH            PIC X(01) VALUE '/'.             01390000
014000     05  RPT-HDR-IFIS-ORG-TITLE  PIC X(35).                       01400024
014100 01  RPT-DTL-LINE.                                                01410000
014200     05  RPT-DTL-CC              PIC X(01) VALUE ' '.             01420000
014300     05  RPT-DTL-ID              PIC X(04) VALUE 'DTL '.          01430014
014400     05  RPT-DTL-IFIS-FUND       PIC X(06)B.                      01440024
014600     05  RPT-DTL-IFIS-ORG        PIC X(06)B.                      01460024
014800     05  RPT-DTL-IFIS-ACCOUNT    PIC X(06)B.                      01480024
014801     05  RPT-DTL-IFIS-PROGRAM    PIC X(06)B.                      01480124
014810     05  FILLER                  PIC X(19) VALUE ' '.             01481015
014900     05  RPT-DTL-DOCUMENT-NO     PIC X(05).                       01490000
015000     05  RPT-DTL-DASH-3          PIC X(01) VALUE '-'.             01500000
015100     05  RPT-DTL-DOC-NO-SUFFIX   PIC X(04).                       01510016
015200     05  RPT-DTL-TRANS-CLASS     PIC X(01).                       01520000
015300     05  RPT-DTL-DASH-4          PIC X(01) VALUE '-'.             01530000
015400     05  RPT-DTL-TRANS-TYPE      PIC X(02).                       01540016
015500     05  RPT-DTL-TRANS-DESCR     PIC X(31).                       01550000
015600     05  RPT-DTL-POSTING-MM      PIC X(02).                       01560000
015700     05  RPT-DTL-DASH-5          PIC X(01) VALUE '-'.             01570000
015800     05  RPT-DTL-POSTING-DD      PIC X(02).                       01580000
015900     05  RPT-DTL-DASH-6          PIC X(01) VALUE '-'.             01590000
016000     05  RPT-DTL-POSTING-YY      PIC X(02).                       01600020
016010     05  FILLER                  PIC X(01) VALUE ' '.             01601020
016100     05  RPT-DTL-TRANS-FTE       PIC ZZZZZ.ZZ.                    01610022
016200     05  RPT-DTL-TRANS-FTE-CR    PIC X(03).                       01620000
016300     05  RPT-DTL-TRANS-AMT       PIC ZZ,ZZZ,ZZZ,ZZZ.              01630019
016400     05  RPT-DTL-TRANS-AMT-CR    PIC X(02).                       01640000
016500 01  RPT-TRL-LINE.                                                01650024
016600     05  RPT-TRL-CC              PIC X(01) VALUE ' '.             01660024
016700     05  RPT-TRL-ID              PIC X(04) VALUE 'TRL '.          01670024
016800     05  RPT-TRL-IFIS-FUND       PIC X(06)B.                      01680024
017000     05  RPT-TRL-IFIS-ORG        PIC X(06)B.                      01700024
017200     05  RPT-TRL-IFIS-ACCOUNT    PIC X(06)B.                      01720024
017210     05  RPT-TRL-IFIS-PROGRAM    PIC X(06)B.                      01721024
017220     05  FILLER                  PIC X(19) VALUE ' '.             01722015
017300     05  RPT-TRL-TOT-TITLE       PIC X(21) VALUE                  01730024
017400         'TOTAL ADJUSTED BUDGET'.                                 01740000
017500     05  RPT-TRL-TOTAL-FIL       PIC X(32) VALUE SPACES.          01750024
017510     05  FILLER                  PIC X(01) VALUE ' '.             01751022
017600     05  RPT-TRL-TOTAL-FTE       PIC ZZZZZ.ZZ.                    01760024
017700     05  RPT-TRL-TOTAL-FTE-CR    PIC X(03).                       01770024
017800     05  RPT-TRL-TOTAL-AMT       PIC ZZ,ZZZ,ZZZ,ZZZ.              01780024
017900     05  RPT-TRL-TOTAL-AMT-CR    PIC X(02).                       01790024
018000 01  RPT-TOTAL-LINE.                                              01800000
018100     05  RPT-TOT-CC              PIC X(01) VALUE '-'.             01810000
018200     05  RPT-TOT-FIL1            PIC X(23) VALUE SPACES.          01820000
018300     05  RPT-TOT-SAU-CODE        PIC X(02).                       01830000
018400     05  RPT-TOT-SUBC-CODE       PIC X(02).                       01840000
018500     05  RPT-TOT-TITLE           PIC X(49).                       01850000
018600     05  RPT-TOT-NAME            PIC X(26).                       01860000
018700     05  RPT-TOT-FIL2            PIC X(15) VALUE SPACES.          01870023
018800     05  RPT-TOT-FTE             PIC ZZZZZ.ZZ.                    01880022
018900     05  RPT-TOT-FTE-CR          PIC X(03).                       01890021
019000     05  RPT-TOT-AMT             PIC ZZ,ZZZ,ZZZ,ZZZ.              01900019
019100     05  RPT-TOT-AMT-CR          PIC X(02).                       01910000
019200     EJECT                                                        01920000
019300 PROCEDURE DIVISION.                                              01930000
019400                                                                  01940000
019500 0010-PROLOGUE.                                                   01950000
019600     DISPLAY 'SLPGM120 BEGIN'.                                    01960000
019700     MOVE 'SLJOB2' TO XPGM-JOB-NAME.                              01970000
019800     MOVE 'SLPGM120' TO XPGM-PROGRAM-NAME.                        01980000
019900     MOVE '1' TO XPGM-SEQUENCE-OPTION.                            01990000
020000     MOVE +0 TO XPGM-VERSION-COUNT.                               02000000
020100     OPEN I-O JOB-CONTROL-FILE                                    02010000
020200              PROGRAM-CONTROL-FILE.                               02020000
020300     READ JOB-CONTROL-FILE INTO XJCB-JOB-CONTROL-BLOCK            02030000
020400          AT END DISPLAY 'SLPGM120 ABEND'                         02040000
020500                 DISPLAY 'NO JOB CONTROL BLOCK'                   02050000
020600                 GO TO 0010-EXIT.                                 02060000
020700     IF XJCB-JOB-NAME NOT EQUAL XPGM-JOB-NAME                     02070000
020800        DISPLAY 'SLPGM120 ABEND'                                  02080000
020900        DISPLAY 'WRONG JOB CONTROL BLOCK'                         02090000
021000        GO TO 0010-EXIT.                                          02100000
021100     IF XJCB-PROOF-LIST-ERROR                                     02110000
021200        GO TO 0010-EXIT.                                          02120000
021300     MOVE '0' TO XPGM-VERSION-STATUS.                             02130000
021400     PERFORM 0020-PROLOGUE-NEXT-VERSION THRU                      02140000
021500             0020-EXIT                                            02150000
021600             UNTIL XPGM-NO-MORE-VERSIONS.                         02160000
021700     IF XPGM-VERSION-COUNT = +0                                   02170000
021800        MOVE 'ABEND' TO XJCB-JOB-STATUS                           02180000
021900        MOVE 'SLPGM120' TO XJCB-ABENDING-JOB                      02190000
022000        MOVE 'NO PROGRAM-CONTROL-BLOCK' TO XJCB-ABEND-REASON.     02200000
022100     REWRITE XJCF-JOB-CONTROL-RECORD FROM XJCB-JOB-CONTROL-BLOCK. 02210000
022200 0010-EXIT.                                                       02220000
022300     CLOSE JOB-CONTROL-FILE                                       02230000
022400           PROGRAM-CONTROL-FILE.                                  02240000
022500     DISPLAY 'SLPGM120 END'.                                      02250000
022600     STOP RUN.                                                    02260000
022700     EJECT                                                        02270000
022800 0020-PROLOGUE-NEXT-VERSION.                                      02280000
022900     MOVE '2' TO XPGM-VERSION-STATUS.                             02290000
023000     PERFORM 0030-PROLOGUE-PARAMETER-SCAN THRU                    02300000
023100             0030-EXIT                                            02310000
023200             UNTIL XPGM-NEXT-VERSION-FOUND OR                     02320000
023300                   XPGM-NO-MORE-VERSIONS.                         02330000
023400     IF XPGM-NO-MORE-VERSIONS                                     02340000
023500        GO TO 0020-EXIT.                                          02350000
023600     MOVE SPACES TO XPCB-PARM-EDIT-STATUS.                        02360000
023700     PERFORM 0040-PROLOGUE-PARAMETER-EDIT THRU                    02370000
023800             0040-EXIT.                                           02380000
023900     IF NOT XPCB-PARM-EDIT-ERROR                                  02390000
024000        MOVE 'OK' TO XPCB-PARM-EDIT-STATUS.                       02400000
024100     IF XJCB-ABEND                                                02410000
024200        MOVE 'JOB ABEND' TO XPCB-PROGRAM-RUN-STATUS               02420000
024300        GO TO 0020-EXIT.                                          02430000
024400     IF XJCB-TEST                                                 02440000
024500        MOVE 'TEST' TO XPCB-PROGRAM-RUN-STATUS                    02450000
024600        GO TO 0020-EXIT.                                          02460000
024700     IF XPCB-PARM-EDIT-ERROR                                      02470000
024800        MOVE 'NOT RUN' TO XPCB-PROGRAM-RUN-STATUS                 02480000
024900        GO TO 0020-EXIT.                                          02490000
025000     MOVE SPACES TO XPGM-RUN-STATUS                               02500000
025100     PERFORM 0100-MAIN-CONTROL THRU                               02510000
025200             0100-EXIT.                                           02520000
025300     IF XPGM-ABEND                                                02530000
025400        MOVE 'ABENDED' TO XPCB-PROGRAM-RUN-STATUS                 02540000
025500        MOVE 'ABEND' TO XJCB-JOB-STATUS                           02550000
025600        MOVE 'SLPGM120' TO XJCB-ABENDING-JOB                      02560000
025700        MOVE XPGM-ABEND-REASON TO XJCB-ABEND-REASON               02570000
025800     ELSE                                                         02580000
025900        MOVE 'RAN OK' TO XPCB-PROGRAM-RUN-STATUS.                 02590000
026000 0020-EXIT.                                                       02600000
026100     REWRITE XPCF-PROGRAM-CONTROL-RECORD FROM                     02610000
026200             XPCB-PROGRAM-CONTROL-BLOCK.                          02620000
026300 0030-PROLOGUE-PARAMETER-SCAN.                                    02630000
026400     READ PROGRAM-CONTROL-FILE INTO XPCB-PROGRAM-CONTROL-BLOCK    02640000
026500          AT END MOVE '1' TO XPGM-VERSION-STATUS                  02650000
026600                 GO TO 0030-EXIT.                                 02660000
026700     IF XPCB-BLOCK-KEY LESS XPGM-BLOCK-KEY                        02670000
026800        GO TO 0030-PROLOGUE-PARAMETER-SCAN.                       02680000
026900     IF XPCB-BLOCK-KEY GREATER XPGM-BLOCK-KEY                     02690000
027000        MOVE '1' TO XPGM-VERSION-STATUS                           02700000
027100        GO TO 0030-EXIT.                                          02710000
027200     COMPUTE XPGM-VERSION-COUNT = XPGM-VERSION-COUNT + 1.         02720000
027300     MOVE '0'                    TO XPGM-VERSION-STATUS.          02730000
027400 0030-EXIT.                                                       02740000
027500     EXIT.                                                        02750000
027600     EJECT                                                        02760000
027700***************************************************************   02770000
027800*                                                             *   02780000
027900*    PROGRAM-SPECIFIC LOGIC TO EDIT THE PROGRAM PARAMETERS    *   02790000
028000*    IN THE CURRENT XPCB-PROGRAM-CONTROL-BLOCK FOLLOWS        *   02800000
028100*                                                             *   02810000
028200*    XPCB-ITEM-ID (I) = SPACES MEANS ITEM I NOT SPECIFIED:    *   02820000
028300*       SET XPCB-ITEM-DESCRIPTION (I) AND                     *   02830000
028400*           XPCB-ITEM-VALUE (I) TO DEFAULT VALUES             *   02840000
028500*       MOVE 'DEFAULT' TO XPCB-ITEM-MESSAGE (I)               *   02850000
028600*                                                             *   02860000
028700*    IF EDIT ERROR                                            *   02870000
028800*       MOVE ERROR MESSAGE TO XPCB-ITEM-MESSAGE (I)           *   02880000
028900*       MOVE 'ERROR' TO XPCB-EDIT-STATUS                      *   02890000
029000*                                                             *   02900000
029100***************************************************************   02910000
029200 0040-PROLOGUE-PARAMETER-EDIT.                                    02920000
029300     MOVE +1 TO I.                                                02930000
029400     PERFORM 0041-PROGRAM-PARAMETERS-EDIT THRU                    02940000
029500         0041-EXIT                                                02950000
029600         UNTIL I = 13.                                            02960000
029700 0040-EXIT.                                                       02970000
029800     EXIT.                                                        02980000
029900                                                                  02990000
030000 0041-PROGRAM-PARAMETERS-EDIT.                                    03000000
030100                                                                  03010000
030200     IF  XPCB-ITEM (I) = SPACES                                   03020000
030300         NEXT SENTENCE                                            03030000
030400     ELSE                                                         03040000
030500         MOVE 'UNDEFINED ITEM'     TO XPCB-ITEM-MESSAGE (I)       03050000
030600         MOVE 'ERROR'              TO XPCB-PARM-EDIT-STATUS.      03060000
030700     ADD +1 TO I.                                                 03070000
030800 0041-EXIT.                                                       03080000
030900     EXIT.                                                        03090000
031000     EJECT                                                        03100000
031100***************************************************************   03110000
031200*                                                             *   03120000
031300*    PROGRAM-SPECIFIC LOGIC FOLLOWSHERE                       *   03130000
031400*    SEE ALSO PARAGRAPH 0040-PROLOGUE-PARAMETER-EDIT          *   03140000
031500*                                                             *   03150000
031600*    IF A USER ABEND CONDITION OCCURS:                        *   03160000
031700*       MOVE 'ABEND' TO XPGM-RUN-STATUS                       *   03170000
031800*       MOVE DESCRIPTION OF ERROR TO XPGM-ABEND-REASON        *   03180000
031900*                                                             *   03190000
032000***************************************************************   03200000
032100 0100-MAIN-CONTROL.                                               03210000
032200     OPEN INPUT RSL-BUDGET-EXTRACT-FILE                           03220000
032300                BUDGET-TABLES-FILE                                03230000
032400          OUTPUT BUDGET-EXTRACT-LIST-FILE.                        03240000
032500     PERFORM 0150-INITIALIZATION THRU                             03250000
032600         0150-EXIT.                                               03260000
032700     PERFORM 0200-PROCESS-EXTRACT-FILE THRU                       03270000
032800         0200-EXIT                                                03280000
032900         UNTIL BUDGET-EXTRACT-EOF OR XPGM-ABEND.                  03290000
033000     PERFORM 0800-PRINT-HASH-TOTALS.                              03300000
033100     CLOSE RSL-BUDGET-EXTRACT-FILE                                03310000
033200           BUDGET-TABLES-FILE                                     03320000
033300           BUDGET-EXTRACT-LIST-FILE.                              03330000
033400 0100-EXIT.                                                       03340000
033500                                                                  03350000
033600 0150-INITIALIZATION.                                             03360000
033700     MOVE SPACES                 TO XHD1-STD-RPT-HDR-LINE-1       03370000
033800                                    XHD2-STD-RPT-HDR-LINE-2       03380000
033900                                    XHD3-STD-RPT-HDR-LINE-3.      03390000
034000     MOVE ZEROS                  TO XRC6-IN-ACC-BUD-AMT           03400000
034100                                    XRC6-IN-ACC-BUD-FTE           03410000
034200                                    XRC6-IN-ACC-BUD-RECS.         03420000
034300     MOVE '1'                    TO XHD1-CTL.                     03430000
034400     MOVE 'SLRPT120'             TO XHD1-RPT-NAME.                03440000
034500     MOVE REPORT-TITLE           TO XHD1-RPT-TITLE.               03450000
034600     MOVE XHDC-RPT-PAGE-ID       TO XHD1-RPT-PAGE-ID.             03460000
034700     MOVE XHDC-LOC-ID            TO XHD2-LOC-ID.                  03470000
034800     MOVE XPGM-PROGRAM-NAME      TO XHDC-PROGRAM-NAME.            03480000
034900     MOVE XPGM-SEQUENCE-OPTION   TO XHDC-SEQ-OPTION               03490000
035000     MOVE XPGM-VERSION-COUNT     TO XHDC-VERSION-NO.              03500000
035100     MOVE SPACE                  TO XHDC-FORMAT-OPTION            03510000
035200                                    XHDC-SELECT-OPTIONS.          03520000
035300     MOVE XHDC-REPORT-SUB-TITLE  TO XHD2-REPORT-SUB-TITLE.        03530000
035400     MOVE XHDC-REPORT-DATE-ID    TO XHD2-REPORT-DATE-ID.          03540000
035500     MOVE XJCB-JOB-MONTH         TO XHD2-REPORT-MONTH.            03550000
035600     MOVE XJCB-JOB-DAY           TO XHD2-REPORT-DAY.              03560000
035700     MOVE XJCB-JOB-YEAR          TO XHD2-REPORT-YEAR.             03570000
035800     MOVE '-'                    TO XHD2-DASH1 XHD2-DASH2.        03580000
035900     MOVE XHDC-SAU-ID            TO XHD3-SAU-ID.                  03590000
036000     MOVE XHDC-SUB-CAMPUS-ID     TO XHD3-SUB-CAMPUS-ID.           03600000
036100     MOVE XHDC-RUN-DATE-ID       TO XHD3-RUN-DATE-ID.             03610000
           COPY PDDATEC2.                                               03611029
           MOVE GREGORIAN-DATE      TO XHD3-RUN-DATE.                   03612029
036300     MOVE '-'                    TO XHD3-DASH1 XHD3-DASH2.        03630000
036400     MOVE '002'                  TO TABLE-NO-ARG.                 03640000
036500     PERFORM 9000-BUDGET-TABLE-LOAD.                              03650000
036600     IF  TABLE-LOAD-ERROR                                         03660000
036700         PERFORM 0160-ABEND                                       03670000
036800         GO TO 0150-EXIT.                                         03680000
036900     SET TAB-INDX                TO TAB-END-INDX.                 03690000
037000     MOVE '011'                  TO TABLE-NO-ARG.                 03700000
037100     PERFORM 9000-BUDGET-TABLE-LOAD.                              03710000
037200     IF  TABLE-LOAD-ERROR                                         03720000
037300         PERFORM 0160-ABEND                                       03730000
037400         GO TO 0150-EXIT.                                         03740000
037500 0150-EXIT.                                                       03750000
037600     EXIT.                                                        03760000
037700                                                                  03770000
037800 0160-ABEND.                                                      03780000
037900     MOVE 'ABEND'                TO XPGM-RUN-STATUS.              03790000
038000     MOVE 'BUDGET TABLES LOAD ERROR'                              03800000
038100                                 TO XPGM-ABEND-REASON.            03810000
038200 EJECT                                                            03820000
038300 0200-PROCESS-EXTRACT-FILE.                                       03830000
038400     IF  NOT BUDGET-EXTRACT-BEGIN                                 03840000
038500         GO TO 0200-READ-NEXT-REC.                                03850000
038600     MOVE 'R'                      TO BUDGET-EXTRACT-FILE-FLAG.   03860000
038700     READ RSL-BUDGET-EXTRACT-FILE INTO XBGX-BUDGET-REC-WS         03870000
038800         AT END MOVE 'ABEND'       TO XPGM-RUN-STATUS             03880000
038900                MOVE 'BUDGET-EXTRACT-FILE EMPTY'                  03890000
039000                                   TO XPGM-ABEND-REASON           03900000
039100                GO TO 0200-EXIT.                                  03910000
039200     PERFORM 0250-SUM-HASH-TOTALS.                                03920000
039300     MOVE XBGX-SAU                 TO CURR-SAU                    03930000
039400     MOVE XBGX-SUB-CAMPUS          TO CURR-SUB-CAMPUS.            03940000
039500     MOVE XBGX-LOCATION          TO XHD2-LOC.                     03950000
039600     MOVE XCMP-LOC-TITLE         TO XHD2-LOC-TITLE.               03960000
039700     MOVE CURR-SAU               TO XHD3-SAU                      03970000
039800                                    TABLE-ENTRY-ARG.              03980000
039900     MOVE 'MATCH'                TO TABLE-SEARCH-TYPE-ARG.        03990000
040000     PERFORM 0610-FETCH-SAU-TITLE.                                04000000
040100     MOVE SAU-TITLE              TO XHD3-SAU-TITLE.               04010000
040200     MOVE CURR-SUB-CAMPUS        TO XHD3-SUB-CAMPUS               04020000
040300                                    TABLE-ENTRY-ARG.              04030000
040400     PERFORM 0660-FETCH-SUB-CAMPUS-TITLE.                         04040000
040500     MOVE SUB-CAMPUS-TITLE       TO XHD3-SUB-CAMPUS-TITLE.        04050000
040600     GO TO 0200-PROCESS-EXTRACT-REC.                              04060000
040700                                                                  04070000
040800 0200-READ-NEXT-REC.                                              04080000
040900     READ RSL-BUDGET-EXTRACT-FILE INTO XBGX-BUDGET-REC-WS         04090000
041000         AT END MOVE 'E'           TO BUDGET-EXTRACT-FILE-FLAG    04100000
041100                GO TO 0200-EXIT.                                  04110000
041200     PERFORM 0250-SUM-HASH-TOTALS.                                04120000
041300     MOVE CURR-KEY                 TO PREV-KEY.                   04130000
041400     MOVE XBGX-SAU                 TO CURR-SAU.                   04140000
041500     MOVE XBGX-SUB-CAMPUS          TO CURR-SUB-CAMPUS.            04150000
041600     IF  CURR-SAU NOT = PREV-SAU                                  04160000
041700         PERFORM 0650-SUB-CAMPUS-BREAK                            04170000
041800         PERFORM 0600-SAU-BREAK                                   04180000
041900     ELSE                                                         04190000
042000     IF  CURR-SUB-CAMPUS NOT = PREV-SUB-CAMPUS                    04200000
042100         PERFORM 0650-SUB-CAMPUS-BREAK.                           04210000
042200                                                                  04220000
042300 0200-PROCESS-EXTRACT-REC.                                        04230000
042400     IF  XBGX-HEADER-REC                                          04240000
042500         PERFORM 0300-PROCESS-HEADER-REC                          04250000
042600     ELSE                                                         04260000
042700     IF  XBGX-DETAIL-REC                                          04270000
042800         PERFORM 0400-PROCESS-DETAIL-REC                          04280000
042900     ELSE                                                         04290000
043000     IF  XBGX-TRAILER-REC                                         04300000
043100         PERFORM 0500-PROCESS-TRAILER-REC                         04310000
043200     ELSE                                                         04320000
043300     IF  XBGX-KEY = HIGH-VALUES                                   04330000
043400         PERFORM 0260-TEST-HASH-TOTALS.                           04340000
043500                                                                  04350000
043600 0200-EXIT.                                                       04360000
043700     EXIT.                                                        04370000
043800                                                                  04380000
043900 0250-SUM-HASH-TOTALS.                                            04390000
044000     IF  XBGX-HEADER-REC                                          04400000
044100         MOVE XBGX-BUDGET-REC-WS   TO XBHS-BUDGET-HEADER-SEGMENT  04410000
044200     ELSE                                                         04420000
044300     IF  XBGX-DETAIL-REC                                          04430000
044400         MOVE XBGX-BUDGET-REC-WS   TO XBDS-BUDGET-DETAIL-SEGMENT  04440000
044500     ELSE                                                         04450000
044600     IF  XBGX-TRAILER-REC                                         04460000
044700         MOVE XBGX-BUDGET-REC-WS   TO XBTS-BUDGET-TRAILER-SEGMENT 04470000
044800         ADD XBTS-TOT-ADJUSTED-AMT TO XRC6-IN-ACC-BUD-AMT         04480000
044900         ADD XBTS-TOT-ADJUSTED-FTE TO XRC6-IN-ACC-BUD-FTE         04490000
045000     ELSE                                                         04500000
045100     IF  XBGX-KEY = HIGH-VALUES                                   04510000
045200         SUBTRACT +1 FROM XRC6-IN-ACC-BUD-RECS                    04520000
045300     ELSE                                                         04530000
045400         DISPLAY 'BUDGET RECORD ERROR - ' XBGX-KEY                04540000
045500         MOVE 'ABEND' TO XPGM-RUN-STATUS                          04550000
045600         MOVE 'BUDGET-RECORD ERROR' TO XPGM-ABEND-REASON.         04560000
045700     ADD +1                        TO XRC6-IN-ACC-BUD-RECS.       04570000
045800                                                                  04580000
045900 0260-TEST-HASH-TOTALS.                                           04590000
046000     MOVE XBGX-BUDGET-REC-WS     TO XBTS-BUDGET-TRAILER-SEGMENT.  04600000
046100     IF  XRC6-IN-ACC-BUD-RECS = XBTS-CTL-RECS  AND                04610000
046200         XRC6-IN-ACC-BUD-AMT  = XBTS-CTL-AMT   AND                04620000
046300         XRC6-IN-ACC-BUD-FTE  = XBTS-CTL-FTE                      04630000
046400         NEXT SENTENCE                                            04640000
046500     ELSE                                                         04650000
046600         MOVE 'ABEND'            TO XPGM-RUN-STATUS               04660000
046700         MOVE 'BUDGET HASH TOTALS UNBALANCED'                     04670000
046800                                 TO XPGM-ABEND-REASON.            04680000
046900 EJECT                                                            04690000
047000 0300-PROCESS-HEADER-REC.                                         04700000
047100     MOVE XBHS-IFIS-FUND           TO RPT-HDR-IFIS-FUND.          04710024
047200     MOVE XBHS-IFIS-ORG            TO RPT-HDR-IFIS-ORG.           04720024
047300     MOVE XBHS-IFIS-ACCOUNT        TO RPT-HDR-IFIS-ACCOUNT.       04730024
047310     MOVE XBHS-IFIS-PROGRAM        TO RPT-HDR-IFIS-PROGRAM.       04731024
047400     MOVE XBHS-FUND-ATTR           TO RPT-HDR-ATTR-FUND.          04740000
047500     MOVE XBHS-SUB-BUDGET-ATTR     TO RPT-HDR-ATTR-SUB-BUDGET.    04750000
047600     MOVE XBHS-SUB-CAMPUS-ATTR     TO RPT-HDR-ATTR-SUB-CAMPUS.    04760000
047700     MOVE XBHS-IFIS-FUND-TITLE     TO RPT-HDR-IFIS-FUND-TITLE.    04770024
047800     MOVE XBHS-IFIS-ORG-TITLE      TO RPT-HDR-IFIS-ORG-TITLE      04780024
047900     MOVE XBHS-SUB-CAMPUS          TO RPT-HDR-SUB-CAMPUS.         04790000
048000     MOVE XBHS-SAU                 TO RPT-HDR-SAU.                04800000
048100     MOVE RPT-HDR-LINE             TO BUDGET-EXTRACT-LIST.        04810000
048200     PERFORM 0700-PRINT-LIST.                                     04820000
048300     MOVE '0'                    TO RPT-HDR-CC.                   04830000
048400                                                                  04840000
048500 0400-PROCESS-DETAIL-REC.                                         04850000
048600     MOVE XBDS-IFIS-FUND           TO RPT-DTL-IFIS-FUND.          04860024
048700     MOVE XBDS-IFIS-ORG            TO RPT-DTL-IFIS-ORG.           04870024
048800     MOVE XBDS-IFIS-ACCOUNT        TO RPT-DTL-IFIS-ACCOUNT.       04880024
048810     MOVE XBDS-IFIS-PROGRAM        TO RPT-DTL-IFIS-PROGRAM.       04881024
048900     MOVE XBDS-DOCUMENT-NUMBER     TO RPT-DTL-DOCUMENT-NO.        04890000
049000     MOVE XBDS-DOCUMENT-SUFFIX     TO RPT-DTL-DOC-NO-SUFFIX.      04900000
049100     MOVE XBDS-TRANSACTION-CLASS   TO RPT-DTL-TRANS-CLASS.        04910000
049200     MOVE XBDS-TRANSACTION-TYPE    TO RPT-DTL-TRANS-TYPE.         04920000
049300     MOVE XBDS-DETAIL-TEXT         TO RPT-DTL-TRANS-DESCR.        04930000
049400     MOVE XBDS-POSTING-MONTH       TO RPT-DTL-POSTING-MM.         04940000
049500     MOVE XBDS-POSTING-DAY         TO RPT-DTL-POSTING-DD.         04950000
049600     MOVE XBDS-POSTING-YEAR        TO RPT-DTL-POSTING-YY.         04960000
049700     MOVE XBDS-DETAIL-FTE          TO RPT-DTL-TRANS-FTE.          04970000
049800     MOVE XBDS-DETAIL-AMOUNT       TO RPT-DTL-TRANS-AMT.          04980000
049900     IF  XBDS-DETAIL-FTE GREATER THAN ZERO                        04990000
050000         MOVE 'CR'                 TO RPT-DTL-TRANS-FTE-CR        05000000
050100     ELSE                                                         05010000
050200         MOVE SPACES               TO RPT-DTL-TRANS-FTE-CR.       05020000
050300     IF  XBDS-DETAIL-AMOUNT GREATER THAN ZERO                     05030000
050400         MOVE 'CR'                 TO RPT-DTL-TRANS-AMT-CR        05040000
050500     ELSE                                                         05050000
050600         MOVE SPACES               TO RPT-DTL-TRANS-AMT-CR.       05060000
050700     MOVE RPT-DTL-LINE             TO BUDGET-EXTRACT-LIST.        05070000
050800     PERFORM 0700-PRINT-LIST.                                     05080000
050900                                                                  05090000
051000 0500-PROCESS-TRAILER-REC.                                        05100000
051100     MOVE XBTS-IFIS-FUND           TO RPT-TRL-IFIS-FUND.          05110024
051200     MOVE XBTS-IFIS-ORG            TO RPT-TRL-IFIS-ORG.           05120024
051300     MOVE XBTS-IFIS-ACCOUNT        TO RPT-TRL-IFIS-ACCOUNT.       05130024
051310     MOVE XBTS-IFIS-PROGRAM        TO RPT-TRL-IFIS-PROGRAM.       05131024
051400     MOVE 'INITIAL BUDGET'         TO RPT-TRL-TOT-TITLE.          05140024
051500     MOVE XBTS-INITIAL-FTE         TO RPT-TRL-TOTAL-FTE.          05150024
051600     MOVE XBTS-INITIAL-AMT         TO RPT-TRL-TOTAL-AMT.          05160024
051700     IF  XBTS-INITIAL-FTE GREATER THAN ZERO                       05170000
051800         MOVE 'CR'                 TO RPT-TRL-TOTAL-FTE-CR        05180024
051900     ELSE                                                         05190000
052000         MOVE SPACES               TO RPT-TRL-TOTAL-FTE-CR.       05200024
052100     IF  XBTS-INITIAL-AMT GREATER THAN ZERO                       05210000
052200         MOVE 'CR'                 TO RPT-TRL-TOTAL-AMT-CR        05220024
052300     ELSE                                                         05230000
052400         MOVE SPACES               TO RPT-TRL-TOTAL-AMT-CR.       05240024
052500     MOVE RPT-TRL-LINE             TO BUDGET-EXTRACT-LIST.        05250024
052600     PERFORM 0700-PRINT-LIST.                                     05260000
052700     MOVE 'TOTAL ADJUSTED BUDGET'  TO RPT-TRL-TOT-TITLE.          05270024
052800     MOVE XBTS-TOT-ADJUSTED-FTE    TO RPT-TRL-TOTAL-FTE.          05280024
052900     MOVE XBTS-TOT-ADJUSTED-AMT    TO RPT-TRL-TOTAL-AMT.          05290024
053000     IF  XBTS-TOT-ADJUSTED-FTE GREATER THAN ZERO                  05300000
053100         MOVE 'CR'                 TO RPT-TRL-TOTAL-FTE-CR        05310024
053200     ELSE                                                         05320000
053300         MOVE SPACES               TO RPT-TRL-TOTAL-FTE-CR.       05330024
053400     IF  XBTS-TOT-ADJUSTED-AMT GREATER THAN ZERO                  05340000
053500         MOVE 'CR'                 TO RPT-TRL-TOTAL-AMT-CR        05350024
053600     ELSE                                                         05360000
053700         MOVE SPACES               TO RPT-TRL-TOTAL-AMT-CR.       05370024
053800     MOVE RPT-TRL-LINE             TO BUDGET-EXTRACT-LIST.        05380024
053900     PERFORM 0700-PRINT-LIST.                                     05390000
054000     ADD XBTS-TOT-ADJUSTED-FTE     TO TOTAL-SUB-CAMPUS-FTE.       05400000
054100     ADD XBTS-TOT-ADJUSTED-AMT     TO TOTAL-SUB-CAMPUS-AMT.       05410000
054200 EJECT                                                            05420000
054300 0600-SAU-BREAK.                                                  05430000
054400     MOVE ZEROS                  TO RPT-LINE-CNT.                 05440000
054500     MOVE PREV-SAU               TO RPT-TOT-SAU-CODE.             05450000
054600     MOVE SPACES                 TO RPT-TOT-SUBC-CODE.            05460000
054700     MOVE SAU-TITLE              TO RPT-TOT-TITLE.                05470000
054800     MOVE 'SAU TOTALS:'          TO RPT-TOT-NAME.                 05480000
054900     MOVE TOTAL-SAU-FTE          TO RPT-TOT-FTE.                  05490000
055000     MOVE TOTAL-SAU-AMT          TO RPT-TOT-AMT.                  05500000
055100     IF  TOTAL-SAU-FTE GREATER THAN ZERO                          05510000
055200         MOVE 'CR'               TO RPT-TOT-FTE-CR                05520000
055300     ELSE                                                         05530000
055400         MOVE SPACES             TO RPT-TOT-FTE-CR.               05540000
055500     IF  TOTAL-SAU-AMT GREATER THAN ZERO                          05550000
055600         MOVE 'CR'               TO RPT-TOT-AMT-CR                05560000
055700     ELSE                                                         05570000
055800         MOVE SPACES             TO RPT-TOT-AMT-CR.               05580000
055900     MOVE RPT-TOTAL-LINE         TO BUDGET-EXTRACT-LIST.          05590000
056000     PERFORM 0700-PRINT-LIST.                                     05600000
056100     MOVE ZEROS                  TO TOTAL-SAU-AMT                 05610000
056200                                    TOTAL-SAU-FTE.                05620000
056300     PERFORM 0610-FETCH-SAU-TITLE.                                05630000
056400     MOVE CURR-SAU               TO XHD3-SAU.                     05640000
056500     MOVE SAU-TITLE              TO XHD3-SAU-TITLE.               05650000
056600     MOVE +99                    TO RPT-LINE-CNT.                 05660000
056700                                                                  05670000
056800 0610-FETCH-SAU-TITLE.                                            05680000
056900     MOVE CURR-SAU               TO TABLE-ENTRY-ARG.              05690000
057000     MOVE '002'                  TO TABLE-NO-ARG.                 05700000
057100     MOVE 'MATCH'                TO TABLE-SEARCH-TYPE-ARG.        05710000
057200     PERFORM 9100-BUDGET-TABLE-SEARCH.                            05720000
057300     IF  TABLE-ENTRY-NOT-FOUND                                    05730000
057400         MOVE 'NO SAU TITLE'     TO SAU-TITLE                     05740000
057500     ELSE                                                         05750000
057600         MOVE TABLE-CLASS-TITLE (TAB-INDX)                        05760000
057700                                 TO SAU-TITLE.                    05770000
057800                                                                  05780000
057900 0650-SUB-CAMPUS-BREAK.                                           05790000
058000     MOVE PREV-SUB-CAMPUS        TO RPT-TOT-SUBC-CODE.            05800000
058100     MOVE SPACES                 TO RPT-TOT-SAU-CODE.             05810000
058200     MOVE SUB-CAMPUS-TITLE       TO RPT-TOT-TITLE.                05820000
058300     MOVE 'SUB CAMPUS TOTALS:'   TO RPT-TOT-NAME.                 05830000
058400     MOVE TOTAL-SUB-CAMPUS-FTE   TO RPT-TOT-FTE.                  05840000
058500     MOVE TOTAL-SUB-CAMPUS-AMT   TO RPT-TOT-AMT.                  05850000
058600     IF  TOTAL-SUB-CAMPUS-FTE GREATER THAN ZERO                   05860000
058700         MOVE 'CR'               TO RPT-TOT-FTE-CR                05870000
058800     ELSE                                                         05880000
058900         MOVE SPACES             TO RPT-TOT-FTE-CR.               05890000
059000     IF  TOTAL-SUB-CAMPUS-AMT GREATER THAN ZERO                   05900000
059100         MOVE 'CR'               TO RPT-TOT-AMT-CR                05910000
059200     ELSE                                                         05920000
059300         MOVE SPACES             TO RPT-TOT-AMT-CR.               05930000
059400     MOVE RPT-TOTAL-LINE         TO BUDGET-EXTRACT-LIST.          05940000
059500     PERFORM 0700-PRINT-LIST.                                     05950000
059600     ADD TOTAL-SUB-CAMPUS-FTE    TO TOTAL-SAU-FTE.                05960000
059700     ADD TOTAL-SUB-CAMPUS-AMT    TO TOTAL-SAU-AMT.                05970000
059800     MOVE ZEROS                  TO TOTAL-SUB-CAMPUS-FTE          05980000
059900                                    TOTAL-SUB-CAMPUS-AMT.         05990000
060000     PERFORM 0660-FETCH-SUB-CAMPUS-TITLE.                         06000000
060100     MOVE CURR-SUB-CAMPUS        TO XHD3-SUB-CAMPUS.              06010000
060200     MOVE SUB-CAMPUS-TITLE       TO XHD3-SUB-CAMPUS-TITLE.        06020000
060300     MOVE '0'                    TO RPT-HDR-CC.                   06030000
060400     MOVE +99                    TO RPT-LINE-CNT.                 06040000
060500                                                                  06050000
060600 0660-FETCH-SUB-CAMPUS-TITLE.                                     06060000
060700     MOVE CURR-SUB-CAMPUS        TO TABLE-ENTRY-ARG.              06070000
060800     MOVE '011'                  TO TABLE-NO-ARG.                 06080000
060900     MOVE 'MATCH'                TO TABLE-SEARCH-TYPE-ARG.        06090000
061000     PERFORM 9100-BUDGET-TABLE-SEARCH.                            06100000
061100     IF  TABLE-ENTRY-NOT-FOUND                                    06110000
061200         MOVE 'NO SUB-CAMPUS TITLE' TO SUB-CAMPUS-TITLE           06120000
061300     ELSE                                                         06130000
061400         MOVE TABLE-CLASS-TITLE (TAB-INDX)                        06140000
061500                                 TO SUB-CAMPUS-TITLE.             06150000
061600 EJECT                                                            06160000
061700 0700-PRINT-LIST.                                                 06170000
061800     IF  RPT-LINE-CNT GREATER THAN +55                            06180000
061900         PERFORM 0730-ADVANCE-PAGE.                               06190000
062000     PERFORM 0710-PRINT-LINE.                                     06200000
062100                                                                  06210000
062200 0710-PRINT-LINE.                                                 06220000
062300                                                                  06230000
062400     IF (LIST-CC = '1')                                           06240000
062500         WRITE BUDGET-EXTRACT-LIST AFTER ADVANCING NEXT-PAGE      06250000
062600         MOVE +0                 TO RPT-LINE-CNT                  06260000
062700     ELSE                                                         06270000
062800     IF (LIST-CC = SPACE)                                         06280000
062900         WRITE BUDGET-EXTRACT-LIST AFTER ADVANCING 1 LINES        06290000
063000         ADD +1                  TO RPT-LINE-CNT                  06300000
063100     ELSE                                                         06310000
063200     IF (LIST-CC = '0')                                           06320000
063300         WRITE BUDGET-EXTRACT-LIST AFTER ADVANCING 2 LINES        06330000
063400         ADD +2                  TO RPT-LINE-CNT                  06340000
063500     ELSE                                                         06350000
063600     IF (LIST-CC = '-')                                           06360000
063700         WRITE BUDGET-EXTRACT-LIST AFTER ADVANCING 3 LINES        06370000
063800         ADD +3                  TO RPT-LINE-CNT.                 06380000
063900                                                                  06390000
064000 0730-ADVANCE-PAGE.                                               06400000
064100     MOVE BUDGET-EXTRACT-LIST    TO RPT-SAVE-REC.                 06410000
064200     ADD +1                      TO RPT-PAGE-CNT.                 06420000
064300     MOVE RPT-PAGE-CNT           TO XHD1-RPT-PAGE-NO.             06430000
064400     MOVE XHD1-STD-RPT-HDR-LINE-1 TO BUDGET-EXTRACT-LIST.         06440000
064500     PERFORM 0710-PRINT-LINE.                                     06450000
064600     MOVE XHD2-STD-RPT-HDR-LINE-2 TO BUDGET-EXTRACT-LIST.         06460000
064700     PERFORM 0710-PRINT-LINE.                                     06470000
064800     MOVE XHD3-STD-RPT-HDR-LINE-3 TO BUDGET-EXTRACT-LIST.         06480000
064900     PERFORM 0710-PRINT-LINE.                                     06490000
065000     MOVE RPT-TITLE-LINE-0       TO BUDGET-EXTRACT-LIST.          06500026
065100     PERFORM 0710-PRINT-LINE.                                     06510000
065110     MOVE RPT-TITLE-LINE-1       TO BUDGET-EXTRACT-LIST.          06511026
065120     PERFORM 0710-PRINT-LINE.                                     06512026
065200     MOVE RPT-TITLE-LINE-2       TO BUDGET-EXTRACT-LIST.          06520000
065300     PERFORM 0710-PRINT-LINE.                                     06530000
065400     MOVE SPACES                 TO BUDGET-EXTRACT-LIST.          06540000
065500     PERFORM 0710-PRINT-LINE.                                     06550000
065600     MOVE RPT-SAVE-REC           TO BUDGET-EXTRACT-LIST.          06560000
065700 EJECT                                                            06570000
065800 0800-PRINT-HASH-TOTALS.                                          06580000
065900*                                                                 06590000
066000*    PRINT RSLS STANDARD RUN CONTROL TOTALS                       06600000
066100*                                                                 06610000
066200     PERFORM 0730-ADVANCE-PAGE.                                   06620000
066300     MOVE XRC1-HDR1 TO BUDGET-EXTRACT-LIST.                       06630000
066400     MOVE '-' TO LIST-CC.                                         06640000
066500     PERFORM 0710-PRINT-LINE.                                     06650000
066600     MOVE XRC2-HDR2 TO BUDGET-EXTRACT-LIST.                       06660000
066700     MOVE SPACE TO LIST-CC.                                       06670000
066800     PERFORM 0710-PRINT-LINE.                                     06680000
066900     MOVE XRC3-HDR3 TO BUDGET-EXTRACT-LIST.                       06690000
067000     MOVE SPACE TO LIST-CC.                                       06700000
067100     PERFORM 0710-PRINT-LINE.                                     06710000
067200     MOVE SPACES TO XRC4-DETAIL-LINE.                             06720000
067300     MOVE 'SELECTED APPROPRIATIONS' TO XRC4-LINE-TITLE.           06730000
067400     MOVE XRC6-IN-ACC-BUD-RECS TO XRC4-BUD-RECS.                  06740000
067500     MOVE XRC6-IN-ACC-BUD-FTE TO XRC4-BUD-FTE.                    06750000
067600     IF XRC4-BUD-FTE-CR = 'CR'                                    06760000
067700        MOVE SPACES TO XRC4-BUD-FTE-CR                            06770000
067800     ELSE                                                         06780000
067900        MOVE 'CR' TO XRC4-BUD-FTE-CR.                             06790000
068000     MOVE XRC6-IN-ACC-BUD-AMT TO XRC4-BUD-AMT.                    06800000
068100     IF XRC4-BUD-AMT-CR = 'CR'                                    06810000
068200        MOVE SPACES TO XRC4-BUD-AMT-CR                            06820000
068300     ELSE                                                         06830000
068400        MOVE 'CR' TO XRC4-BUD-AMT-CR.                             06840000
068500     MOVE XRC4-DETAIL-LINE TO BUDGET-EXTRACT-LIST.                06850000
068600     MOVE '0' TO LIST-CC.                                         06860000
068700     PERFORM 0710-PRINT-LINE.                                     06870000
068800 9000-BUDGET-TABLE-LOAD.                 COPY CPPDXBTB.           06880000
