       IDENTIFICATION DIVISION.                                         00000100
       PROGRAM-ID.    SLPGM101.                                         00000200
       AUTHOR.        FRANK WINDORSKI                                   00000300
       INSTALLATION.  U. C. BERKELEY.                                   00000400
       DATE-WRITTEN.  SEPTEMBER 1981.                                   00000500
       DATE-COMPILED.                                                   00000600
      ***************************************************************   00000700
      *                   CHANGE LOG                                    00000800
      *                                                                 00000900
      * 05-29-98    IA    FIS006 Y2K MODIFICATIONS                      00001000
      *                                                                 00001102
      *      ***********  PLEASE NOTE  ***********                      00001202
      *      RECOMPILE USING NO-ADVANCE OPTION!!!!                      00001302
      *      ***********  PLEASE NOTE  ***********                      00001402
                                                                        00001802
       ENVIRONMENT DIVISION.                                            00001900
       CONFIGURATION SECTION.                                           00002000
       SOURCE-COMPUTER.  IBM-370.                                       00002100
       OBJECT-COMPUTER.  IBM-370.                                       00002200
       SPECIAL-NAMES.                                                   00002300
           C01 IS NEW-PAGE.                                             00002400
       INPUT-OUTPUT SECTION.                                            00002500
       FILE-CONTROL.                                                    00002600
           SELECT CARD-FILE ASSIGN UT-S-SLSYSIN.                        00002700
           SELECT JOB-CONTROL-FILE ASSIGN DA-S-SLJOBCTL.                00002800
           SELECT PROGRAM-CONTROL-FILE ASSIGN DA-S-SLPGMCTL.            00002900
           SELECT REPORT-FILE ASSIGN UT-S-SLSYSOUT.                     00003000
       DATA DIVISION.                                                   00003100
       FILE SECTION.                                                    00003200
       FD  CARD-FILE                                                    00003300
           LABEL RECORDS OMITTED                                        00003400
           RECORDING MODE F                                             00003500
           RECORD CONTAINS 80 CHARACTERS                                00003600
           BLOCK CONTAINS 0 RECORDS                                     00003700
           DATA RECORD IS CARD-RECORD.                                  00003800
       01  CARD-RECORD                         PIC X(80).               00003900
       FD  JOB-CONTROL-FILE                    COPY CPFDXJCF.           00004000
       FD  PROGRAM-CONTROL-FILE                COPY CPFDXPCF.           00004100
       FD  REPORT-FILE                                                  00004200
           LABEL RECORDS STANDARD                                       00004300
           RECORDING MODE F                                             00004400
           RECORD CONTAINS 133 CHARACTERS                               00004500
           DATA RECORD IS REPORT-RECORD.                                00004600
       01  REPORT-RECORD                        PIC X(133).             00004700
           EJECT                                                        00004800
       WORKING-STORAGE SECTION.                                         00004900
       01  ITEM-SS                             PIC S9(04) COMP.         00005000
       01  WCTL-CONTROL-TABLE.                                          00005100
           05  FILLER                          PIC X(19) VALUE          00005200
               'SLJOB2SLPGM10110101'.                                   00005300
           05  FILLER                          PIC X(19) VALUE          00005400
               'SLJOB2SLPGM10510101'.                                   00005500
           05  FILLER                          PIC X(19) VALUE          00005600
               'SLJOB2SLPGM11010101'.                                   00005700
           05  FILLER                          PIC X(19) VALUE          00005800
               'SLJOB2SLPGM12010101'.                                   00005900
           05  FILLER                          PIC X(19) VALUE          00006000
               'SLJOB2SLPGM13110101'.                                   00006100
           05  FILLER                          PIC X(19) VALUE          00006200
               'SLJOB2SLPGM13510101'.                                   00006300
           05  FILLER                          PIC X(19) VALUE          00006400
               'SLJOB2SLPGM14010101'.                                   00006500
           05  FILLER                          PIC X(19) VALUE          00006600
               'SLJOB2SLPGM15010101'.                                   00006700
           05  FILLER                          PIC X(19) VALUE          00006800
               'SLJOB2SLPGM17010101'.                                   00006900
           05  FILLER                          PIC X(19) VALUE          00007000
               'SLJOB2SLPGM18010101'.                                   00007100
           05  FILLER                          PIC X(19) VALUE          00007200
               'SLJOB2SLPGM19010101'.                                   00007300
           05  FILLER                          PIC X(19) VALUE          00007400
               HIGH-VALUES.                                             00007500
       01  WCTL-REDEFINES                      REDEFINES                00007600
           WCTL-CONTROL-TABLE.                                          00007700
           05  WCTL-ENTRY                      OCCURS 12                00007800
                                               INDEXED BY IPGM.         00007900
               10  WCTL-JOB-PGM-SEQ.                                    00008000
                   15  WCTL-JOB                PIC X(06).               00008100
                   15  WCTL-PGM                PIC X(08).               00008200
                   15  WCTL-SEQ                PIC X(01).               00008300
               10  WCTL-VER-RANGE.                                      00008400
                   15  WCTL-VER-MIN            PIC X(02).               00008500
                   15  WCTL-VER-MAX            PIC X(02).               00008600
       01  WDL1-DTL-LINE-1.                                             00008700
           05  WDL1-CTL                        PIC X(01).               00008800
           05  WDL1-PREFIX.                                             00008900
               10  WDL1-JOB                    PIC X(06).               00009000
               10  FILLER                      PIC X(02).               00009100
               10  WDL1-PGM                    PIC X(08).               00009200
               10  FILLER                      PIC X(02).               00009300
               10  WDL1-SEQ                    PIC X(01).               00009400
               10  FILLER                      PIC X(03).               00009500
               10  WDL1-VER                    PIC X(02).               00009600
               10  FILLER                      PIC X(03).               00009700
           05  WDL1-ITEM                       PIC X(02).               00009800
           05  FILLER                          PIC X(02).               00009900
           05  WDL1-DATA                       PIC X(50).               00010000
           05  FILLER                          PIC X(01).               00010100
           05  WDL1-MSG                        PIC X(40).               00010200
       01  WHD1-COLUMN-HEADER.                                          00010300
           05  WHD1-CTL                        PIC X(01).               00010400
           05  FILLER                          PIC X(08) VALUE          00010500
               'JOB'.                                                   00010600
           05  FILLER                          PIC X(09) VALUE          00010700
               'PROGRAM'.                                               00010800
           05  FILLER                          PIC X(04) VALUE          00010900
               'SEQ'.                                                   00011000
           05  FILLER                          PIC X(05) VALUE          00011100
               'VER'.                                                   00011200
           05  FILLER                          PIC X(05) VALUE          00011300
               'ITEM'.                                                  00011400
           05  FILLER                          PIC X(30) VALUE          00011500
               'DESCRIPTION'.                                           00011600
           05  FILLER                          PIC X(21) VALUE          00011700
               'VALUE'.                                                 00011800
           05  FILLER                          PIC X(42) VALUE          00011900
               'MESSAGE'.                                               00012000
       01  WPCB-ITEM.                                                   00012100
           05  WPCB-ITEM-NO                    PIC X(02).               00012200
           05  WPCB-ITEM-DESC                  PIC X(29).               00012300
           05  WPCB-ITEM-VALUE                 PIC X(20).               00012400
           05  WPCB-ITEM-MSG                   PIC X(29).               00012500
       01  WPCB-DATE                           REDEFINES                00012600
           WPCB-ITEM.                                                   00012700
           05  FILLER                          PIC X(31).               00012800
           05  WPCB-DATE-VALUE.                                         00012900
               10  WPCB-MO                     PIC X(02).               00013000
               10  WPCB-DASH1                  PIC X(01).               00013100
               10  WPCB-DY                     PIC X(02).               00013200
               10  WPCB-DASH2                  PIC X(01).               00013300
               10  WPCB-YR                     PIC X(02).               00013400
               10  FILLER                      PIC X(12).               00013500
           05  FILLER                          PIC X(29).               00013600
       01  WPCB-RUN-TYPE                       REDEFINES                00013700
           WPCB-ITEM.                                                   00013800
           05  FILLER                          PIC X(31).               00013900
           05  WPCB-RUN-TYPE-VALUE             PIC X(20).               00014000
           05  FILLER                          PIC X(29).               00014100
       01  WPCB-BUD-ID                         REDEFINES                00014200
           WPCB-ITEM.                                                   00014300
           05  FILLER                          PIC X(31).               00014400
           05  WPCB-BUD-VALUE.                                          00014500
               10  WPCB-BUD-CYCLE-PICX.                                 00014600
                   15  WPCB-BUD-CYCLE-PIC9     PIC S9(3).               00014700
               10  WPCB-BUD-FILLER             PIC X(17).               00014800
           05  FILLER                          PIC X(29).               00014900
       01  WPCB-PVN-ID                         REDEFINES                00015000
           WPCB-ITEM.                                                   00015100
           05  FILLER                          PIC X(31).               00015200
           05  WPCB-PVN-VALUE.                                          00015300
               10  WPCB-PVN-RUN-CYCLE          PIC X(03).               00015400
               10  WPCB-PVN-FILLER             PIC X(17).               00015500
           05  FILLER                          PIC X(29).               00015600
00IA                                                                    00015700
00IA   01  WS-ACCEPT-DATE.                                              00015800
00IA       05  WS-ACCEPT-DATE-YEAR             PIC X(02) VALUE SPACES.  00015900
00IA       05  WS-ACCEPT-DATE-MONTH            PIC X(02) VALUE SPACES.  00016000
00IA       05  WS-ACCEPT-DATE-DAY              PIC X(02) VALUE SPACES.  00016100
00IA                                                                    00016200
       01  WMSC-MISCELLANEOUS.                                          00016400
           05  WMSC-REPORT-TITLE.                                       00016500
               10  FILLER                      PIC X(40) VALUE SPACES.  00016600
               10  FILLER                      PIC X(29) VALUE          00016700
                   'SLJOB2 JOB CONTROL PROOF LIST'.                     00016800
           05  WMSC-LINE-NO                    PIC S9(03) COMP-3.       00016900
           05  WMSC-PAGE-NO                    PIC S9(03) COMP-3.       00017000
           05  WMSC-LAST-PREFIX                PIC X(27) VALUE          00017100
               LOW-VALUES.                                              00017200
           05  WMSC-LAST-KEY                   PIC X(19) VALUE          00017300
               LOW-VALUES.                                              00017400
           05  WMSC-CUR-PCB                    PIC X(17).               00017500
           05  WMSC-CARD-EOF                   PIC X(03) VALUE 'NO'.    00017600
           05  WMSC-CUR-JOB-PGM-SEQ.                                    00017700
               10  WMSC-CUR-JOB                PIC X(06).               00017800
               10  WMSC-CUR-PGM                PIC X(08).               00017900
               10  WMSC-CUR-SEQ                PIC X(01).               00018000
           05  WMSC-CUR-VER                    PIC X(02).               00018100
           05  WMSC-VER-CNT                    PIC S9(3) COMP-3.        00018200
           05  WMSC-ITEM-CNT                   PIC S9(3) COMP-3.        00018300
           05  WMSC-PROOF-LIST-MSG.                                     00018400
               10  FILLER                      PIC X(01).               00018500
               10  FILLER                      PIC X(26) VALUE          00018600
                   '*****  PROOF LIST ERROR -'.                         00018700
               10  FILLER                      PIC X(31) VALUE          00018800
                   'CORRECT CONTROL CARDS AND RERUN'.                   00018900
               10  FILLER                      PIC X(07) VALUE          00019000
                   '  *****'.                                           00019100
       01  XCMP-CAMPUS-PARAMETERS.             COPY CPWSXCMP.           00019200
       01  XHDR-STANDARD-REPORT-HEADER.        COPY CPWSXHDR.           00019300
       01  XJCB-JOB-CONTROL-BLOCK.             COPY CPWSXJCB.           00019400
       01  XPCB-PROGRAM-CONTROL-BLOCK.         COPY CPWSXPCB.           00019500
       01  XPPC-PROGRAM-PARAMETER-CARD.        COPY CPWSXPPC.           00019600
           EJECT                                                        00019700
       PROCEDURE DIVISION.                                              00019800
                                                                        00019900
       0100-MAIN-CONTROL.                                               00020000
           DISPLAY 'SLPGM101 BEGIN'.                                    00020100
           PERFORM 0110-OPEN-FILES.                                     00020200
           PERFORM 0120-SETUP-STD-RPT-HDR.                              00020300
           MOVE SPACES TO XJCB-JOB-CONTROL-BLOCK                        00020400
                          XPCB-PROGRAM-CONTROL-BLOCK.                   00020500
           MOVE 'SLJOB2' TO XJCB-JOB-NAME.                              00020600
           MOVE 'STAFFING MASTER FILE CREATE' TO                        00020700
                XJCB-JOB-DESCRIPTION.                                   00020800
           MOVE '001' TO XJCB-SL-RUN-CYCLE-OUT.                         00020900
           PERFORM 0130-READ-CARD.                                      00021000
           SET IPGM TO 1.                                               00021100
           PERFORM 0200-NEXT-PGM-SEQ                                    00021200
                   VARYING IPGM FROM 1 BY 1                             00021300
                   UNTIL WCTL-JOB-PGM-SEQ (IPGM) = HIGH-VALUES.         00021400
           PERFORM 0140-INVALID-JOB-PGM-SEQ                             00021500
                   UNTIL WMSC-CARD-EOF = 'YES'.                         00021600
           WRITE XJCF-JOB-CONTROL-RECORD FROM XJCB-JOB-CONTROL-BLOCK    00021700
                 INVALID KEY PERFORM 0101-JCB-INVALID-KEY.              00021800
           IF XJCB-PROOF-LIST-ERROR                                     00021900
              MOVE WMSC-PROOF-LIST-MSG TO WDL1-DTL-LINE-1               00022000
              PERFORM 0180-PRINT-DTL-LINE                               00022100
           ELSE                                                         00022200
              MOVE ' ***** ALL CARDS OK *****' TO WDL1-DTL-LINE-1       00022300
              PERFORM 0180-PRINT-DTL-LINE.                              00022400
           PERFORM 0150-CLOSE-FILES.                                    00022500
           IF XJCB-PROOF-LIST-ERROR                                     00022600
              OPEN OUTPUT JOB-CONTROL-FILE                              00022700
                          PROGRAM-CONTROL-FILE                          00022800
              CLOSE JOB-CONTROL-FILE                                    00022900
                    PROGRAM-CONTROL-FILE                                00023000
              DISPLAY 'SLPGM101 CONTROL CARD ERROR'                     00023100
           ELSE                                                         00023200
              DISPLAY 'SLPGM101 CONTROL CARDS OK'.                      00023300
           DISPLAY 'SLPGM101 END'.                                      00023400
           STOP RUN.                                                    00023500
       0101-JCB-INVALID-KEY.                                            00023600
           MOVE ' *****  JOB CONTROL FILE NOT ALLOCATED  *****' TO      00023700
                WDL1-DTL-LINE-1.                                        00023800
           PERFORM 0180-PRINT-DTL-LINE.                                 00023900
           EJECT                                                        00024000
       0110-OPEN-FILES.                                                 00024100
           OPEN INPUT  CARD-FILE.                                       00024200
           OPEN OUTPUT JOB-CONTROL-FILE                                 00024300
                       PROGRAM-CONTROL-FILE                             00024400
                       REPORT-FILE.                                     00024500
       0120-SETUP-STD-RPT-HDR.                                          00024600
           MOVE SPACES TO XHD1-STD-RPT-HDR-LINE-1                       00024700
                          XHD2-STD-RPT-HDR-LINE-2                       00024800
                          XHD3-STD-RPT-HDR-LINE-3.                      00024900
           MOVE 'SLRPT100' TO XHD1-RPT-NAME.                            00025000
           MOVE WMSC-REPORT-TITLE TO XHD1-RPT-TITLE.                    00025100
           MOVE XHDC-RPT-PAGE-ID TO XHD1-RPT-PAGE-ID.                   00025200
           MOVE +0 TO WMSC-PAGE-NO.                                     00025300
           MOVE +99 TO WMSC-LINE-NO.                                    00025400
           MOVE XHDC-LOC-ID TO XHD2-LOC-ID.                             00025500
           MOVE XCMP-LOC TO XHD2-LOC.                                   00025600
           MOVE XCMP-LOC-TITLE TO XHD2-LOC-TITLE.                       00025700
           MOVE XHDC-JOB-DATE-ID TO XHD2-REPORT-DATE-ID.                00025800
           MOVE '--------' TO XHD2-REPORT-DATE.                         00025900
           MOVE XHDC-RUN-DATE-ID TO XHD3-RUN-DATE-ID.                   00026000
00IA  *    MOVE CURRENT-DATE TO XHD3-RUN-DATE.                          00026100
00IA       ACCEPT WS-ACCEPT-DATE       FROM DATE.                       00026200
00IA       MOVE WS-ACCEPT-DATE-YEAR    TO XHD3-RUN-YEAR.                00026300
00IA       MOVE WS-ACCEPT-DATE-MONTH   TO XHD3-RUN-MONTH.               00026400
00IA       MOVE WS-ACCEPT-DATE-DAY     TO XHD3-RUN-DAY.                 00026500
           MOVE '-' TO XHD3-DASH1                                       00027000
                       XHD3-DASH2.                                      00027100
       0130-READ-CARD.                                                  00027200
           READ CARD-FILE INTO XPPC-PROGRAM-PARAMETER-CARD              00027300
                AT END MOVE 'YES' TO WMSC-CARD-EOF.                     00027400
           IF WMSC-CARD-EOF = 'NO'                                      00027500
              IF XPPC-KEY GREATER WMSC-LAST-KEY                         00027600
                 MOVE XPPC-KEY TO WMSC-LAST-KEY                         00027700
              ELSE                                                      00027800
                 PERFORM 0170-FORMAT-DTL-LINE                           00027900
                 MOVE 'CARD OUT OF SEQUENCE' TO WDL1-MSG                00028000
                 PERFORM 0180-PRINT-DTL-LINE                            00028100
                 MOVE 'PROOF' TO XJCB-JOB-STATUS                        00028200
                 GO TO 0130-READ-CARD.                                  00028300
       0140-INVALID-JOB-PGM-SEQ.                                        00028400
           PERFORM 0170-FORMAT-DTL-LINE.                                00028500
           MOVE 'INVALID JOB-PROGRAM-SEQ' TO WDL1-MSG.                  00028600
           PERFORM 0180-PRINT-DTL-LINE.                                 00028700
           MOVE 'PROOF' TO XJCB-JOB-STATUS.                             00028800
           PERFORM 0130-READ-CARD.                                      00028900
       0150-CLOSE-FILES.                                                00029000
           CLOSE CARD-FILE                                              00029100
                 JOB-CONTROL-FILE                                       00029200
                 PROGRAM-CONTROL-FILE                                   00029300
                 REPORT-FILE.                                           00029400
           EJECT                                                        00029500
       0170-FORMAT-DTL-LINE.                                            00029600
           MOVE SPACES TO WDL1-DTL-LINE-1.                              00029700
           MOVE XPPC-JOB TO WDL1-JOB.                                   00029800
           MOVE XPPC-PGM TO WDL1-PGM.                                   00029900
           MOVE XPPC-SEQ TO WDL1-SEQ.                                   00030000
           MOVE XPPC-VER TO WDL1-VER.                                   00030100
           MOVE XPPC-ITEM-PICX TO WDL1-ITEM.                            00030200
           MOVE XPPC-DATA TO WDL1-DATA.                                 00030300
       0180-PRINT-DTL-LINE.                                             00030400
           IF WDL1-PREFIX = WMSC-LAST-PREFIX                            00030500
              COMPUTE WMSC-LINE-NO = WMSC-LINE-NO + 1                   00030600
           ELSE                                                         00030700
              COMPUTE WMSC-LINE-NO = WMSC-LINE-NO + 2.                  00030800
           IF WMSC-LINE-NO GREATER +60                                  00030900
              PERFORM 0190-PRINT-HDR                                    00031000
              MOVE +7 TO WMSC-LINE-NO.                                  00031100
           IF WDL1-PREFIX = WMSC-LAST-PREFIX                            00031200
              MOVE '1' TO WDL1-CTL                                      00031300
              MOVE SPACES TO WDL1-PREFIX                                00031400
           ELSE                                                         00031500
              MOVE '2' TO WDL1-CTL                                      00031600
              MOVE WDL1-PREFIX TO WMSC-LAST-PREFIX.                     00031700
           IF WMSC-LINE-NO = +7                                         00031800
              MOVE '2' TO WDL1-CTL.                                     00031900
           IF WDL1-CTL = '1'                                            00032000
              WRITE REPORT-RECORD FROM WDL1-DTL-LINE-1                  00032100
                    AFTER ADVANCING 1                                   00032200
           ELSE                                                         00032300
              WRITE REPORT-RECORD FROM WDL1-DTL-LINE-1                  00032400
                    AFTER ADVANCING 2.                                  00032500
       0190-PRINT-HDR.                                                  00032600
           COMPUTE WMSC-PAGE-NO = WMSC-PAGE-NO + 1.                     00032700
           MOVE WMSC-PAGE-NO TO XHD1-RPT-PAGE-NO.                       00032800
           WRITE REPORT-RECORD FROM XHD1-STD-RPT-HDR-LINE-1             00032900
                 AFTER ADVANCING NEW-PAGE.                              00033000
           WRITE REPORT-RECORD FROM XHD2-STD-RPT-HDR-LINE-2             00033100
                 AFTER ADVANCING 1.                                     00033200
           WRITE REPORT-RECORD FROM XHD3-STD-RPT-HDR-LINE-3             00033300
                 AFTER ADVANCING 1.                                     00033400
           WRITE REPORT-RECORD FROM WHD1-COLUMN-HEADER                  00033500
                 AFTER ADVANCING 2.                                     00033600
           EJECT                                                        00033700
       0200-NEXT-PGM-SEQ.                                               00033800
           MOVE WCTL-JOB-PGM-SEQ (IPGM) TO WMSC-CUR-JOB-PGM-SEQ.        00033900
           PERFORM 0140-INVALID-JOB-PGM-SEQ                             00034000
                   UNTIL XPPC-JOB-PGM-SEQ NOT LESS                      00034100
                         WMSC-CUR-JOB-PGM-SEQ OR                        00034200
                         WMSC-CARD-EOF = 'YES'.                         00034300
           MOVE +0 TO WMSC-VER-CNT.                                     00034400
           MOVE SPACES TO XPCB-PROGRAM-CONTROL-BLOCK.                   00034500
           PERFORM 0210-NEXT-VERSION                                    00034600
                   UNTIL WMSC-CARD-EOF = 'YES' OR                       00034700
                         XPPC-JOB-PGM-SEQ GREATER                       00034800
                         WMSC-CUR-JOB-PGM-SEQ.                          00034900
           IF IPGM = 1                                                  00035000
              PERFORM 0360-MISSING-JOB-CARD-EDIT                        00035100
           ELSE                                                         00035200
              IF WMSC-VER-CNT = +0                                      00035300
                 MOVE SPACES TO XPCB-PROGRAM-CONTROL-BLOCK              00035400
                 MOVE WMSC-CUR-JOB TO XPCB-JOB-NAME                     00035500
                 MOVE WMSC-CUR-PGM TO XPCB-PROGRAM-NAME                 00035600
                 MOVE WMSC-CUR-SEQ TO XPCB-SEQUENCE-OPTION              00035700
                 MOVE WCTL-VER-MIN (IPGM) TO XPCB-VERSION-NO            00035800
                 PERFORM 0240-WRITE-PCB.                                00035900
       0210-NEXT-VERSION.                                               00036000
           MOVE XPPC-VER TO WMSC-CUR-VER.                               00036100
           IF WMSC-CUR-VER LESS WCTL-VER-MIN (IPGM) OR                  00036200
              WMSC-CUR-VER GREATER WCTL-VER-MAX (IPGM)                  00036300
              PERFORM 0220-VERSION-OUT-OF-RANGE                         00036400
                      UNTIL WMSC-CARD-EOF = 'YES' OR                    00036500
                            XPPC-JOB-PGM-SEQ GREATER                    00036600
                            WMSC-CUR-JOB-PGM-SEQ OR                     00036700
                            XPPC-VER GREATER WMSC-CUR-VER.              00036800
           MOVE SPACES TO XPCB-PROGRAM-CONTROL-BLOCK.                   00036900
           MOVE WMSC-CUR-JOB TO XPCB-JOB-NAME.                          00037000
           MOVE WMSC-CUR-PGM TO XPCB-PROGRAM-NAME.                      00037100
           MOVE WMSC-CUR-SEQ TO XPCB-SEQUENCE-OPTION.                   00037200
           MOVE WMSC-CUR-VER TO XPCB-VERSION-NO.                        00037300
           MOVE +0 TO WMSC-ITEM-CNT.                                    00037400
           PERFORM 0250-CURRENT-VERSION                                 00037500
                   UNTIL WMSC-CARD-EOF = 'YES' OR                       00037600
                         XPPC-JOB-PGM-SEQ GREATER                       00037700
                         WMSC-CUR-JOB-PGM-SEQ OR                        00037800
                         XPPC-VER GREATER WMSC-CUR-VER.                 00037900
           IF WMSC-ITEM-CNT GREATER +0                                  00038000
              PERFORM 0240-WRITE-PCB                                    00038100
              COMPUTE WMSC-VER-CNT = WMSC-VER-CNT + 1.                  00038200
       0220-VERSION-OUT-OF-RANGE.                                       00038300
           PERFORM 0170-FORMAT-DTL-LINE.                                00038400
           MOVE 'INVALID VERSION - OUT OF RANGE' TO WDL1-MSG.           00038500
           PERFORM 0180-PRINT-DTL-LINE.                                 00038600
           PERFORM 0130-READ-CARD.                                      00038700
       0240-WRITE-PCB.                                                  00038800
           IF IPGM = 1                                                  00038900
              IF XJCB-PROOF-LIST-ERROR                                  00039000
                 NEXT SENTENCE                                          00039100
              ELSE                                                      00039200
                 MOVE 'OK' TO XPCB-PARM-EDIT-STATUS                     00039300
                 MOVE 'RAN OK' TO XPCB-PROGRAM-RUN-STATUS.              00039400
           IF XJCB-PROOF-LIST-ERROR                                     00039500
              NEXT SENTENCE                                             00039600
           ELSE                                                         00039700
              WRITE XPCF-PROGRAM-CONTROL-RECORD FROM                    00039800
                    XPCB-PROGRAM-CONTROL-BLOCK                          00039900
                    INVALID KEY PERFORM 0241-PCF-INVALID-KEY.           00040000
       0241-PCF-INVALID-KEY.                                            00040100
           MOVE ' *****  PROGRAM CONTROL FILE FULL  *****' TO           00040200
                WDL1-DTL-LINE-1.                                        00040300
           PERFORM 0180-PRINT-DTL-LINE.                                 00040400
           MOVE 'PROOF' TO XJCB-JOB-STATUS.                             00040500
           EJECT                                                        00040600
       0250-CURRENT-VERSION.                                            00040700
           PERFORM 0170-FORMAT-DTL-LINE.                                00040800
           IF XPPC-ITEM-PIC9 NUMERIC AND                                00040900
              XPPC-ITEM-PIC9 GREATER 0 AND                              00041000
              XPPC-ITEM-PIC9 LESS 13                                    00041100
              MOVE XPPC-ITEM-PIC9 TO ITEM-SS                            00041200
              MOVE XPPC-ITEM-PIC9 TO XPCB-ITEM-ID (ITEM-SS)             00041300
              MOVE XPPC-DESC TO XPCB-ITEM-DESCRIPTION (ITEM-SS)         00041400
              MOVE XPPC-VALUE TO XPCB-ITEM-VALUE (ITEM-SS)              00041500
              IF IPGM = 1                                               00041600
                 PERFORM 0300-JOB-CARD-EDIT                             00041700
              ELSE                                                      00041800
                 NEXT SENTENCE                                          00041900
           ELSE                                                         00042000
              MOVE 'INVALID ITEM NUMBER' TO WDL1-MSG                    00042100
              MOVE 'PROOF' TO XJCB-JOB-STATUS.                          00042200
           COMPUTE WMSC-ITEM-CNT = WMSC-ITEM-CNT + 1.                   00042300
           IF WDL1-MSG = SPACES                                         00042400
              MOVE 'OK' TO WDL1-MSG.                                    00042500
           PERFORM 0180-PRINT-DTL-LINE.                                 00042600
           PERFORM 0130-READ-CARD.                                      00042700
       0300-JOB-CARD-EDIT.                                              00042800
           MOVE XPCB-ITEM (ITEM-SS) TO WPCB-ITEM.                       00042900
           IF ITEM-SS = +1                                              00043000
              PERFORM 0310-DATE-EDIT.                                   00043100
           IF ITEM-SS = +2                                              00043200
              PERFORM 0320-RUN-TYPE-EDIT.                               00043300
           IF ITEM-SS = +3                                              00043400
              PERFORM 0330-BUD-INPUT-EDIT.                              00043500
           IF ITEM-SS = +4                                              00043600
              PERFORM 0340-PAY-INPUT-EDIT.                              00043700
           IF ITEM-SS = +5                                              00043800
              PERFORM 0350-PVN-INPUT-EDIT.                              00043900
           IF ITEM-SS LESS +1 OR                                        00044000
              ITEM-SS GREATER +5                                        00044100
              MOVE 'SLPGM101 NO SUCH ITEM' TO WDL1-MSG                  00044200
              MOVE 'PROOF' TO XJCB-JOB-STATUS.                          00044300
       0310-DATE-EDIT.                                                  00044400
           MOVE WPCB-DATE-VALUE TO XHD2-REPORT-DATE.                    00044500
00IA       IF WPCB-YR NOT NUMERIC                                       00044601
00IA          MOVE 'BAD JOB DATE' TO WDL1-MSG                           00044701
00IA          MOVE 'PROOF' TO XJCB-JOB-STATUS.                          00044801
           IF WPCB-MO LESS '01' OR                                      00045100
              WPCB-MO GREATER '12' OR                                   00045200
              WPCB-DY LESS '01' OR                                      00045300
              WPCB-DY GREATER '31' OR                                   00045400
00IA  *       WPCB-YR LESS '80' OR                                      00045501
              WPCB-DASH1 NOT EQUAL '-' OR                               00045600
              WPCB-DASH2 NOT EQUAL '-'                                  00045700
              MOVE 'BAD JOB DATE' TO WDL1-MSG                           00045800
              MOVE 'PROOF' TO XJCB-JOB-STATUS                           00045900
           ELSE                                                         00046000
              MOVE WPCB-MO TO XJCB-JOB-MONTH                            00046100
              MOVE WPCB-DY TO XJCB-JOB-DAY                              00046200
              MOVE WPCB-YR TO XJCB-JOB-YEAR.                            00046300
       0320-RUN-TYPE-EDIT.                                              00046400
           IF WPCB-RUN-TYPE-VALUE = 'TEST'                              00046500
              IF XJCB-PROOF-LIST-ERROR                                  00046600
                 NEXT SENTENCE                                          00046700
              ELSE                                                      00046800
                 MOVE 'TEST' TO XJCB-JOB-STATUS                         00046900
           ELSE                                                         00047000
              IF WPCB-RUN-TYPE-VALUE = 'PROD'                           00047100
                 NEXT SENTENCE                                          00047200
              ELSE                                                      00047300
                 MOVE 'BAD RUN-TYPE SPECIFICATION' TO WDL1-MSG          00047400
                 MOVE 'PROOF' TO XJCB-JOB-STATUS.                       00047500
       0330-BUD-INPUT-EDIT.                                             00047600
           IF WPCB-BUD-CYCLE-PIC9 NUMERIC AND                           00047700
              WPCB-BUD-FILLER = SPACES                                  00047800
              MOVE WPCB-BUD-CYCLE-PICX TO XJCB-BUDGET-RUN-CYCLE-IN      00047900
           ELSE                                                         00048000
              MOVE 'BAD BUDGET RUN CYCLE' TO WDL1-MSG                   00048100
              MOVE 'PROOF' TO XJCB-JOB-STATUS.                          00048200
       0340-PAY-INPUT-EDIT.                                             00048300
           IF WPCB-ITEM-VALUE NOT EQUAL SPACES                          00048400
              MOVE WPCB-ITEM-VALUE TO XJCB-PAY-MSTR-ID                  00048500
           ELSE                                                         00048600
              MOVE 'BAD PAYROLL FILE ID' TO WDL1-MSG                    00048700
              MOVE 'PROOF' TO XJCB-JOB-STATUS.                          00048800
       0350-PVN-INPUT-EDIT.                                             00048900
           IF WPCB-PVN-RUN-CYCLE NUMERIC AND                            00049000
              WPCB-PVN-FILLER = SPACES                                  00049100
              MOVE WPCB-PVN-RUN-CYCLE TO XJCB-PVN-RUN-CYCLE-IN          00049200
           ELSE                                                         00049300
              MOVE 'BAD PROVISION FILE ID' TO WDL1-MSG                  00049400
              MOVE 'PROOF' TO XJCB-JOB-STATUS.                          00049500
       0360-MISSING-JOB-CARD-EDIT.                                      00049600
           IF XPCB-ITEM-ID (1) NOT EQUAL '01'                           00049700
              MOVE ' *****  MISSING SLPGM101 JOB DATE' TO               00049800
                   WDL1-DTL-LINE-1                                      00049900
              PERFORM 0180-PRINT-DTL-LINE                               00050000
              MOVE 'PROOF' TO XJCB-JOB-STATUS.                          00050100
           IF XPCB-ITEM-ID (2) NOT EQUAL '02'                           00050200
              MOVE ' *****  MISSING SLPGM101 RUN TYPE' TO               00050300
                   WDL1-DTL-LINE-1                                      00050400
              PERFORM 0180-PRINT-DTL-LINE                               00050500
              MOVE 'PROOF' TO XJCB-JOB-STATUS.                          00050600
           IF XPCB-ITEM-ID (3) NOT EQUAL '03'                           00050700
              MOVE ' *****  MISSING SLPGM101 BUDGET RUN CYCLE' TO       00050800
                   WDL1-DTL-LINE-1                                      00050900
              PERFORM 0180-PRINT-DTL-LINE                               00051000
              MOVE 'PROOF' TO XJCB-JOB-STATUS.                          00051100
           IF XPCB-ITEM-ID (4) NOT EQUAL '04'                           00051200
              MOVE ' *****  MISSING SLPGM101 PAYROLL FILE ID' TO        00051300
                   WDL1-DTL-LINE-1                                      00051400
              PERFORM 0180-PRINT-DTL-LINE                               00051500
              MOVE 'PROOF' TO XJCB-JOB-STATUS.                          00051600
           IF XPCB-ITEM-ID (5) NOT EQUAL '05'                           00051700
              MOVE ' *****  MISSING SLPGM101 PROVISION FILE ID' TO      00051800
                   WDL1-DTL-LINE-1                                      00051900
              PERFORM 0180-PRINT-DTL-LINE                               00052000
              MOVE 'PROOF' TO XJCB-JOB-STATUS.                          00060000
