       IDENTIFICATION DIVISION.
       PROGRAM-ID.    UDSF915.
       AUTHOR.        SCOTT S. STECKBAUER (TIERRA SYSTEMS).
       DATE-WRITTEN.  DECEMBER 1996.
       DATE-COMPILED.
      ******************************************************************
      ******************************************************************
      **                                                              **
      **  IFIS  -  PURGE REQUEST PROCESSING.                          **
      **                                                              **
      **  THIS PROGRAM READS A FLAT FILE BASED ON THE PURGE PROCESS.  **
      **  THE ORIGINAL FILE IS PRODUCED IN PUM330A.  IT CONTAINS THE  **
      **  DATA FOR THE RECORDS R4070-, R4071- & R4080-.  FOR EACH     **
      **  INPUT RECORD READ, AN OUTPUT RECORD IS WRITTEN.  THREE      **
      **  OUTPUT FILES ARE PRODUCED, ONE FOR EACH OF THE THREE RECORD **
      **  TYPES.                                                      **
      **                                                              **
      ******************************************************************
      **                                                              **
      **  SUBSCHEMA RECORDS:                                          **
      **            R4070-RQST, R4071-RQST-DTL & R4080-RQST-ACCT.     **
      **                                                              **
      **  INPUT:    PO-REQUEST-PURGE-FILE,                            **
      **            PO-BUYERS-FILE,                                   **
      **            PO-RQST-CMDTY-FILE,                               **
      **            PO-RQST-BIDDTL-FILE,                              **
      **            ARCHIVE-DATE-FILE.                                **
      **                                                              **
      **  OUTPUT:   COMBINED-PO-RQST-PURGE-FILE                       **
      **                                                              **
      ******************************************************************
      **                                                              **
      **                   CHANGE HISTORY                             **
      **                                                              **
      **  REF  AUTH    DATE     DESCRIPTION                  CSR NO.  **
      **  ---  ----   ------   ---------------------------  --------- **
      **       SSS   12/12/96  ORIGINAL VERSION OF PGM.      CDS-012  **
      **                                                              **
      ******************************************************************
      ******************************************************************

           EJECT

       ENVIRONMENT DIVISION.
       CONFIGURATION SECTION.
       SOURCE-COMPUTER.
       OBJECT-COMPUTER.

       INPUT-OUTPUT SECTION.
       FILE-CONTROL.

           SELECT  PO-REQUEST-PURGE-FILE          ASSIGN  TO  RQSTPRG.

           SELECT  PO-BUYERS-FILE                 ASSIGN  TO  POBUYERS.

           SELECT  PO-RQST-CMDTY-FILE             ASSIGN  TO  PORQCMDT.

           SELECT  PO-RQST-BIDDTL-FILE            ASSIGN  TO  PORQBID.

           SELECT  ARCHIVE-DATE-FILE              ASSIGN  TO  ARCHIVED.

           SELECT  COMBINED-PO-RQST-PURGE-FILE    ASSIGN  TO  CMBNDPRG.

           EJECT

       DATA DIVISION.
       FILE SECTION.

      ******************************************************************
      **   PO REQUEST PURGE FILE                                      **
      ******************************************************************

       FD  PO-REQUEST-PURGE-FILE
           RECORDING  MODE    IS  F
           LABEL   RECORDS   ARE  STANDARD
           BLOCK   CONTAINS    0  RECORDS
           RECORD  CONTAINS  355  CHARACTERS.

       01  PO-REQUEST-PURGE-RECORD   PIC  X(355).





      ******************************************************************
      **   PO BUYERS FILE                                             **
      ******************************************************************

       FD  PO-BUYERS-FILE
           RECORDING  MODE    IS  F
           LABEL   RECORDS   ARE  STANDARD
           BLOCK   CONTAINS    0  RECORDS
           RECORD  CONTAINS  080  CHARACTERS.

       01  PO-BUYERS-RECORD       PIC  X(080).





      ******************************************************************
      **   PO RQST CMDTY FILE                                         **
      ******************************************************************

       FD  PO-RQST-CMDTY-FILE
           RECORDING  MODE    IS  F
           LABEL   RECORDS   ARE  STANDARD
           BLOCK   CONTAINS    0  RECORDS
           RECORD  CONTAINS  080  CHARACTERS.

       01  PO-RQST-CMDTY-RECORD   PIC  X(080).

           EJECT

      ******************************************************************
      **   PO RQST BID DTL FILE                                       **
      ******************************************************************

       FD  PO-RQST-BIDDTL-FILE
           RECORDING  MODE    IS  F
           LABEL   RECORDS   ARE  STANDARD
           BLOCK   CONTAINS    0  RECORDS
           RECORD  CONTAINS  080  CHARACTERS.

       01  PO-RQST-BIDDTL-RECORD  PIC  X(080).





      ******************************************************************
      **   ARCHIVE DATE FILE                                          **
      ******************************************************************

       FD  ARCHIVE-DATE-FILE
           RECORDING  MODE    IS  F
           LABEL   RECORDS   ARE  STANDARD
           BLOCK   CONTAINS    0  RECORDS
           RECORD  CONTAINS  080  CHARACTERS.

       01  ARCHIVE-DATE-RECORD    PIC  X(080).

           EJECT

      ******************************************************************
      **   COMBINED PO RQST PURGE FILE                                **
      ******************************************************************

       FD  COMBINED-PO-RQST-PURGE-FILE
           RECORDING  MODE    IS  F
           LABEL   RECORDS   ARE  STANDARD
           BLOCK   CONTAINS    0  RECORDS
           RECORD  CONTAINS  600  CHARACTERS.

       01  COMBINED-PO-RQST-PURGE-RECORD    PIC  X(600).

           EJECT

      ******************************************************************
       WORKING-STORAGE SECTION.
      ******************************************************************

       01  WS-BEGINNING-DISPLAY.
           05  FILLER                         PIC  X(45)  VALUE
               '**  WORKING STORAGE BEGINS HERE            **'.

      ******************************************************************
      **   REQUEST PURGE RECORD LAYOUT                                **
      ******************************************************************

       01  FILLER                             PIC  X(45)  VALUE
               '**  REQUEST PURGE RECORD BEGINS HERE       **'.

       01  PO-REQUEST-PURGE-REC.                                        03940016
           05  REQUEST-PRG-KEY.
               10  RQST-PRG-UNVRS-CODE        PIC  X(02).               03940016
               10  RQST-PRG-PO-NMBR           PIC  X(08).
               10  RQST-PRG-REC-TYPE          PIC  X(05).
               10  RQST-PRG-DBKEY             PIC S9(08) COMP.
               10  FILLER                     PIC  X(01).
           05  REQUEST-PRG-SORT.
               10  RQST-PRG-PO-NMBR-SORT      PIC  X(08).
               10  RQST-PRG-CHG-SEQ-SORT      PIC  X(03).
               10  RQST-PRG-ITEM-SORT         PIC  9(04).
               10  RQST-PRG-SEQ-SORT          PIC  9(04).
               10  RQST-PRG-RQST-CODE-SORT    PIC  X(08).
               10  RQST-PRG-RQST-ITEM-SORT    PIC  9(04).
               10  RQST-PRG-RQST-SEQ-SORT     PIC  9(04).
               10  RQST-PRG-INV-NMBR-SORT     PIC  X(08).
               10  RQST-PRG-INV-ITEM-SORT     PIC  9(04).
               10  RQST-PRG-INV-SEQ-SORT      PIC  9(04).
               10  RQST-PRG-TEXT-CTR-SORT     PIC  9(03).
               10  FILLER                     PIC  X(01).
           05  REQUEST-PRG-UNIQUE-RECS        PIC  X(280).


       01  FILLER                             PIC  X(45)  VALUE
               '**  REQUEST PURGE RECORD ENDS HERE         **'.

           EJECT

      ******************************************************************
      **   PO BUYERS RECORD LAYOUT                                    **
      ******************************************************************

       01  FILLER                             PIC  X(45)  VALUE
               '**  PO BUYERS RECORD BEGINS HERE           **'.

       01  PO-BUYERS-REC.                                               03940016
           05  POB-KEY.
               10  POB-PO-NUMBER              PIC  X(08).
           05  POB-BUYER-CODE                 PIC  X(04).
           05  FILLER                         PIC  X(68).               03940016


       01  FILLER                             PIC  X(45)  VALUE
               '**  PO BUYERS RECORD ENDS HERE             **'.

           EJECT

      ******************************************************************
      **   PO RQST CMDTY RECORD LAYOUT                                **
      ******************************************************************

       01  FILLER                             PIC  X(45)  VALUE
               '**  PO RQST CMDTY RECORD BEGINS HERE       **'.

       01  PO-RQST-CMDTY-REC.                                           03940016
           05  PORQ-CMDTY-KEY.
               10  PORQ-CMDTY-POH-NO          PIC  X(08).
               10  PORQ-CMDTY-POH-SEQ         PIC  X(03).
               10  PORQ-CMDTY-POD-NO          PIC  X(04).
               10  PORQ-CMDTY-RQSTH-NO        PIC  X(08).
               10  PORQ-CMDTY-RQSTD-NO        PIC  X(04).
           05  PORQ-CMDTY-CODE                PIC  X(08).
           05  FILLER                         PIC  X(45).               03940016


       01  FILLER                             PIC  X(45)  VALUE
               '**  PO RQST CMDTY RECORD ENDS HERE         **'.

           EJECT

      ******************************************************************
      **   PO RQST BID DTL RECORD LAYOUT                              **
      ******************************************************************

       01  FILLER                             PIC  X(45)  VALUE
               '**  PO RQST BID DTL RECORD BEGINS HERE     **'.

       01  PO-RQST-BIDDTL-REC.                                          03940016
           05  PORQ-BIDDTL-KEY.
               10  PORQ-BIDDTL-POH-NO         PIC  X(08).
               10  PORQ-BIDDTL-POH-SEQ        PIC  X(03).
               10  PORQ-BIDDTL-POD-NO         PIC  X(04).
               10  PORQ-BIDDTL-RQSTH-NO       PIC  X(08).
               10  PORQ-BIDDTL-RQSTD-NO       PIC  X(04).
           05  PORQ-BID-NUMBER                PIC  X(08).
           05  FILLER                         PIC  X(45).               03940016


       01  FILLER                             PIC  X(45)  VALUE
               '**  PO RQST BID DTL RECORD ENDS HERE       **'.

           EJECT

      ******************************************************************
      **   ARCHIVE DATE RECORD LAYOUT                                 **
      ******************************************************************

       01  FILLER                             PIC  X(45)  VALUE
               '**  ARCHIVE DATE RECORD BEGINS HERE        **'.

       01  ARCHIVE-DATE-REC.                                            03940016
           05  IN-ARCHIVE-DATE                PIC  X(08).
           05  FILLER                         PIC  X(72).               03940016


       01  FILLER                             PIC  X(45)  VALUE
               '**  ARCHIVE DATE RECORD ENDS HERE          **'.

           EJECT

      ******************************************************************
      **   COMBINED PO RQST PURGE RECORD LAYOUT                       **
      ******************************************************************

       01  FILLER                             PIC  X(45)  VALUE
               '**  CMBND PO RQST PURGE RECORD BEGINS HERE **'.

       01  COMBINED-PO-RQST-PURGE-REC.
           05  LINE-KEY.
               10  RQST-NMBR-KEY                PIC  X(08)  VALUE  ' '.
               10  ITEM-NMBR-KEY                PIC  9(04)  VALUE  0.
               10  SEQ-NMBR-KEY                 PIC  9(04)  VALUE  0.
           05  R4070-DATA.
               10  R4070-RQST-CODE              PIC  X(08)  VALUE  ' '.
               10  R4070-UNVRS-CODE             PIC  X(02)  VALUE  ' '.
               10  R4070-TRANS-DATE             PIC  9(08)  VALUE  0.
               10  R4070-TRANS-DATE-X  REDEFINES  R4070-TRANS-DATE.
                   15  FILLER                   PIC  X(08).
               10  R4070-ACTVY-DATE             PIC  9(08)  VALUE  0.
               10  R4070-ACTVY-DATE-X  REDEFINES  R4070-ACTVY-DATE.
                   15  FILLER                   PIC  X(08).
               10  R4070-RQST-NAME              PIC  X(35)  VALUE  ' '.
               10  R4070-TLPHN-AREA-CODE        PIC  X(03)  VALUE  ' '.
               10  R4070-TLPHN-XCHNG-ID         PIC  X(03)  VALUE  ' '.
               10  R4070-TLPHN-SEQ-ID           PIC  X(04)  VALUE  ' '.
               10  R4070-TLPHN-XTNSN-ID         PIC  X(04)  VALUE  ' '.
               10  R4070-DLVRY-DATE             PIC  9(08)  VALUE  0.
               10  R4070-DLVRY-DATE-X  REDEFINES  R4070-DLVRY-DATE.
                   15  FILLER                   PIC  X(08).
               10  R4070-RQST-CMPLT-IND         PIC  X(01)  VALUE  ' '.
               10  R4070-APRVL-IND              PIC  X(01)  VALUE  ' '.
               10  R4070-HDR-CNTR-DTL           PIC  9(04)  VALUE  0.
               10  R4070-HDR-CNTR-ACCT          PIC  9(04)  VALUE  0.
               10  R4070-HDR-ERROR-IND          PIC  X(01)  VALUE  ' '.
               10  R4070-CNCL-IND               PIC  X(01)  VALUE  ' '.
               10  R4070-CNCL-DATE              PIC  9(08)  VALUE  0.
               10  R4070-CNCL-DATE-X  REDEFINES  R4070-CNCL-DATE.
                   15  FILLER                   PIC  X(08).
               10  R4070-COA-CODE               PIC  X(01)  VALUE  ' '.
               10  R4070-ORGZN-CODE             PIC  X(06)  VALUE  ' '.
               10  R4070-RQST-TOTAL             PIC  9(10)V99  VALUE  0.
               10  R4070-ITEM-COUNT             PIC  9(04)  VALUE  0.
               10  R4070-PRINT-DATE             PIC  9(08)  VALUE  0.
               10  R4070-PRINT-DATE-X  REDEFINES  R4070-PRINT-DATE.
                   15  FILLER                   PIC  X(08).
               10  R4070-VNDR-ID-DIGIT-ONE      PIC  X(01)  VALUE  ' '.
               10  R4070-VNDR-ID-LAST-NINE      PIC  X(09)  VALUE  ' '.
               10  R4070-CNTCT-NAME             PIC  X(35)  VALUE  ' '.
               10  R4070-C-TLPHN-AREA-CODE      PIC  X(03)  VALUE  ' '.
               10  R4070-C-TLPHN-XCHNG-ID       PIC  X(03)  VALUE  ' '.
               10  R4070-C-TLPHN-SEQ-ID         PIC  X(04)  VALUE  ' '.
               10  R4070-C-TLPHN-XTNXN-ID       PIC  X(04)  VALUE  ' '.
               10  R4070-VNDR-NAME              PIC  X(35)  VALUE  ' '.
               10  R4070-LIEN-CLOSED-CODE       PIC  X(01)  VALUE  ' '.
               10  R4070-BUYER-ASGN-IND         PIC  X(01)  VALUE  ' '.
               10  R4070-MAILCODE               PIC  X(06)  VALUE  ' '.
           05  R4071-DATA.
               10  R4071-ITEM-NMBR            PIC  9(04)  VALUE  0.
               10  R4071-CMDTY-DESC           PIC  X(35)  VALUE  ' '.
               10  R4071-TRANS-DATE           PIC  9(08)  VALUE  0.
               10  R4071-TRANS-DATE-X  REDEFINES  R4071-TRANS-DATE.
                   15  FILLER                 PIC  X(08).
               10  R4071-ACTVY-DATE           PIC  9(08)  VALUE  0.
               10  R4071-ACTVY-DATE-X  REDEFINES  R4071-ACTVY-DATE.
                   15  FILLER                 PIC  X(08).
               10  R4071-QTY                  PIC S9(06)V99    VALUE  0.
               10  R4071-UNIT-PRICE           PIC  9(10)V9999  VALUE  0.
               10  R4071-UNIT-MEA-CODE        PIC  X(03)  VALUE  ' '.
               10  R4071-SHIP-TO-CODE         PIC  X(06)  VALUE  ' '.
               10  R4071-DTL-CNTR-ACCT        PIC  9(04)  VALUE  0.
               10  R4071-DTL-ERROR-IND        PIC  X(01)  VALUE  ' '.
               10  R4071-DLVRY-DATE           PIC  9(08)  VALUE  0.
               10  R4071-DLVRY-DATE-X  REDEFINES  R4071-DLVRY-DATE.
                   15  FILLER                 PIC  X(08).
               10  R4071-AGRMT-CODE           PIC  X(15)  VALUE  ' '.
               10  R4071-VNDR-INTRL-REF-ID    PIC S9(07)  VALUE  0.
               10  R4071-PRJCT-CODE           PIC  X(08)  VALUE  ' '.
               10  R4071-PART-NMBR            PIC  X(15)  VALUE  ' '.
               10  R4071-ENTY-PRSN-IND        PIC  X(01)  VALUE  ' '.
               10  R4071-LIEN-CLOSED-CODE     PIC  X(01)  VALUE  ' '.
           05  RXXXX-EXTRA-REC-DATA.
               10  R4072-BUYER-CODE           PIC  X(04)  VALUE  ' '.
               10  R4074-CMDTY-CODE           PIC  X(08)  VALUE  ' '.
               10  R4089-BID-NUMBER           PIC  X(08)  VALUE  ' '.
               10  R4083-PO-NUMBER            PIC  X(08)  VALUE  ' '.
               10  R4096-PO-CHNG-SEQ          PIC  X(03)  VALUE  ' '.
               10  R4085-PO-ITEM-NMBR         PIC  X(04)  VALUE  ' '.
           05  R4080-DATA.
               10  R4080-SEQ-NMBR             PIC  9(04)      VALUE  0.
               10  R4080-PCT-DSTBN            PIC  9(03)V999  VALUE  0.
               10  R4080-ACTVY-DATE           PIC  9(08)      VALUE  0.
               10  R4080-ACTVY-DATE-X  REDEFINES  R4080-ACTVY-DATE.
                   15  FILLER                 PIC  X(08).
               10  R4080-ACCT-AMT             PIC  9(10)V99   VALUE  0.
               10  R4080-ACCT-ERROR-IND       PIC  X(01)  VALUE  ' '.
               10  R4080-COA-CODE             PIC  X(01)  VALUE  ' '.
               10  R4080-ACCT-INDX-CODE       PIC  X(10)  VALUE  ' '.
               10  R4080-FUND-CODE            PIC  X(06)  VALUE  ' '.
               10  R4080-ORGZN-CODE           PIC  X(06)  VALUE  ' '.
               10  R4080-ACCT-CODE            PIC  X(06)  VALUE  ' '.
               10  R4080-PRGRM-CODE           PIC  X(06)  VALUE  ' '.
               10  R4080-ACTVY-CODE           PIC  X(06)  VALUE  ' '.
               10  R4080-LCTN-CODE            PIC  X(06)  VALUE  ' '.
               10  R4080-RULE-CLASS-CODE      PIC  X(04)  VALUE  ' '.
               10  R4080-FSCL-YR              PIC  X(02)  VALUE  ' '.
               10  R4080-PSTNG-PRD            PIC  X(02)  VALUE  ' '.
               10  R4080-NSF-OVRDE            PIC  X(01)  VALUE  ' '.
               10  R4080-LIEN-CLOSED-CODE     PIC  X(01)  VALUE  ' '.
               10  R4080-GOVNMT-OWNED-IND     PIC  X(01)  VALUE  ' '.
           05  COMMON-DATA.
               10  ARCHIVE-DATE               PIC  X(08)  VALUE  ' '.
               10  REFRESH-DATE-TIME.
                   15  REFRESH-DATE           PIC  X(08)  VALUE  ' '.
                   15  FILLER                 PIC  X(01)  VALUE  ' '.
                   15  REFRESH-TIME           PIC  X(05)  VALUE  ' '.
           05  FILLER                         PIC  X(56)  VALUE  ' '.


       01  FILLER                             PIC  X(45)  VALUE
               '**  CMBND PO RQST PURGE RECORD ENDS HERE   **'.

           EJECT




      ******************************************************************
      **   PROGRAM SWITCHES                                           **
      ******************************************************************

       01  FILLER                             PIC  X(45)  VALUE
               '**  SWITCH WS AREA BEGINS HERE             **'.

       01  WS-SWITCHES.
           05  SW-NO-MORE-INPUT-RECS          PIC  X(01).
           05  SW-NO-MORE-BUYER-RECS          PIC  X(01).
           05  SW-NO-MORE-CMDTY-RECS          PIC  X(01).
           05  SW-NO-MORE-BIDDTL-RECS         PIC  X(01).
           05  SW-NO-PO-BUYER                 PIC  X(01).
           05  SW-NO-PORQ-CMDTY               PIC  X(01).
           05  SW-NO-PORQ-BIDDTL              PIC  X(01).

       01  FILLER                             PIC  X(45)  VALUE
               '**  SWITCH WS AREA ENDS HERE               **'.

      ******************************************************************
      **   PROGRAM COUNTERS                                           **
      ******************************************************************

       01  FILLER                             PIC  X(45)  VALUE
               '**  COUNTER WS AREA BEGINS HERE            **'.

       01  WS-COUNTERS         COMP-3.
           05  CTR-RQST-PURGE-RECS-READ       PIC S9(07)     VALUE +0.
           05  CTR-PO-BUYER-RECS-READ         PIC S9(07)     VALUE +0.
           05  CTR-PORQ-CMDTY-RECS-READ       PIC S9(07)     VALUE +0.
           05  CTR-PORQ-BIDDTL-RECS-READ      PIC S9(07)     VALUE +0.
           05  CTR-RQST-PURGE-RECS-WRTN       PIC S9(07)     VALUE +0.

       01  WS-COUNTERS-Z.
           05  CTR-RQST-PURGE-RECS-READ-Z     PIC  ZZZZZZZ9.
           05  CTR-PO-BUYER-RECS-READ-Z       PIC  ZZZZZZZ9.
           05  CTR-PORQ-CMDTY-RECS-READ-Z     PIC  ZZZZZZZ9.
           05  CTR-PORQ-BIDDTL-RECS-READ-Z    PIC  ZZZZZZZ9.
           05  CTR-RQST-PURGE-RECS-WRTN-Z     PIC  ZZZZZZZ9.

       01  FILLER                             PIC  X(45)  VALUE
               '**  COUNTER WS AREA ENDS HERE              **'.

           EJECT

      ******************************************************************
      **   MISC WORKING STOREAGE FIELDS                               **
      ******************************************************************

       01  FILLER                             PIC  X(45)  VALUE
               '**  MISC WS FIELDS AREA BEGINS HERE        **'.

       01  MISC-WS-FIELDS.
           05  WS-FORMATTED-TIME.
               10  WS-FORM-HH                 PIC  9(02).
               10  FILLER                     PIC  X(01)  VALUE ':'.
               10  WS-FORM-MM                 PIC  9(02).
           05  WS-BUYER-KEY.
               10  WS-BUYER-PO                PIC  X(08).
           05  WS-CMDTY-KEY.
               10  WS-CMDTY-POH-NO            PIC  X(08).
               10  WS-CMDTY-POH-SEQ           PIC  X(03).
               10  WS-CMDTY-POD-NO            PIC  X(04).
               10  WS-CMDTY-RQSTH-NO          PIC  X(08).
               10  WS-CMDTY-RQSTD-NO          PIC  X(04).
           05  WS-BIDDTL-KEY.
               10  WS-BIDDTL-POH-NO           PIC  X(08).
               10  WS-BIDDTL-POH-SEQ          PIC  X(03).
               10  WS-BIDDTL-POD-NO           PIC  X(04).
               10  WS-BIDDTL-RQSTH-NO         PIC  X(08).
               10  WS-BIDDTL-RQSTD-NO         PIC  X(04).

       01  FILLER                             PIC  X(45)  VALUE
               '**  MISC WS FIELDS AREA ENDS HERE          **'.

           EJECT

      ******************************************************************
      **   CURRENT TIME                                               **
      ******************************************************************

       01  FILLER                             PIC  X(45)  VALUE
               '**  CURRENT TIME WS AREA BEGINS HERE       **'.

       01  WS-TIME.
           05  WS-TIME-HRS                    PIC  9(02)  VALUE ZEROES.
           05  WS-TIME-FLDS.
               10  WS-TIME-MM                 PIC  9(02)  VALUE ZEROES.
               10  WS-TIME-SS                 PIC  9(02)  VALUE ZEROES.
           05  WS-TIME-FLDS-N  REDEFINES  WS-TIME-FLDS
                                              PIC  9(04).

       01  FILLER                             PIC  X(45)  VALUE
               '**  CURRENT TIME WS AREA ENDS HERE         **'.

      ******************************************************************
      **   CURRENT DATE                                               **
      ******************************************************************

       01  FILLER                             PIC  X(45)  VALUE
               '**  CURRENT DATE WS AREA BEGINS HERE       **'.

       01  WS-CURRENT-DATE.
           05  WS-CENTURY                     PIC  9(02)  VALUE ZEROES.
           05  WS-ACCEPT-DATE.
               10  WS-DATE-YEAR               PIC  9(02)  VALUE ZEROES.
               10  WS-DATE-MONTH              PIC  9(02)  VALUE ZEROES.
               10  WS-DATE-DAY                PIC  9(02)  VALUE ZEROES.

       01  FILLER                             PIC  X(45)  VALUE
               '**  CURRENT DATE WS AREA ENDS HERE         **'.

           EJECT

      ******************************************************************
      **   IDMS/R DICTIONARY RECORDS USED BY PROGRAM                  **
      ******************************************************************

       01  FILLER                             PIC  X(45)  VALUE
               '**  R4070-RQST RECORD BEGINS HERE          **'.

           COPY        R4070.

       01  FILLER                             PIC  X(45)  VALUE
               '**  R4070-RQST RECORD ENDS HERE            **'.

           EJECT

       01  FILLER                             PIC  X(45)  VALUE
               '**  R4071-RQST-DTL RECORD BEGINS HERE      **'.

           COPY        R4071.

       01  FILLER                             PIC  X(45)  VALUE
               '**  R4071-RQST-DTL RECORD ENDS HERE        **'.

           EJECT

       01  FILLER                             PIC  X(45)  VALUE
               '**  R4080-RQST-ACCT RECORD BEGINS HERE     **'.

           COPY        R4080.

       01  FILLER                             PIC  X(45)  VALUE
               '**  R4080-RQST-ACCT RECORD ENDS HERE       **'.

           EJECT

      ******************************************************************
      **   TABLES                                                     **
      ******************************************************************

       01  FILLER                             PIC  X(45)  VALUE
               '**  BUYER TABLE BEGINS HERE                **'.

       01  TBL-BUYER-RECORDS.
           05  TBL-BUYER   OCCURS  25000  TIMES  INDEXED  BY  INDX-BUY.
               10  TBL-BUYER-KEY.
                   15  TBL-BUYER-PO           PIC  X(08).
               10  TBL-BUYER-DATA.
                   15  TBL-BUYER-CODE         PIC  X(04).

       01  FILLER                             PIC  X(45)  VALUE
               '**  BUYER TABLE ENDS HERE                  **'.

           EJECT

       01  FILLER                             PIC  X(45)  VALUE
               '**  CMDTY TABLE BEGINS HERE                **'.

       01  TBL-CMDTY-RECORDS.
           05  TBL-CMDTY   OCCURS  10000  TIMES  INDEXED  BY  INDX-CMD.
               10  TBL-CMDTY-KEY.
                   15  TBL-CMDTY-POH-NO       PIC  X(08).
                   15  TBL-CMDTY-POH-SEQ      PIC  X(03).
                   15  TBL-CMDTY-POD-NO       PIC  X(04).
                   15  TBL-CMDTY-RQSTH-NO     PIC  X(08).
                   15  TBL-CMDTY-RQSTD-NO     PIC  X(04).
               10  TBL-CMDTY-DATA.
                   15  TBL-CMDTY-CODE         PIC  X(08).

       01  FILLER                             PIC  X(45)  VALUE
               '**  CMDTY TABLE ENDS HERE                  **'.

           EJECT

       01  FILLER                             PIC  X(45)  VALUE
               '**  BIDDTL TABLE BEGINS HERE               **'.

       01  TBL-BIDDTL-RECORDS.
           05  TBL-BIDDTL  OCCURS  10000  TIMES  INDEXED  BY  INDX-BID.
               10  TBL-BIDDTL-KEY.
                   15  TBL-BIDDTL-POH-NO      PIC  X(08).
                   15  TBL-BIDDTL-POH-SEQ     PIC  X(03).
                   15  TBL-BIDDTL-POD-NO      PIC  X(04).
                   15  TBL-BIDDTL-RQSTH-NO    PIC  X(08).
                   15  TBL-BIDDTL-RQSTD-NO    PIC  X(04).
               10  TBL-BIDDTL-DATA.
                   15  TBL-BID-NUMBER         PIC  X(08).

       01  FILLER                             PIC  X(45)  VALUE
               '**  BIDDTL TABLE ENDS HERE                 **'.


       01  WS-ENDING-DISPLAY.
           05  FILLER                         PIC  X(45)  VALUE
               '**  WORKING STORAGE ENDS HERE              **'.

       PROCEDURE DIVISION.
      ******************************************************************

       MAIN-LINE.

           PERFORM  AA0000-INITIALIZE                THRU  AA0000-EXIT.

           PERFORM  DD0000-DRIVER                    THRU  DD0000-EXIT
               UNTIL  SW-NO-MORE-INPUT-RECS  =  'Y'.

           PERFORM  ZZ0000-END-OF-PROGRAM            THRU  ZZ0000-EXIT.

           GOBACK.

           EJECT

      ******************************************************************
      **
      **   THIS PARAGRAPH DOES THE INITIALIZATION PROCESS...
      **   1) ACCEPT SYSTEM INFORMATION
      **   2) OPENING OF THE FILES                                     C
      **   3) PRIME READ                                               O
      **                                                               L
      *A-1-B--+----2----+----3----+----4----+----5----+----6----+----7-2

       AA0000-INITIALIZE.

           PERFORM  AA1000-DISP-INITS                 THRU  AA1000-EXIT.

           PERFORM  AA2000-OPENS                      THRU  AA2000-EXIT.

           PERFORM  AA3000-PRIME-READ                 THRU  AA3000-EXIT.

           PERFORM  AA4000-LOAD-TABLES                THRU  AA4000-EXIT.

       AA0000-EXIT.          EXIT.

           EJECT

      ******************************************************************
      **
      **   THIS PARAGRAPH DOES THE OPEING DISPLAYS AND INITIALIZES     C
      **   WORK FIELDS.                                                O
      **                                                               L
      *A-1-B--+----2----+----3----+----4----+----5----+----6----+----7-2

       AA1000-DISP-INITS.

           DISPLAY  '************************************************'.
           DISPLAY  '**                                            **'.
           DISPLAY  '**  BEGINNING PROGRAM UDSF915                 **'.
           DISPLAY  '**                                            **'.
           DISPLAY  '**--------------------------------------------**'.
           DISPLAY  '**                                            **'.

           ACCEPT  WS-ACCEPT-DATE     FROM  DATE.
           ACCEPT  WS-TIME            FROM  TIME.

           IF  WS-DATE-YEAR  >  50
               MOVE  19               TO  WS-CENTURY
           ELSE
               MOVE  20               TO  WS-CENTURY.


           MOVE  WS-TIME-HRS          TO  WS-FORM-HH.

           MOVE  WS-TIME-MM           TO  WS-FORM-MM.


           DISPLAY  '**  CURRENT DATE IS -- '
                    WS-CURRENT-DATE
                    '               **'.
           DISPLAY  '**                                            **'.

           DISPLAY  '**  CURRENT TIME IS -- '
                    WS-TIME
                    '                 **'.
           DISPLAY  '**                                            **'.
           DISPLAY  '**                                            **'.

       AA1000-EXIT.          EXIT.

           EJECT


      ******************************************************************
      **                                                               C
      **   THIS PARAGRAPH OPENS THE OUTPUT FILE                        O
      **                                                               L
      *A-1-B--+----2----+----3----+----4----+----5----+----6----+----7-2

       AA2000-OPENS.

           OPEN  INPUT   PO-REQUEST-PURGE-FILE
                         PO-BUYERS-FILE
                         PO-RQST-CMDTY-FILE
                         PO-RQST-BIDDTL-FILE
                         ARCHIVE-DATE-FILE.

           OPEN  OUTPUT  COMBINED-PO-RQST-PURGE-FILE.


           DISPLAY  '**  OPENED INPUT   -  DDNAME - RQSTPRG        **'.
           DISPLAY  '**                                            **'.
           DISPLAY  '**  OPENED INPUT   -  DDNAME - POBUYERS       **'.
           DISPLAY  '**                                            **'.
           DISPLAY  '**  OPENED INPUT   -  DDNAME - PORQCMDT       **'.
           DISPLAY  '**                                            **'.
           DISPLAY  '**  OPENED INPUT   -  DDNAME - PORQBID        **'.
           DISPLAY  '**                                            **'.
           DISPLAY  '**  OPENED INPUT   -  DDNAME - ARCHIVED       **'.
           DISPLAY  '**                                            **'.
           DISPLAY  '**  OPENED OUTPUT  -  DDNAME - CMBNDPRG       **'.
           DISPLAY  '**                                            **'.
           DISPLAY  '**                                            **'.

       AA2000-EXIT.          EXIT.

           EJECT

      ******************************************************************
      **
      **   THIS PARAGRAPH PERFORMS THE PRIME READ OF ALL THE INPUT     C
      **   FILES.                                                      O
      **                                                               L
      *A-1-B--+----2----+----3----+----4----+----5----+----6----+----7-2

       AA3000-PRIME-READ.

           PERFORM  IAA000-READ-RQST-PURGE            THRU  IAA000-EXIT.

           PERFORM  IBB000-READ-ARCHIVE-DATE          THRU  IBB000-EXIT.

           PERFORM  ICC000-READ-PO-BUYER              THRU  ICC000-EXIT.

           PERFORM  IDD000-READ-PORQ-CMDTY            THRU  IDD000-EXIT.

           PERFORM  IEE000-READ-PORQ-BIDDTL           THRU  IEE000-EXIT.

       AA3000-EXIT.          EXIT.

           EJECT

      ******************************************************************
      **                                                               C
      **   LOAD THE THREE SEARCH TABLES.                               O
      **                                                               L
      *A-1-B--+----2----+----3----+----4----+----5----+----6----+----7-2

       AA4000-LOAD-TABLES.

           PERFORM  AA4100-LOAD-BUYER-TABLE           THRU  AA4100-EXIT
               VARYING  INDX-BUY  FROM  1  BY  1
                   UNTIL  SW-NO-MORE-BUYER-RECS  =  'Y'  OR
                          INDX-BUY               >  25000.

           IF  INDX-BUY  >  25000
               DISPLAY  '**  BUYER TABLE MAXED OUT !!!!!    '
                        '           **'.


           PERFORM  AA4200-LOAD-CMDTY-TABLE           THRU  AA4200-EXIT
               VARYING  INDX-CMD  FROM  1  BY  1
                   UNTIL  SW-NO-MORE-CMDTY-RECS  =  'Y'  OR
                          INDX-CMD               >  10000.

           IF  INDX-CMD  >  10000
               DISPLAY  '**  CMDTY TABLE MAXED OUT !!!!!    '
                        '           **'.


           PERFORM  AA4300-LOAD-BIDDTL-TABLE          THRU  AA4300-EXIT
               VARYING  INDX-BID  FROM  1  BY  1
                   UNTIL  SW-NO-MORE-BIDDTL-RECS  =  'Y'  OR
                          INDX-BID                >  10000.

           IF  INDX-BID  >  10000
               DISPLAY  '**  BIDDTL TABLE MAXED OUT !!!!!   '
                        '           **'.

       AA4000-EXIT.          EXIT.

           EJECT

      ******************************************************************
      **                                                               C
      **   LOAD BUYER TABLE                                            O
      **                                                               L
      *A-1-B--+----2----+----3----+----4----+----5----+----6----+----7-2

       AA4100-LOAD-BUYER-TABLE.

           MOVE  POB-KEY                TO  TBL-BUYER-KEY (INDX-BUY).

           MOVE  POB-BUYER-CODE         TO  TBL-BUYER-DATA (INDX-BUY).


           PERFORM  ICC000-READ-PO-BUYER              THRU  ICC000-EXIT.

       AA4100-EXIT.          EXIT.

           EJECT

      ******************************************************************
      **                                                               C
      **   LOAD CMDTY TABLE                                            O
      **                                                               L
      *A-1-B--+----2----+----3----+----4----+----5----+----6----+----7-2

       AA4200-LOAD-CMDTY-TABLE.

           MOVE  PORQ-CMDTY-KEY         TO  TBL-CMDTY-KEY (INDX-CMD).

           MOVE  PORQ-CMDTY-CODE        TO  TBL-CMDTY-DATA (INDX-CMD).


           PERFORM  IDD000-READ-PORQ-CMDTY            THRU  IDD000-EXIT.

       AA4200-EXIT.          EXIT.

           EJECT

      ******************************************************************
      **                                                               C
      **   LOAD BID DTL TABLE                                          O
      **                                                               L
      *A-1-B--+----2----+----3----+----4----+----5----+----6----+----7-2

       AA4300-LOAD-BIDDTL-TABLE.

           MOVE  PORQ-BIDDTL-KEY        TO  TBL-BIDDTL-KEY (INDX-BID).

           MOVE  PORQ-BID-NUMBER        TO  TBL-BIDDTL-DATA (INDX-BID).


           PERFORM  IEE000-READ-PORQ-BIDDTL           THRU  IEE000-EXIT.

       AA4300-EXIT.          EXIT.

           EJECT

      ******************************************************************
      **
      **   DRIVER...
      **   1) DETERMINE WHICH RECORD AND PROCESS.                      C
      **   2) READ THE RQST PURGE FILE.                                O
      **                                                               L
      *A-1-B--+----2----+----3----+----4----+----5----+----6----+----7-2

       DD0000-DRIVER.

           IF  RQST-PRG-REC-TYPE  =  'R4070'
               PERFORM  DD1000-PROCESS-R4070-REC      THRU  DD1000-EXIT
           ELSE
           IF  RQST-PRG-REC-TYPE  =  'R4071'
               PERFORM  DD2000-PROCESS-R4071-REC      THRU  DD2000-EXIT
           ELSE
           IF  RQST-PRG-REC-TYPE  =  'R4080'
               PERFORM  DD3000-PROCESS-R4080-REC      THRU  DD3000-EXIT.


           PERFORM  IAA000-READ-RQST-PURGE            THRU  IAA000-EXIT.

       DD0000-EXIT.          EXIT.

           EJECT

      ******************************************************************
      **                                                               C
      **   PROCESS THE R4070-RQST-HDR RECORD.                          O
      **                                                               L
      *A-1-B--+----2----+----3----+----4----+----5----+----6----+----7-2

       DD1000-PROCESS-R4070-REC.

           INITIALIZE  COMBINED-PO-RQST-PURGE-REC.

           MOVE  WS-CURRENT-DATE             TO  REFRESH-DATE.

           MOVE  WS-FORMATTED-TIME           TO  REFRESH-TIME.

           MOVE  IN-ARCHIVE-DATE             TO  ARCHIVE-DATE.


           MOVE  REQUEST-PRG-UNIQUE-RECS     TO  R4070-RQST.


           MOVE  RQST-CODE-4070              TO  R4070-RQST-CODE
                                                 RQST-NMBR-KEY.

           MOVE  UNVRS-CODE-4070             TO  R4070-UNVRS-CODE.

           MOVE  TRANS-DATE-4070             TO  R4070-TRANS-DATE.

           MOVE  ACTVY-DATE-4070             TO  R4070-ACTVY-DATE.

           MOVE  RQST-NAME-4070              TO  R4070-RQST-NAME.

           MOVE  TLPHN-AREA-CODE-4070        TO  R4070-TLPHN-AREA-CODE.

           MOVE  TLPHN-XCHNG-ID-4070         TO  R4070-TLPHN-XCHNG-ID.

           MOVE  TLPHN-SEQ-ID-4070           TO  R4070-TLPHN-SEQ-ID.

           MOVE  TLPHN-XTNSN-ID-4070         TO  R4070-TLPHN-XTNSN-ID.

           MOVE  DLVRY-DATE-4070             TO  R4070-DLVRY-DATE.

           MOVE  RQST-CMPLT-IND-4070         TO  R4070-RQST-CMPLT-IND.

           MOVE  APRVL-IND-4070              TO  R4070-APRVL-IND.

           MOVE  HDR-CNTR-DTL-4070           TO  R4070-HDR-CNTR-DTL.

           MOVE  HDR-CNTR-ACCT-4070          TO  R4070-HDR-CNTR-ACCT.

           MOVE  HDR-ERROR-IND-4070          TO  R4070-HDR-ERROR-IND.

           MOVE  CNCL-IND-4070               TO  R4070-CNCL-IND.

           MOVE  CNCL-DATE-4070              TO  R4070-CNCL-DATE.

           MOVE  COA-CODE-4070               TO  R4070-COA-CODE.

           MOVE  ORGZN-CODE-4070             TO  R4070-ORGZN-CODE.

           MOVE  RQST-TOTAL-4070             TO  R4070-RQST-TOTAL.

           MOVE  ITEM-COUNT-4070             TO  R4070-ITEM-COUNT.

           MOVE  PRINT-DATE-4070             TO  R4070-PRINT-DATE.

           MOVE  VNDR-ID-DIGIT-ONE-4070      TO
                                             R4070-VNDR-ID-DIGIT-ONE.

           MOVE  VNDR-ID-LAST-NINE-4070      TO
                                             R4070-VNDR-ID-LAST-NINE.

           MOVE  CNTCT-NAME-4070             TO  R4070-CNTCT-NAME.

           MOVE  CNTCT-TLPHN-AREA-CODE-4070  TO
                                             R4070-C-TLPHN-AREA-CODE.

           MOVE  CNTCT-TLPHN-XCHNG-ID-4070   TO  R4070-C-TLPHN-XCHNG-ID.

           MOVE  CNTCT-TLPHN-SEQ-ID-4070     TO  R4070-C-TLPHN-SEQ-ID.

           MOVE  CNTCT-TLPHN-XTNXN-ID-4070   TO  R4070-C-TLPHN-XTNXN-ID.

           MOVE  VNDR-NAME-4070              TO  R4070-VNDR-NAME.

           MOVE  LIEN-CLOSED-CODE-4070       TO  R4070-LIEN-CLOSED-CODE.

           MOVE  BUYER-ASGN-IND-4070         TO  R4070-BUYER-ASGN-IND.

           MOVE  MAILCODE-4070               TO  R4070-MAILCODE.

       DD1000-EXIT.          EXIT.

           EJECT

      ******************************************************************
      **                                                               C
      **   PROCESS THE R4071-RQST-DTL RECORD.                          O
      **                                                               L
      *A-1-B--+----2----+----3----+----4----+----5----+----6----+----7-2

       DD2000-PROCESS-R4071-REC.

           MOVE  REQUEST-PRG-UNIQUE-RECS  TO  R4071-RQST-DTL.


           MOVE  ITEM-NMBR-4071           TO  R4071-ITEM-NMBR
                                              ITEM-NMBR-KEY.

           MOVE  CMDTY-DESC-4071          TO  R4071-CMDTY-DESC.

           MOVE  TRANS-DATE-4071          TO  R4071-TRANS-DATE.

           MOVE  ACTVY-DATE-4071          TO  R4071-ACTVY-DATE.

           MOVE  QTY-4071                 TO  R4071-QTY.

           MOVE  UNIT-PRICE-4071          TO  R4071-UNIT-PRICE.

           MOVE  UNIT-MEA-CODE-4071       TO  R4071-UNIT-MEA-CODE.

           MOVE  SHIP-TO-CODE-4071        TO  R4071-SHIP-TO-CODE.

           MOVE  DTL-CNTR-ACCT-4071       TO  R4071-DTL-CNTR-ACCT.

           MOVE  DTL-ERROR-IND-4071       TO  R4071-DTL-ERROR-IND.

           MOVE  DLVRY-DATE-4071          TO  R4071-DLVRY-DATE.

           MOVE  AGRMT-CODE-4071          TO  R4071-AGRMT-CODE.

           MOVE  VNDR-INTRL-REF-ID-4071   TO  R4071-VNDR-INTRL-REF-ID.

           MOVE  PRJCT-CODE-4071          TO  R4071-PRJCT-CODE.

           MOVE  PART-NMBR-4071           TO  R4071-PART-NMBR.

           MOVE  ENTY-PRSN-IND-4071       TO  R4071-ENTY-PRSN-IND.

           MOVE  LIEN-CLOSED-CODE-4071    TO  R4071-LIEN-CLOSED-CODE.

           MOVE  RQST-PRG-PO-NMBR-SORT    TO  R4083-PO-NUMBER.

           MOVE  RQST-PRG-CHG-SEQ-SORT    TO  R4096-PO-CHNG-SEQ.

           MOVE  RQST-PRG-ITEM-SORT       TO  R4085-PO-ITEM-NMBR.


           MOVE  'N'                      TO  SW-NO-PO-BUYER.

           SET  INDX-BUY  TO  1.

           MOVE  RQST-PRG-PO-NMBR-SORT    TO  WS-BUYER-PO.

           SEARCH  TBL-BUYER
               AT  END
                   MOVE  'Y'              TO  SW-NO-PO-BUYER
               WHEN  TBL-BUYER-KEY (INDX-BUY)  =  WS-BUYER-KEY
                   MOVE  TBL-BUYER-CODE (INDX-BUY)  TO
                                              R4072-BUYER-CODE.

           IF  SW-NO-PO-BUYER  =  'Y'
               MOVE  '    '               TO  R4072-BUYER-CODE.


           MOVE  'N'                      TO  SW-NO-PORQ-CMDTY.

           SET  INDX-CMD  TO  1.

           MOVE  RQST-PRG-PO-NMBR-SORT    TO  WS-CMDTY-POH-NO.
           MOVE  RQST-PRG-CHG-SEQ-SORT    TO  WS-CMDTY-POH-SEQ.
           MOVE  RQST-PRG-ITEM-SORT       TO  WS-CMDTY-POD-NO.
           MOVE  RQST-PRG-RQST-CODE-SORT  TO  WS-CMDTY-RQSTH-NO.
           MOVE  RQST-PRG-RQST-ITEM-SORT  TO  WS-CMDTY-RQSTD-NO.

           SEARCH  TBL-CMDTY
               AT  END
                   MOVE  'Y'              TO  SW-NO-PORQ-CMDTY
               WHEN  TBL-CMDTY-KEY (INDX-CMD)  =  WS-CMDTY-KEY
                   MOVE  TBL-CMDTY-CODE (INDX-CMD)  TO
                                              R4074-CMDTY-CODE.

           IF  SW-NO-PORQ-CMDTY  =  'Y'
               MOVE  '        '           TO  R4074-CMDTY-CODE.


           MOVE  'N'                      TO  SW-NO-PORQ-BIDDTL.

           SET  INDX-BID  TO  1.

           MOVE  RQST-PRG-PO-NMBR-SORT    TO  WS-BIDDTL-POH-NO.
           MOVE  RQST-PRG-CHG-SEQ-SORT    TO  WS-BIDDTL-POH-SEQ.
           MOVE  RQST-PRG-ITEM-SORT       TO  WS-BIDDTL-POD-NO.
           MOVE  RQST-PRG-RQST-CODE-SORT  TO  WS-BIDDTL-RQSTH-NO.
           MOVE  RQST-PRG-RQST-ITEM-SORT  TO  WS-BIDDTL-RQSTD-NO.

           SEARCH  TBL-BIDDTL
               AT  END
                   MOVE  'Y'              TO  SW-NO-PORQ-BIDDTL
               WHEN  TBL-BIDDTL-KEY (INDX-BID)  =  WS-BIDDTL-KEY
                   MOVE  TBL-BID-NUMBER (INDX-BID)  TO
                                              R4089-BID-NUMBER.

           IF  SW-NO-PORQ-BIDDTL  =  'Y'
               MOVE  '        '           TO  R4089-BID-NUMBER.

       DD2000-EXIT.          EXIT.

           EJECT

      ******************************************************************
      **                                                               C
      **   PROCESS THE R4080-RQST-ACCT RECORD.                         O
      **                                                               L
      *A-1-B--+----2----+----3----+----4----+----5----+----6----+----7-2

       DD3000-PROCESS-R4080-REC.

           MOVE  REQUEST-PRG-UNIQUE-RECS   TO  R4080-RQST-ACCT.


           MOVE  SEQ-NMBR-4080             TO  R4080-SEQ-NMBR
                                               SEQ-NMBR-KEY.

           MOVE  PCT-DSTBN-4080            TO  R4080-PCT-DSTBN.

           MOVE  ACTVY-DATE-4080           TO  R4080-ACTVY-DATE.

           MOVE  ACCT-AMT-4080             TO  R4080-ACCT-AMT.

           MOVE  ACCT-ERROR-IND-4080       TO  R4080-ACCT-ERROR-IND.

           MOVE  COA-CODE-4080             TO  R4080-COA-CODE.

           MOVE  ACCT-INDX-CODE-4080       TO  R4080-ACCT-INDX-CODE.

           MOVE  FUND-CODE-4080            TO  R4080-FUND-CODE.

           MOVE  ORGZN-CODE-4080           TO  R4080-ORGZN-CODE.

           MOVE  ACCT-CODE-4080            TO  R4080-ACCT-CODE.

           MOVE  PRGRM-CODE-4080           TO  R4080-PRGRM-CODE.

           MOVE  ACTVY-CODE-4080           TO  R4080-ACTVY-CODE.

           MOVE  LCTN-CODE-4080            TO  R4080-LCTN-CODE.

           MOVE  RULE-CLASS-CODE-4080      TO  R4080-RULE-CLASS-CODE.

           MOVE  FSCL-YR-4080              TO  R4080-FSCL-YR.

           MOVE  PSTNG-PRD-4080            TO  R4080-PSTNG-PRD.

           MOVE  NSF-OVRDE-4080            TO  R4080-NSF-OVRDE.

           MOVE  LIEN-CLOSED-CODE-4080     TO  R4080-LIEN-CLOSED-CODE.

           MOVE  GOVNMT-OWNED-IND-4080     TO  R4080-GOVNMT-OWNED-IND.


           PERFORM  DD3100-EDIT-FIELDS                THRU  DD3100-EXIT.

           PERFORM  OAA000-WRITE-CMBND-PURGE-REC      THRU  OAA000-EXIT.

       DD3000-EXIT.          EXIT.

           EJECT

      ******************************************************************
      **                                                               C
      **   EDIT THE FIELDS FOR VALID INFORMATION.                      O
      **                                                               L
      *A-1-B--+----2----+----3----+----4----+----5----+----6----+----7-2

       DD3100-EDIT-FIELDS.

           IF  R4070-CNCL-DATE  =  0
               MOVE  '        '      TO  R4070-CNCL-DATE-X
           ELSE
               IF  R4070-CNCL-DATE  =  99999999
                   MOVE  '99991231'  TO  R4070-CNCL-DATE-X.


           IF  R4070-ACTVY-DATE  =  0
               MOVE  '        '      TO  R4070-ACTVY-DATE-X
           ELSE
               IF  R4070-ACTVY-DATE  =  99999999
                   MOVE  '99991231'  TO  R4070-ACTVY-DATE-X.


           IF  R4071-ACTVY-DATE  =  0
               MOVE  '        '      TO  R4071-ACTVY-DATE-X
           ELSE
               IF  R4071-ACTVY-DATE  =  99999999
                   MOVE  '99991231'  TO  R4071-ACTVY-DATE-X.


           IF  R4080-ACTVY-DATE  =  0
               MOVE  '        '      TO  R4080-ACTVY-DATE-X
           ELSE
               IF  R4080-ACTVY-DATE  =  99999999
                   MOVE  '99991231'  TO  R4080-ACTVY-DATE-X.


           IF  R4070-DLVRY-DATE  =  0
               MOVE  '        '      TO  R4070-DLVRY-DATE-X
           ELSE
               IF  R4070-DLVRY-DATE  =  99999999
                   MOVE  '99991231'  TO  R4070-DLVRY-DATE-X.


           IF  R4071-DLVRY-DATE  =  0
               MOVE  '        '      TO  R4071-DLVRY-DATE-X
           ELSE
               IF  R4071-DLVRY-DATE  =  99999999
                   MOVE  '99991231'  TO  R4071-DLVRY-DATE-X.


           IF  R4070-PRINT-DATE  =  0
               MOVE  '        '      TO  R4070-PRINT-DATE-X
           ELSE
               IF  R4070-PRINT-DATE  =  99999999
                   MOVE  '99991231'  TO  R4070-PRINT-DATE-X.


           IF  R4071-TRANS-DATE  =  0
               MOVE  '        '      TO  R4071-TRANS-DATE-X
           ELSE
               IF  R4071-TRANS-DATE  =  99999999
                   MOVE  '99991231'  TO  R4071-TRANS-DATE-X.

       DD3100-EXIT.          EXIT.

           EJECT

      ******************************************************************
      **                                                               C
      **   READ THE REQUEST PURGE FILE.                                O
      **                                                               L
      *A-1-B--+----2----+----3----+----4----+----5----+----6----+----7-2

       IAA000-READ-RQST-PURGE.

           READ  PO-REQUEST-PURGE-FILE  INTO  PO-REQUEST-PURGE-REC
               AT  END
                   MOVE  'Y'  TO  SW-NO-MORE-INPUT-RECS
                   GO  TO  IAA000-EXIT.

           ADD  +1  TO  CTR-RQST-PURGE-RECS-READ.

       IAA000-EXIT.          EXIT.





      ******************************************************************
      **                                                               C
      **   READ THE ARCHIVE DATE FILE.                                 O
      **                                                               L
      *A-1-B--+----2----+----3----+----4----+----5----+----6----+----7-2

       IBB000-READ-ARCHIVE-DATE.

           READ  ARCHIVE-DATE-FILE  INTO  ARCHIVE-DATE-REC.

       IBB000-EXIT.          EXIT.

           EJECT

      ******************************************************************
      **                                                               C
      **   READ THE PO BUYER FILE.                                     O
      **                                                               L
      *A-1-B--+----2----+----3----+----4----+----5----+----6----+----7-2

       ICC000-READ-PO-BUYER.

           READ  PO-BUYERS-FILE  INTO  PO-BUYERS-REC
               AT  END
                   MOVE  'Y'  TO  SW-NO-MORE-BUYER-RECS
                   GO  TO  ICC000-EXIT.

           ADD  +1  TO  CTR-PO-BUYER-RECS-READ.

       ICC000-EXIT.          EXIT.





      ******************************************************************
      **                                                               C
      **   READ THE PO REQUEST COMMODITY FILE.                         O
      **                                                               L
      *A-1-B--+----2----+----3----+----4----+----5----+----6----+----7-2

       IDD000-READ-PORQ-CMDTY.

           READ  PO-RQST-CMDTY-FILE  INTO  PO-RQST-CMDTY-REC
               AT  END
                   MOVE  'Y'  TO  SW-NO-MORE-CMDTY-RECS
                   GO  TO  IDD000-EXIT.

           ADD  +1  TO  CTR-PORQ-CMDTY-RECS-READ.

       IDD000-EXIT.          EXIT.

           EJECT

      ******************************************************************
      **                                                               C
      **   READ THE PO REQUEST BID DETAIL FILE.                        O
      **                                                               L
      *A-1-B--+----2----+----3----+----4----+----5----+----6----+----7-2

       IEE000-READ-PORQ-BIDDTL.

           READ  PO-RQST-BIDDTL-FILE  INTO  PO-RQST-BIDDTL-REC
               AT  END
                   MOVE  'Y'  TO  SW-NO-MORE-BIDDTL-RECS
                   GO  TO  IEE000-EXIT.

           ADD  +1  TO  CTR-PORQ-BIDDTL-RECS-READ.

       IEE000-EXIT.          EXIT.

           EJECT

      ******************************************************************
      **                                                               C
      **   WRITE COMBINED PO RQST PURGE RECORD.                        O
      **                                                               L
      *A-1-B--+----2----+----3----+----4----+----5----+----6----+----7-2

       OAA000-WRITE-CMBND-PURGE-REC.

           WRITE  COMBINED-PO-RQST-PURGE-RECORD  FROM
                  COMBINED-PO-RQST-PURGE-REC.

           ADD  +1  TO  CTR-RQST-PURGE-RECS-WRTN.

       OAA000-EXIT.          EXIT.

           EJECT

      ******************************************************************
      **
      **   THIS PARAGRAPH DOES END OF PROGRAM FUNCTIONS....
      **   1) CLOSE THE FILES                                          C
      **   2) DISPLAY OF CONTROL COUNTS                                O
      **                                                               L
      *A-1-B--+----2----+----3----+----4----+----5----+----6----+----7-2

       ZZ0000-END-OF-PROGRAM.

           CLOSE  PO-REQUEST-PURGE-FILE
                  PO-BUYERS-FILE
                  PO-RQST-CMDTY-FILE
                  PO-RQST-BIDDTL-FILE
                  ARCHIVE-DATE-FILE
                  COMBINED-PO-RQST-PURGE-FILE.


           DISPLAY  '**  CLOSED INPUT   -  DDNAME - RQSTPRG        **'.
           DISPLAY  '**                                            **'.
           DISPLAY  '**  CLOSED INPUT   -  DDNAME - POBUYERS       **'.
           DISPLAY  '**                                            **'.
           DISPLAY  '**  CLOSED INPUT   -  DDNAME - PORQCMDT       **'.
           DISPLAY  '**                                            **'.
           DISPLAY  '**  CLOSED INPUT   -  DDNAME - PORQBID        **'.
           DISPLAY  '**                                            **'.
           DISPLAY  '**  CLOSED INPUT   -  DDNAME - ARCHIVED       **'.
           DISPLAY  '**                                            **'.
           DISPLAY  '**  CLOSED OUTPUT  -  DDNAME - CMBNDPRG       **'.
           DISPLAY  '**                                            **'.
           DISPLAY  '**                                            **'.


           MOVE  CTR-RQST-PURGE-RECS-READ     TO
                 CTR-RQST-PURGE-RECS-READ-Z.

           MOVE  CTR-PO-BUYER-RECS-READ       TO
                 CTR-PO-BUYER-RECS-READ-Z.

           MOVE  CTR-PORQ-CMDTY-RECS-READ     TO
                 CTR-PORQ-CMDTY-RECS-READ-Z.

           MOVE  CTR-PORQ-BIDDTL-RECS-READ    TO
                 CTR-PORQ-BIDDTL-RECS-READ-Z.

           MOVE  CTR-RQST-PURGE-RECS-WRTN     TO
                 CTR-RQST-PURGE-RECS-WRTN-Z.


           DISPLAY  '**                                            **'.
           DISPLAY  '**--------------->>  COUNTS  <<---------------**'.
           DISPLAY  '**                                            **'.
           DISPLAY  '**  REQUEST PURGE RECORDS READ     ='
                                      CTR-RQST-PURGE-RECS-READ-Z
                    '  **'.

           DISPLAY  '**                                            **'.
           DISPLAY  '**  PO BUYER RECORDS READ          ='
                                      CTR-PO-BUYER-RECS-READ-Z
                    '  **'.

           DISPLAY  '**                                            **'.
           DISPLAY  '**  PORQ CMDTY RECORDS READ        ='
                                      CTR-PORQ-CMDTY-RECS-READ-Z
                    '  **'.

           DISPLAY  '**                                            **'.
           DISPLAY  '**  PORQ BIDDTL RECORDS READ       ='
                                      CTR-PORQ-BIDDTL-RECS-READ-Z
                    '  **'.

           DISPLAY  '**                                            **'.
           DISPLAY  '**  REQUEST PURGE RECORDS WRITTEN  ='
                                      CTR-RQST-PURGE-RECS-WRTN-Z
                    '  **'.

           DISPLAY  '**                                            **'.

           DISPLAY  '**                                            **'.
           DISPLAY  '**                                            **'.
           DISPLAY  '**--------------------------------------------**'.
           DISPLAY  '**                                            **'.


           DISPLAY  '**  SUCCESSFULLY ENDING PROGRAM UDSF915       **'.
           DISPLAY  '**                                            **'.
           DISPLAY  '************************************************'.


       ZZ0000-EXIT.          EXIT.
