       IDENTIFICATION DIVISION.
       PROGRAM-ID.    UDSF120.
       AUTHOR.        SCOTT S. STECKBAUER (TIERRA SYSTEMS).
       DATE-WRITTEN.  JANUARY 1996.
       DATE-COMPILED.
      ******************************************************************
      ******************************************************************
      **                                                              **
      **  PUVENDOR....                                                **
      **                                                              **
      **                                                              **
      ******************************************************************
      **                                                              **
      **  INPUT:    GUEST.IFIS.VENDOR                                 **
      **                                                              **
      **  OUTPUT:   GENERIC OUTPUT FILE                               **
      **                                                              **
      ******************************************************************
      **                                                              **
      **                   CHANGE HISTORY                             **
      **                                                              **
      **  REF  AUTH    DATE     DESCRIPTION                  CSR NO.  **
      **  ---  ----   ------   ---------------------------  --------- **
      **       SSS   04/08/96  ORIGINAL VERSION OF PGM.      CS-012   **
      **       IA    12/24/97  CORRECTED VENNAME PROCESSING  FDW009   **
      **                                                              **
      ******************************************************************
      ******************************************************************
           EJECT
       ENVIRONMENT DIVISION.
       CONFIGURATION SECTION.
       SOURCE-COMPUTER.
       OBJECT-COMPUTER.

       INPUT-OUTPUT SECTION.
       FILE-CONTROL.

           SELECT  VENDOR-FILE        ASSIGN  TO  VENDOR.

           SELECT  VENNAME-FILE       ASSIGN  TO  VENNAME.

           SELECT  VENADDR-FILE       ASSIGN  TO  VENADDR.

           SELECT  VENPVID-FILE       ASSIGN  TO  VENPVID.

           SELECT  VENPVNM-FILE       ASSIGN  TO  VENPVNM.

           SELECT  VENTYPE-FILE       ASSIGN  TO  VENTYPE.


       DATA DIVISION.

       FILE SECTION.

      ******************************************************************
      **   VENDOR FILE                                                **
      ******************************************************************

       FD  VENDOR-FILE
           RECORDING  MODE    IS  F
           LABEL   RECORDS   ARE  STANDARD
           BLOCK   CONTAINS    0  RECORDS
           RECORD  CONTAINS  200  CHARACTERS.

       01  VENDOR-RECORD     PIC  X(200).





      ******************************************************************
      **   VENNAME FILE                                               **
      ******************************************************************

       FD  VENNAME-FILE
           RECORDING  MODE    IS  F
           LABEL   RECORDS   ARE  STANDARD
           BLOCK   CONTAINS    0  RECORDS
           RECORD  CONTAINS  270  CHARACTERS.

       01  VENNAME-RECORD    PIC  X(270).

           EJECT

      ******************************************************************
      **   VENADDR FILE                                               **
      ******************************************************************

       FD  VENADDR-FILE
           RECORDING  MODE    IS  F
           LABEL   RECORDS   ARE  STANDARD
           BLOCK   CONTAINS    0  RECORDS
           RECORD  CONTAINS  220  CHARACTERS.

       01  VENADDR-RECORD    PIC  X(220).





      ******************************************************************
      **   VENPVID FILE                                               **
      ******************************************************************

       FD  VENPVID-FILE
           RECORDING  MODE    IS  F
           LABEL   RECORDS   ARE  STANDARD
           BLOCK   CONTAINS    0  RECORDS
           RECORD  CONTAINS  080  CHARACTERS.

       01  VENPVID-RECORD    PIC  X(080).

           EJECT

      ******************************************************************
      **   VENPVNM FILE                                               **
      ******************************************************************

       FD  VENPVNM-FILE
           RECORDING  MODE    IS  F
           LABEL   RECORDS   ARE  STANDARD
           BLOCK   CONTAINS    0  RECORDS
           RECORD  CONTAINS  080  CHARACTERS.

       01  VENPVNM-RECORD    PIC  X(080).





      ******************************************************************
      **   VENTYPE FILE                                               **
      ******************************************************************

       FD  VENTYPE-FILE
           RECORDING  MODE    IS  F
           LABEL   RECORDS   ARE  STANDARD
           BLOCK   CONTAINS    0  RECORDS
           RECORD  CONTAINS  080  CHARACTERS.

       01  VENTYPE-RECORD    PIC  X(080).

           EJECT

      ******************************************************************
       WORKING-STORAGE SECTION.
      ******************************************************************

       01  WS-BEGINNING-DISPLAY.
           05  FILLER                         PIC  X(45)  VALUE
               '**  WORKING STORAGE BEGINS HERE            **'.

      ******************************************************************
      **   VENDOR RECORD LAYOUT                                       **
      ******************************************************************

       01  FILLER                             PIC  X(45)  VALUE
               '**  VENDOR RECORD BEGINS HERE              **'.

       01  VENDOR-REC.
           05  VENDOR-ID                      PIC  X(009) VALUE SPACES.
           05  RECORD-TYPE                    PIC  X(001) VALUE SPACES.
           05                 FILLER          PIC  X(190) VALUE SPACES.


       01  FILLER                             PIC  X(45)  VALUE
               '**  VENDOR RECORD ENDS HERE                **'.

           EJECT

      ******************************************************************
      **   VENDOR RECORD 1 LAYOUT                                     **
      ******************************************************************

       01  FILLER                             PIC  X(45)  VALUE
               '**  VENDOR RECORD 1 BEGINS HERE            **'.

       01  VENDOR-REC-1.
           05  VENDOR-ID-1-I                  PIC  X(09)  VALUE SPACES.
           05  RECORD-TYPE-1-I                PIC  X(01)  VALUE SPACES.
           05  FILLER                         PIC  X(02)  VALUE SPACES.
           05  CURRENT-NAME-I                 PIC  X(35)  VALUE SPACES.
           05  FULL-NAME-I                    PIC  X(55)  VALUE SPACES.
           05  SORT-NAME-I                    PIC  X(35)  VALUE SPACES.
           05  SALUTATION-I                   PIC  X(04)  VALUE SPACES.
           05  SUFFIX-I                       PIC  X(04)  VALUE SPACES.
           05  FILLER                         PIC  X(55)  VALUE SPACES.


       01  FILLER                             PIC  X(45)  VALUE
               '**  VENDOR RECORD 1 ENDS HERE              **'.

           EJECT

      ******************************************************************
      **   VENDOR RECORD 2 LAYOUT                                     **
      ******************************************************************

       01  FILLER                             PIC  X(45)  VALUE
               '**  VENDOR RECORD 2 BEGINS HERE            **'.

       01  VENDOR-REC-2.
           05  VENDOR-ID-2-I                  PIC  X(09)  VALUE SPACES.
           05  RECORD-TYPE-2-I                PIC  X(01)  VALUE SPACES.
           05  FILLER                         PIC  X(02)  VALUE SPACES.
           05  ADDR-TYPE-I                    PIC  X(02)  VALUE SPACES.
           05  ADDR-LINE-1-I                  PIC  X(35)  VALUE SPACES.
           05  ADDR-LINE-2-I                  PIC  X(35)  VALUE SPACES.
           05  ADDR-LINE-3-I                  PIC  X(35)  VALUE SPACES.
           05  ADDR-LINE-4-I                  PIC  X(35)  VALUE SPACES.
           05  CITY-NAME-I                    PIC  X(18)  VALUE SPACES.
           05  STATE-CODE-I                   PIC  X(02)  VALUE SPACES.
           05  ZIP-CODE-I                     PIC  X(10)  VALUE SPACES.
           05  COUNTRY-CODE-I                 PIC  X(02)  VALUE SPACES.
           05  TELEPHONE-I                    PIC  X(14)  VALUE SPACES.


       01  FILLER                             PIC  X(45)  VALUE
               '**  VENDOR RECORD 2 ENDS HERE              **'.

           EJECT

      ******************************************************************
      **   VENDOR RECORD 3 LAYOUT                                     **
      ******************************************************************

       01  FILLER                             PIC  X(45)  VALUE
               '**  VENDOR RECORD 3 BEGINS HERE            **'.

       01  VENDOR-REC-3.
           05  VENDOR-ID-3-I                  PIC  X(09)  VALUE SPACES.
           05  RECORD-TYPE-3-I                PIC  X(01)  VALUE SPACES.
           05  FILLER                         PIC  X(02)  VALUE SPACES.
           05  PREV-IDS-I.
               10  PREV-ID-I                  PIC  X(09)  VALUE SPACES
                                  OCCURS  20  TIMES.
           05  FILLER                         PIC  X(08)  VALUE SPACES.


       01  FILLER                             PIC  X(45)  VALUE
               '**  VENDOR RECORD 3 ENDS HERE              **'.

           EJECT

      ******************************************************************
      **   VENDOR RECORD 4 LAYOUT                                     **
      ******************************************************************

       01  FILLER                             PIC  X(45)  VALUE
               '**  VENDOR RECORD 4 BEGINS HERE            **'.

       01  VENDOR-REC-4.
           05  VENDOR-ID-4-I                  PIC  X(09)  VALUE SPACES.
           05  RECORD-TYPE-4-I                PIC  X(01)  VALUE SPACES.
           05  FILLER                         PIC  X(02)  VALUE SPACES.
           05  PREV-NAMES-I.
               10  PREV-NAME-I                PIC  X(35)  VALUE SPACES
                                   OCCURS  5  TIMES.
           05  FILLER                         PIC  X(13)  VALUE SPACES.


       01  FILLER                             PIC  X(45)  VALUE
               '**  VENDOR RECORD 4 ENDS HERE              **'.

           EJECT

      ******************************************************************
      **   VENDOR RECORD 5 LAYOUT                                     **
      ******************************************************************

       01  FILLER                             PIC  X(45)  VALUE
               '**  VENDOR RECORD 5 BEGINS HERE            **'.

       01  VENDOR-REC-5.
           05  VENDOR-ID-5-I                  PIC  X(09)  VALUE SPACES.
           05  RECORD-TYPE-5-I                PIC  X(01)  VALUE SPACES.
           05  FILLER                         PIC  X(02)  VALUE SPACES.
           05  CONT-NAME-I                    PIC  X(35)  VALUE SPACES.
           05  CONT-PHONE-I                   PIC  X(14)  VALUE SPACES.
           05  USE-TAX-IND-I                  PIC  X(01)  VALUE SPACES.
           05  CHCK-GRP-IND-I                 PIC  X(01)  VALUE SPACES.
           05  EFFCT-DATE-I                   PIC  X(08)  VALUE SPACES.
           05  TERM-DATE-I                    PIC  X(08)  VALUE SPACES.
           05  ACTV-DATE-I                    PIC  X(08)  VALUE SPACES.
           05  FED-WTHHLD-PCT-I               PIC  9(03)V999  VALUE  0.
           05  STE-WTHHLD-PCT-I               PIC  9(03)V999  VALUE  0.
           05  TAX-RATE-I                     PIC  X(03)  VALUE SPACES.
           05  V1099-REPORT-I                 PIC  X(09)  VALUE SPACES.
           05  INCOME-TYPE-I                  PIC  X(02)  VALUE SPACES.
           05  ENTY-PER-IND-I                 PIC  X(01)  VALUE SPACES.
           05  ONE-TIME-VEN-I                 PIC  X(01)  VALUE SPACES.
           05  DISCOUNT-CD-I                  PIC  X(02)  VALUE SPACES.
           05  CARRIER-IND-I                  PIC  X(01)  VALUE SPACES.
           05  VENDOR-TYPES-I.
               10  VENDOR-TYPE-I              PIC  X(02)  VALUE SPACES
                                  OCCURS  20  TIMES.
           05  FILLER                         PIC  X(42)  VALUE SPACES.


       01  FILLER                             PIC  X(45)  VALUE
               '**  VENDOR RECORD 5 ENDS HERE              **'.

           EJECT

      ******************************************************************
      **   VENNAME RECORD LAYOUT                                      **
      ******************************************************************

       01  FILLER                             PIC  X(45)  VALUE
               '**  VENNAME RECORD BEGINS HERE             **'.

       01  VENNAME-REC.
           05  VENDOR-ID-O1                   PIC  X(09)  VALUE SPACES.
           05  CURRENT-NAME                   PIC  X(35)  VALUE SPACES.
           05  FULL-NAME                      PIC  X(55)  VALUE SPACES.
           05  SORT-NAME                      PIC  X(35)  VALUE SPACES.
           05  SALUTATION                     PIC  X(04)  VALUE SPACES.
           05  SUFFIX                         PIC  X(04)  VALUE SPACES.
           05  CONT-NAME                      PIC  X(35)  VALUE SPACES.
           05  CONT-PHONE                     PIC  X(14)  VALUE SPACES.
           05  USE-TAX-IND                    PIC  X(01)  VALUE SPACES.
           05  CHCK-GRP-IND                   PIC  X(01)  VALUE SPACES.
           05  EFFCT-DATE                     PIC  X(08)  VALUE SPACES.
           05  TERM-DATE                      PIC  X(08)  VALUE SPACES.
           05  ACTV-DATE                      PIC  X(08)  VALUE SPACES.
           05  FED-WTHHLD-PCT                 PIC  9(03)V999  VALUE  0.
           05  STE-WTHHLD-PCT                 PIC  9(03)V999  VALUE  0.
           05  TAX-RATE                       PIC  X(03)  VALUE SPACES.
           05  V1099-REPORT                   PIC  X(09)  VALUE SPACES.
           05  INCOME-TYPE                    PIC  X(02)  VALUE SPACES.
           05  ENTY-PER-IND                   PIC  X(01)  VALUE SPACES.
           05  ONE-TIME-VEN                   PIC  X(01)  VALUE SPACES.
           05  DISCOUNT-CD                    PIC  X(02)  VALUE SPACES.
           05  CARRIER-IND                    PIC  X(01)  VALUE SPACES.
           05  ARCHIVE-DATE                   PIC  X(06)  VALUE SPACES.
           05  REFRESH-DATE-TIME-O1.
               10  REFRESH-DATE-O1            PIC  X(08)  VALUE SPACES.
               10  FILLER                     PIC  X(01)  VALUE SPACES.
               10  REFRESH-TIME-O1            PIC  X(05)  VALUE SPACES.
           05  FILLER                         PIC  X(10)  VALUE SPACES.

       01  FILLER                             PIC  X(45)  VALUE
               '**  VENNAME RECORD ENDS HERE               **'.

           EJECT

      ******************************************************************
      **   VENADDR RECORD LAYOUT                                      **
      ******************************************************************

       01  FILLER                             PIC  X(45)  VALUE
               '**  VENADDR RECORD BEGINS HERE             **'.

       01  VENADDR-REC.
           05  VENDOR-ID-O2                   PIC  X(09)  VALUE SPACES.
           05  ADDR-TYPE                      PIC  X(02)  VALUE SPACES.
           05  ADDR-LINE-1                    PIC  X(35)  VALUE SPACES.
           05  ADDR-LINE-2                    PIC  X(35)  VALUE SPACES.
           05  ADDR-LINE-3                    PIC  X(35)  VALUE SPACES.
           05  ADDR-LINE-4                    PIC  X(35)  VALUE SPACES.
           05  CITY-NAME                      PIC  X(18)  VALUE SPACES.
           05  STATE-CODE                     PIC  X(02)  VALUE SPACES.
           05  ZIP-CODE                       PIC  X(10)  VALUE SPACES.
           05  COUNTRY-CODE                   PIC  X(02)  VALUE SPACES.
           05  TELEPHONE                      PIC  X(14)  VALUE SPACES.
           05  REFRESH-DATE-TIME-O2.
               10  REFRESH-DATE-O2            PIC  X(08)  VALUE SPACES.
               10  FILLER                     PIC  X(01)  VALUE SPACES.
               10  REFRESH-TIME-O2            PIC  X(05)  VALUE SPACES.
           05  FILLER                         PIC  X(09)  VALUE SPACES.

       01  FILLER                             PIC  X(45)  VALUE
               '**  VENADDR RECORD ENDS HERE               **'.

           EJECT

      ******************************************************************
      **   VENPVID RECORD LAYOUT                                      **
      ******************************************************************

       01  FILLER                             PIC  X(45)  VALUE
               '**  VENPVID RECORD BEGINS HERE             **'.

       01  VENPVID-REC.
           05  VENDOR-ID-O3                   PIC  X(09)  VALUE SPACES.
           05  PREV-VENDOR-ID                 PIC  X(09)  VALUE SPACES.
           05  REFRESH-DATE-TIME-O3.
               10  REFRESH-DATE-O3            PIC  X(08)  VALUE SPACES.
               10  FILLER                     PIC  X(01)  VALUE SPACES.
               10  REFRESH-TIME-O3            PIC  X(05)  VALUE SPACES.
           05  FILLER                         PIC  X(48)  VALUE SPACES.

       01  FILLER                             PIC  X(45)  VALUE
               '**  VENPVID RECORD ENDS HERE               **'.

           EJECT

      ******************************************************************
      **   VENPVNM RECORD LAYOUT                                      **
      ******************************************************************

       01  FILLER                             PIC  X(45)  VALUE
               '**  VENPVNM RECORD BEGINS HERE             **'.

       01  VENPVNM-REC.
           05  VENDOR-ID-O4                   PIC  X(09)  VALUE SPACES.
           05  PREV-VENDOR-NAME               PIC  X(35)  VALUE SPACES.
           05  REFRESH-DATE-TIME-O4.
               10  REFRESH-DATE-O4            PIC  X(08)  VALUE SPACES.
               10  FILLER                     PIC  X(01)  VALUE SPACES.
               10  REFRESH-TIME-O4            PIC  X(05)  VALUE SPACES.
           05  FILLER                         PIC  X(22)  VALUE SPACES.

       01  FILLER                             PIC  X(45)  VALUE
               '**  VENPVNM RECORD ENDS HERE               **'.

           EJECT

      ******************************************************************
      **   VENTYPE RECORD LAYOUT                                      **
      ******************************************************************

       01  FILLER                             PIC  X(45)  VALUE
               '**  VENTYPE RECORD BEGINS HERE             **'.

       01  VENTYPE-REC.
           05  VENDOR-ID-O5                   PIC  X(09)  VALUE SPACES.
           05  VENDOR-TYPE                    PIC  X(02)  VALUE SPACES.
           05  REFRESH-DATE-TIME-O5.
               10  REFRESH-DATE-O5            PIC  X(08)  VALUE SPACES.
               10  FILLER                     PIC  X(01)  VALUE SPACES.
               10  REFRESH-TIME-O5            PIC  X(05)  VALUE SPACES.
           05  FILLER                         PIC  X(55)  VALUE SPACES.

       01  FILLER                             PIC  X(45)  VALUE
               '**  VENTYPE RECORD ENDS HERE               **'.

           EJECT

      ******************************************************************
      **   MISC FIELDS                                                **
      ******************************************************************

       01  FILLER                             PIC  X(45)  VALUE
               '**  MISC FIELDS AREA BEGINS HERE           **'.

       01  WS-MISC-FIELDS.
           05  WS-CURR-VENDOR-NAME            PIC  X(35).
           05  WS-REFRESH-DATE-TIME.
               10  WS-REFRESH-DATE            PIC  X(08)  VALUE SPACES.
               10  FILLER                     PIC  X(01)  VALUE SPACES.
               10  WS-REFRESH-TIME            PIC  X(05)  VALUE SPACES.
           05  SUB                            PIC  9(02).

       01  FILLER                             PIC  X(45)  VALUE
               '**  MISC FIELDS AREA ENDS HERE             **'.

      ******************************************************************
      **   PROGRAM SWITCHES                                           **
      ******************************************************************

       01  FILLER                             PIC  X(45)  VALUE
               '**  SWITCH WS AREA BEGINS HERE             **'.

       01  WS-SWITCHES.
           05  SW-NO-MORE-VENDOR-RECS         PIC  X(01).

       01  FILLER                             PIC  X(45)  VALUE
               '**  SWITCH WS AREA ENDS HERE               **'.

      ******************************************************************
      **   PROGRAM COUNTERS                                           **
      ******************************************************************

       01  FILLER                             PIC  X(45)  VALUE
               '**  COUNTER WS AREA BEGINS HERE            **'.

       01  WS-COUNTERS         COMP-3.
           05  CTR-VENDOR-RECS-READ           PIC S9(07)     VALUE +0.
           05  CTR-VENNAME-RECS-WRTN          PIC S9(07)     VALUE +0.
           05  CTR-VENADDR-RECS-WRTN          PIC S9(07)     VALUE +0.
           05  CTR-VENPVID-RECS-WRTN          PIC S9(07)     VALUE +0.
           05  CTR-VENPVNM-RECS-WRTN          PIC S9(07)     VALUE +0.
           05  CTR-VENTYPE-RECS-WRTN          PIC S9(07)     VALUE +0.

       01  WS-COUNTERS-Z.
           05  CTR-VENDOR-RECS-READ-Z         PIC  ZZZZZZZ9.
           05  CTR-VENNAME-RECS-WRTN-Z        PIC  ZZZZZZZ9.
           05  CTR-VENADDR-RECS-WRTN-Z        PIC  ZZZZZZZ9.
           05  CTR-VENPVID-RECS-WRTN-Z        PIC  ZZZZZZZ9.
           05  CTR-VENPVNM-RECS-WRTN-Z        PIC  ZZZZZZZ9.
           05  CTR-VENTYPE-RECS-WRTN-Z        PIC  ZZZZZZZ9.

       01  FILLER                             PIC  X(45)  VALUE
               '**  COUNTER WS AREA ENDS HERE              **'.

           EJECT

      ******************************************************************
      **   CURRENT TIME                                               **
      ******************************************************************

       01  FILLER                             PIC  X(45)  VALUE
               '**  CURRENT TIME WS AREA BEGINS HERE       **'.

       01  WS-TIME.
           05  WS-TIME-HRS                    PIC  9(02)  VALUE ZEROES.
           05  WS-TIME-FLDS.
               10  WS-TIME-MM                 PIC  9(02)  VALUE ZEROES.
               10  WS-TIME-SS                 PIC  9(02)  VALUE ZEROES.
               10  WS-TIME-HS                 PIC  9(02)  VALUE ZEROES.
           05  WS-TIME-FLDS-N  REDEFINES  WS-TIME-FLDS
                                              PIC  9(06).

       01  WS-TIME-EDIT.
           05  WS-TIME-HH-EDIT                PIC  9(02).
           05  FILLER                         PIC  X(01)  VALUE ':'.
           05  WS-TIME-MM-EDIT                PIC  9(02).


       01  FILLER                             PIC  X(45)  VALUE
               '**  CURRENT TIME WS AREA ENDS HERE         **'.

      ******************************************************************
      **   CURRENT DATE                                               **
      ******************************************************************

       01  FILLER                             PIC  X(45)  VALUE
               '**  CURRENT DATE WS AREA BEGINS HERE       **'.

       01  WS-CURRENT-DATE.
           05  WS-CENTURY                     PIC  9(02)  VALUE ZEROES.
           05  WS-ACCEPT-DATE.
               10  WS-DATE-YEAR               PIC  9(02)  VALUE ZEROES.
               10  WS-DATE-MONTH              PIC  9(02)  VALUE ZEROES.
               10  WS-DATE-DAY                PIC  9(02)  VALUE ZEROES.

       01  FILLER                             PIC  X(45)  VALUE
               '**  CURRENT DATE WS AREA ENDS HERE         **'.

           EJECT


       01  WS-ENDING-DISPLAY.
           05  FILLER                         PIC  X(45)  VALUE
               '**  WORKING STORAGE ENDS HERE              **'.

           EJECT

       PROCEDURE DIVISION.
      ******************************************************************

       MAIN-LINE.

           PERFORM  AA0000-INITIALIZE                THRU  AA0000-EXIT.

           PERFORM  DD0000-DRIVER                    THRU  DD0000-EXIT
               UNTIL  SW-NO-MORE-VENDOR-RECS  =  'Y'.

           PERFORM  ZZ0000-END-OF-PROGRAM            THRU  ZZ0000-EXIT.

           GOBACK.

           EJECT

      ******************************************************************
      **
      **   THIS PARAGRAPH DOES THE INITIALIZATION PROCESS...
      **   1) ACCEPT SYSTEM INFORMATION
      **   2) OPENING OF THE FILES
      **   3) INITIALIZING COUNTERS AND SWITCHES                       C
      **   4) PERFORM PARAGRAPHS FOR FURTHER INITIALIZATION            O
      **                                                               L
      *A-1-B--+----2----+----3----+----4----+----5----+----6----+----7-2

       AA0000-INITIALIZE.

           PERFORM  AA1000-DISP-INITS    THRU  AA1000-EXIT.

           PERFORM  AA2000-OPENS         THRU  AA2000-EXIT.

           PERFORM  AA3000-PRIME-READ    THRU  AA3000-EXIT.

       AA0000-EXIT.          EXIT.

           EJECT

      ******************************************************************
      **
      **   THIS PARAGRAPH DOES THE OPENING DISPLAYS AND INITIALIZES    C
      **   WORK FIELDS.                                                O
      **                                                               L
      *A-1-B--+----2----+----3----+----4----+----5----+----6----+----7-2

       AA1000-DISP-INITS.

           DISPLAY  '************************************************'.
           DISPLAY  '**                                            **'.
           DISPLAY  '**  BEGINNING PROGRAM UDSF120                 **'.
           DISPLAY  '**                                            **'.
           DISPLAY  '**--------------------------------------------**'.
           DISPLAY  '**                                            **'.

           ACCEPT  WS-ACCEPT-DATE     FROM  DATE.

           IF  WS-DATE-YEAR  >  90
               MOVE  19               TO  WS-CENTURY
           ELSE
               MOVE  20               TO  WS-CENTURY.

           DISPLAY  '**  CURRENT DATE IS -- '
                    WS-CURRENT-DATE
                    '               **'.
           DISPLAY  '**                                            **'.


           ACCEPT  WS-TIME            FROM  TIME.

           MOVE  WS-TIME-HRS          TO  WS-TIME-HH-EDIT.

           MOVE  WS-TIME-MM           TO  WS-TIME-MM-EDIT.


           DISPLAY  '**  CURRENT TIME IS -- '
                    WS-TIME
                    '               **'.
           DISPLAY  '**                                            **'.
           DISPLAY  '**                                            **'.


           MOVE  WS-CURRENT-DATE      TO  WS-REFRESH-DATE.

           MOVE  WS-TIME-EDIT         TO  WS-REFRESH-TIME.

       AA1000-EXIT.          EXIT.

           EJECT

      ******************************************************************
      **                                                               C
      **   THIS PARAGRAPH DOES THE OPENS FOR THE FILES                 O
      **                                                               L
      *A-1-B--+----2----+----3----+----4----+----5----+----6----+----7-2

       AA2000-OPENS.

           OPEN  INPUT   VENDOR-FILE.

           DISPLAY  '**  OPENED INPUT  -  VENDOR-FILE              **'.
           DISPLAY  '**                                            **'.


           OPEN  OUTPUT  VENNAME-FILE
                         VENADDR-FILE
                         VENPVID-FILE
                         VENPVNM-FILE
                         VENTYPE-FILE.

           DISPLAY  '**  OPENED OUTPUT -  VENNAME-FILE             **'.
           DISPLAY  '**                                            **'.
           DISPLAY  '**  OPENED OUTPUT -  VENADDR-FILE             **'.
           DISPLAY  '**                                            **'.
           DISPLAY  '**  OPENED OUTPUT -  VENPVID-FILE             **'.
           DISPLAY  '**                                            **'.
           DISPLAY  '**  OPENED OUTPUT -  VENPVNM-FILE             **'.
           DISPLAY  '**                                            **'.
           DISPLAY  '**  OPENED OUTPUT -  VENTYPE-FILE             **'.
           DISPLAY  '**                                            **'.

       AA2000-EXIT.          EXIT.

           EJECT

      ******************************************************************
      **                                                               C
      **   THIS PARAGRAPH DOES THE PRIME READ OF THE VENDOR FILE.      O
      **                                                               L
      *A-1-B--+----2----+----3----+----4----+----5----+----6----+----7-2

       AA3000-PRIME-READ.

           PERFORM  IAA000-READ-VENDOR-FILE      THRU  IAA000-EXIT.

       AA3000-EXIT.          EXIT.

           EJECT

      ******************************************************************
      **
      **   DRIVER...
      **   1) PERFORM INPUT RECORD PROCESSING                          C
      **   2) PERFORM READ NEXT INPUT RECORD                           O
      **                                                               L
      *A-1-B--+----2----+----3----+----4----+----5----+----6----+----7-2

       DD0000-DRIVER.

           IF  RECORD-TYPE  =  '1'
               PERFORM  DD1000-PROCESS-TYPE-1-REC    THRU  DD1000-EXIT
           ELSE
           IF  RECORD-TYPE  =  '2'
               PERFORM  DD2000-PROCESS-TYPE-2-REC    THRU  DD2000-EXIT
           ELSE
           IF  RECORD-TYPE  =  '3'
               PERFORM  DD3000-PROCESS-TYPE-3-REC    THRU  DD3000-EXIT
           ELSE
           IF  RECORD-TYPE  =  '4'
               PERFORM  DD4000-PROCESS-TYPE-4-REC    THRU  DD4000-EXIT
           ELSE
           IF  RECORD-TYPE  =  '5'
               PERFORM  DD5000-PROCESS-TYPE-5-REC    THRU  DD5000-EXIT.

           PERFORM  IAA000-READ-VENDOR-FILE          THRU  IAA000-EXIT.

       DD0000-EXIT.          EXIT.

           EJECT

      ******************************************************************
      **
      **   PROCESS THE TYPE 1 RECORD
      **
      **   THE VENNAME OUTPUT RECORD WILL BE WRITTEN OUT AFTER THE
      **   RECORD TYPE 5'S ARE PROCESSED SINCE SOME OF THE FIELDS      C
      **   ARE ON THAT INPUT RECORD.                                   O
      **                                                               L
      *A-1-B--+----2----+----3----+----4----+----5----+----6----+----7-2

       DD1000-PROCESS-TYPE-1-REC.

           MOVE  VENDOR-REC            TO  VENDOR-REC-1.


           INITIALIZE  VENNAME-REC.


           MOVE  VENDOR-ID-1-I         TO  VENDOR-ID-O1.

           MOVE  CURRENT-NAME-I        TO  CURRENT-NAME
                                           WS-CURR-VENDOR-NAME.

           MOVE  FULL-NAME-I           TO  FULL-NAME.

           MOVE  SORT-NAME-I           TO  SORT-NAME.

           MOVE  SALUTATION-I          TO  SALUTATION.

           MOVE  SUFFIX-I              TO  SUFFIX.


           MOVE  SPACES                TO  ARCHIVE-DATE.

           MOVE  WS-REFRESH-DATE-TIME  TO  REFRESH-DATE-TIME-O1.

       DD1000-EXIT.          EXIT.

           EJECT

      ******************************************************************
      **                                                               C
      **   PROCESS THE TYPE 2 RECORD                                   O
      **                                                               L
      *A-1-B--+----2----+----3----+----4----+----5----+----6----+----7-2

       DD2000-PROCESS-TYPE-2-REC.

           MOVE  VENDOR-REC            TO  VENDOR-REC-2.


           INITIALIZE  VENADDR-REC.


           MOVE  VENDOR-ID-2-I         TO  VENDOR-ID-O2.

           MOVE  ADDR-TYPE-I           TO  ADDR-TYPE.

           MOVE  ADDR-LINE-1-I         TO  ADDR-LINE-1.

           MOVE  ADDR-LINE-2-I         TO  ADDR-LINE-2.

           MOVE  ADDR-LINE-3-I         TO  ADDR-LINE-3.

           MOVE  ADDR-LINE-4-I         TO  ADDR-LINE-4.

           MOVE  CITY-NAME-I           TO  CITY-NAME.

           MOVE  STATE-CODE-I          TO  STATE-CODE.

           MOVE  ZIP-CODE-I            TO  ZIP-CODE.

           MOVE  COUNTRY-CODE-I        TO  COUNTRY-CODE.

           MOVE  TELEPHONE-I           TO  TELEPHONE.

           MOVE  WS-REFRESH-DATE-TIME  TO  REFRESH-DATE-TIME-O2.

           PERFORM  OBB000-WRITE-VENADDR-REC         THRU  OBB000-EXIT.

       DD2000-EXIT.          EXIT.

           EJECT

      ******************************************************************
      **                                                               C
      **   PROCESS THE TYPE 3 RECORD                                   O
      **                                                               L
      *A-1-B--+----2----+----3----+----4----+----5----+----6----+----7-2

       DD3000-PROCESS-TYPE-3-REC.

           MOVE  VENDOR-REC            TO  VENDOR-REC-3.

           PERFORM  DD3100-DO-TYPE-3-MOVES            THRU  DD3100-EXIT
               VARYING  SUB  FROM  1  BY  1
                   UNTIL  SUB  >  20.

       DD3000-EXIT.          EXIT.





      ******************************************************************
      **                                                               C
      **   PROCESS THE TYPE 3 RECORD                                   O
      **                                                               L
      *A-1-B--+----2----+----3----+----4----+----5----+----6----+----7-2

       DD3100-DO-TYPE-3-MOVES.

           IF  PREV-ID-I(SUB)  =  SPACES  OR
               PREV-ID-I(SUB)  =  VENDOR-ID-3-I
               GO TO  DD3100-EXIT.


           INITIALIZE  VENPVID-REC.


           MOVE  VENDOR-ID-3-I         TO  VENDOR-ID-O3.

           MOVE  PREV-ID-I(SUB)        TO  PREV-VENDOR-ID.

           MOVE  WS-REFRESH-DATE-TIME  TO  REFRESH-DATE-TIME-O3.

           PERFORM  OCC000-WRITE-VENPVID-REC         THRU  OCC000-EXIT.

       DD3100-EXIT.          EXIT.

           EJECT

      ******************************************************************
      **                                                               C
      **   PROCESS THE TYPE 4 RECORD                                   O
      **                                                               L
      *A-1-B--+----2----+----3----+----4----+----5----+----6----+----7-2

       DD4000-PROCESS-TYPE-4-REC.

           MOVE  VENDOR-REC            TO  VENDOR-REC-4.

           PERFORM  DD4100-DO-TYPE-4-MOVES            THRU  DD4100-EXIT
               VARYING  SUB  FROM  1  BY  1
                   UNTIL  SUB  >  5.

       DD4000-EXIT.          EXIT.





      ******************************************************************
      **                                                               C
      **   DO THE MOVES AND WRITE FOR THE TYPE 4 RECORD.               O
      **                                                               L
      *A-1-B--+----2----+----3----+----4----+----5----+----6----+----7-2

       DD4100-DO-TYPE-4-MOVES.

           IF  PREV-NAME-I(SUB)  =  SPACES  OR
               PREV-NAME-I(SUB)  =  WS-CURR-VENDOR-NAME
               GO TO  DD4100-EXIT.


           INITIALIZE  VENPVNM-REC.


           MOVE  VENDOR-ID-4-I         TO  VENDOR-ID-O4.

           MOVE  PREV-NAME-I(SUB)      TO  PREV-VENDOR-NAME.

           MOVE  WS-REFRESH-DATE-TIME  TO  REFRESH-DATE-TIME-O4.

           PERFORM  ODD000-WRITE-VENPVNM-REC         THRU  ODD000-EXIT.

       DD4100-EXIT.          EXIT.

           EJECT

      ******************************************************************
      **
      **   PROCESS THE TYPE 5 RECORD
      **
      **   DO THE FINAL MOVES TO THE VENNAME OUTPUT RECORD AND THEN    C
      **   DO THE MOVES FOR THE VENTYPE OUTPUT RECORD.                 O
      **                                                               L
      *A-1-B--+----2----+----3----+----4----+----5----+----6----+----7-2

       DD5000-PROCESS-TYPE-5-REC.

           MOVE  VENDOR-REC            TO  VENDOR-REC-5.

           MOVE  CONT-NAME-I           TO  CONT-NAME.
           MOVE  CONT-PHONE-I          TO  CONT-PHONE.
           MOVE  USE-TAX-IND-I         TO  USE-TAX-IND.
           MOVE  CHCK-GRP-IND-I        TO  CHCK-GRP-IND.
           MOVE  EFFCT-DATE-I          TO  EFFCT-DATE.
           MOVE  TERM-DATE-I           TO  TERM-DATE.
           MOVE  ACTV-DATE-I           TO  ACTV-DATE.
           MOVE  FED-WTHHLD-PCT-I      TO  FED-WTHHLD-PCT.
           MOVE  STE-WTHHLD-PCT-I      TO  STE-WTHHLD-PCT.
           MOVE  TAX-RATE-I            TO  TAX-RATE.
           MOVE  V1099-REPORT-I        TO  V1099-REPORT.
           MOVE  INCOME-TYPE-I         TO  INCOME-TYPE.
           MOVE  ENTY-PER-IND-I        TO  ENTY-PER-IND.
           MOVE  ONE-TIME-VEN-I        TO  ONE-TIME-VEN.
           MOVE  DISCOUNT-CD-I         TO  DISCOUNT-CD.
           MOVE  CARRIER-IND-I         TO  CARRIER-IND.


           IF  EFFCT-DATE  =  '00000000'
               MOVE  SPACES            TO  EFFCT-DATE
           ELSE
               IF  EFFCT-DATE  =  '99999999'
                   MOVE  '99991231'        TO  EFFCT-DATE.

           IF  TERM-DATE  =  '00000000'
               MOVE  SPACES            TO  TERM-DATE
           ELSE
               IF  TERM-DATE  =  '99999999'
                   MOVE  '99991231'        TO  TERM-DATE.

           IF  ACTV-DATE  =  '00000000'
               MOVE  SPACES            TO  ACTV-DATE
           ELSE
               IF  ACTV-DATE  =  '99999999'
                   MOVE  '99991231'        TO  ACTV-DATE.


           PERFORM  OAA000-WRITE-VENNAME-REC         THRU  OAA000-EXIT.


           PERFORM  DD5100-DO-TYPE-5-MOVES           THRU  DD5100-EXIT
               VARYING  SUB  FROM  1  BY  1
                   UNTIL  SUB  >  20.

       DD5000-EXIT.          EXIT.





      ******************************************************************
      **                                                               C
      **   DO THE MOVES AND WRITE FOR THE TYPE 5 RECORD.               O
      **                                                               L
      *A-1-B--+----2----+----3----+----4----+----5----+----6----+----7-2

       DD5100-DO-TYPE-5-MOVES.

           IF  VENDOR-TYPE-I(SUB)  =  SPACES
               GO TO  DD5100-EXIT.


           INITIALIZE  VENTYPE-REC.


           MOVE  VENDOR-ID-5-I         TO  VENDOR-ID-O5.

           MOVE  VENDOR-TYPE-I(SUB)    TO  VENDOR-TYPE.

           MOVE  WS-REFRESH-DATE-TIME  TO  REFRESH-DATE-TIME-O5.

           PERFORM  OEE000-WRITE-VENTYPE-REC         THRU  OEE000-EXIT.

       DD5100-EXIT.          EXIT.

           EJECT

      ******************************************************************
      **                                                               C
      **   READ THE VENDOR FILE                                        O
      **                                                               L
      *A-1-B--+----2----+----3----+----4----+----5----+----6----+----7-2

       IAA000-READ-VENDOR-FILE.

           READ  VENDOR-FILE  INTO  VENDOR-REC
               AT  END
                   MOVE  'Y'  TO  SW-NO-MORE-VENDOR-RECS
                   GO  TO  IAA000-EXIT.

           ADD  +1  TO  CTR-VENDOR-RECS-READ.

       IAA000-EXIT.          EXIT.

           EJECT

      ******************************************************************
      **                                                               C
      **   WRITE THE VENNAME RECORD                                    O
      **                                                               L
      *A-1-B--+----2----+----3----+----4----+----5----+----6----+----7-2

       OAA000-WRITE-VENNAME-REC.

           WRITE  VENNAME-RECORD  FROM  VENNAME-REC.

           ADD  +1  TO  CTR-VENNAME-RECS-WRTN.

       OAA000-EXIT.          EXIT.





      ******************************************************************
      **                                                               C
      **   WRITE THE VENADDR RECORD                                    O
      **                                                               L
      *A-1-B--+----2----+----3----+----4----+----5----+----6----+----7-2

       OBB000-WRITE-VENADDR-REC.

           WRITE  VENADDR-RECORD  FROM  VENADDR-REC.

           ADD  +1  TO  CTR-VENADDR-RECS-WRTN.

       OBB000-EXIT.          EXIT.

           EJECT

      ******************************************************************
      **                                                               C
      **   WRITE THE VENPVID RECORD                                    O
      **                                                               L
      *A-1-B--+----2----+----3----+----4----+----5----+----6----+----7-2

       OCC000-WRITE-VENPVID-REC.

           WRITE  VENPVID-RECORD  FROM  VENPVID-REC.

           ADD  +1  TO  CTR-VENPVID-RECS-WRTN.

       OCC000-EXIT.          EXIT.





      ******************************************************************
      **                                                               C
      **   WRITE THE VENPVNM RECORD                                    O
      **                                                               L
      *A-1-B--+----2----+----3----+----4----+----5----+----6----+----7-2

       ODD000-WRITE-VENPVNM-REC.

           WRITE  VENPVNM-RECORD  FROM  VENPVNM-REC.

           ADD  +1  TO  CTR-VENPVNM-RECS-WRTN.

       ODD000-EXIT.          EXIT.

           EJECT

      ******************************************************************
      **                                                               C
      **   WRITE THE VENTYPE RECORD                                    O
      **                                                               L
      *A-1-B--+----2----+----3----+----4----+----5----+----6----+----7-2

       OEE000-WRITE-VENTYPE-REC.

           WRITE  VENTYPE-RECORD  FROM  VENTYPE-REC.

           ADD  +1  TO  CTR-VENTYPE-RECS-WRTN.

       OEE000-EXIT.          EXIT.

           EJECT

      ******************************************************************
      **
      **   THIS PARAGRAPH DOES END OF PROGRAM FUNCTIONS....
      **   1) CLOSE THE FILES                                          C
      **   2) DISPLAY OF CONTROL COUNTS                                O
      **                                                               L
      *A-1-B--+----2----+----3----+----4----+----5----+----6----+----7-2

       ZZ0000-END-OF-PROGRAM.

           CLOSE  VENDOR-FILE
                  VENNAME-FILE
                  VENADDR-FILE
                  VENPVID-FILE
                  VENPVNM-FILE
                  VENTYPE-FILE.

           DISPLAY  '**--------------------------------------------**'.
           DISPLAY  '**                                            **'.
           DISPLAY  '**                                            **'.
           DISPLAY  '**  CLOSED INPUT  -  VENDOR-FILE              **'.
           DISPLAY  '**                                            **'.
           DISPLAY  '**  CLOSED OUTPUT -  VENNAME-FILE             **'.
           DISPLAY  '**                                            **'.
           DISPLAY  '**  CLOSED OUTPUT -  VENADDR-FILE             **'.
           DISPLAY  '**                                            **'.
           DISPLAY  '**  CLOSED OUTPUT -  VENPVID-FILE             **'.
           DISPLAY  '**                                            **'.
           DISPLAY  '**  CLOSED OUTPUT -  VENPVNM-FILE             **'.
           DISPLAY  '**                                            **'.
           DISPLAY  '**  CLOSED OUTPUT -  VENTYPE-FILE             **'.
           DISPLAY  '**                                            **'.


           MOVE  CTR-VENDOR-RECS-READ          TO
                 CTR-VENDOR-RECS-READ-Z.

           MOVE  CTR-VENNAME-RECS-WRTN         TO
                 CTR-VENNAME-RECS-WRTN-Z.

           MOVE  CTR-VENADDR-RECS-WRTN         TO
                 CTR-VENADDR-RECS-WRTN-Z.

           MOVE  CTR-VENPVID-RECS-WRTN         TO
                 CTR-VENPVID-RECS-WRTN-Z.

           MOVE  CTR-VENPVNM-RECS-WRTN         TO
                 CTR-VENPVNM-RECS-WRTN-Z.

           MOVE  CTR-VENTYPE-RECS-WRTN         TO
                 CTR-VENTYPE-RECS-WRTN-Z.


           DISPLAY  '**                                            **'.
           DISPLAY  '**--------------->>  COUNTS  <<---------------**'.
           DISPLAY  '**                                            **'.
           DISPLAY  '**  VENDOR RECORDS READ            ='
                                      CTR-VENDOR-RECS-READ-Z
                    '  **'.

           DISPLAY  '**                                            **'.
           DISPLAY  '**  VENNAME RECORDS WRITTEN        ='
                                      CTR-VENNAME-RECS-WRTN-Z
                    '  **'.


           DISPLAY  '**                                            **'.
           DISPLAY  '**  VENADDR RECORDS WRITTEN        ='
                                      CTR-VENADDR-RECS-WRTN-Z
                    '  **'.


           DISPLAY  '**                                            **'.
           DISPLAY  '**  VENPVID RECORDS WRITTEN        ='
                                      CTR-VENPVID-RECS-WRTN-Z
                    '  **'.


           DISPLAY  '**                                            **'.
           DISPLAY  '**  VENPVNM RECORDS WRITTEN        ='
                                      CTR-VENPVNM-RECS-WRTN-Z
                    '  **'.


           DISPLAY  '**                                            **'.
           DISPLAY  '**  VENTYPE RECORDS WRITTEN        ='
                                      CTR-VENTYPE-RECS-WRTN-Z
                    '  **'.


           DISPLAY  '**                                            **'.
           DISPLAY  '**--------------------------------------------**'.
           DISPLAY  '**                                            **'.


           DISPLAY  '**  SUCCESSFULLY ENDING PROGRAM UDSF120       **'.
           DISPLAY  '**                                            **'.
           DISPLAY  '************************************************'.

       ZZ0000-EXIT.          EXIT.
